MODEL	Length	width	
PS-260	1.97	1.34	4.13
PS-445	1.89	2.09	3.86
PS-490	4.01	1.73	4.02
PS-4100	4.01	1.97	3.85
PS-605	2.24	0.55	1.97
PS-610	2.00	1.65	2.20
PS-612	3.82	0.94	2.20
PS-628	2.60	1.30	4.06
PS-630	5.28	1.34	2.56
PS-632	2.60	1.30	4.80
PS-640F	2.76	1.86	4.25
PS-650L	2.64	2.64	4.64
PS-665	3.86	2.20	4.02
PS-670	5.95	1.34	3.94
PS-682F	3.86	2.20	4.72
PS-6100	5.95	2.00	3.86
PS-6120	4.25	2.80	5.55
PS-6120 Toy	4.25	2.80	5.55
PS-6200	6.18	3.27	4.92
PS-6360	6.25	3.35	6.93
PS-6580	7.28	4.41	8.07
PS-62000	12.05	6.65	8.96
PS-832	5.29	1.42	2.70
PS-1208	3.78	0.98	n/a
PS-1212	3.78	1.69	2.28
PS-1220	7.00	1.38	2.56
PS-1221	5.63	0.94	n/a
PS-1221S	5.91	0.80	n/a
PS-1223	7.17	0.94	n/a
PS-1227	3.11	2.20	4.13
PS-1228	5.24	1.30	4.09
PS-1229	7.00	1.38	2.60
PS-1230	5.24	2.64	2.60
PS-1238	7.68	1.85	2.99
PS-1250	3.54	2.76	4.21
PS-1251FP	5.50	1.90	4.06
PS-1270	5.95	2.56	3.86
PS-1272	5.95	2.56	3.86
PS-1282 L	7.72	2.20	4.65
PS-1282 S	3.86	4.40	4.65
PS-1290	5.95	2.56	3.86
PS-12100	5.95	4.00	3.86
PS-12120	5.95	3.86	3.94
PS-12120L	8.45	2.75	5.75
PS-12140	5.95	3.86	3.94
PS-12180	7.13	3.00	6.59
PS-12260	6.56	6.97	4.92
PS-12280	6.50	4.92	6.97
PS-12330	7.72	5.14	7.00
PS-12350	7.72	5.14	7.00
PS-12400	7.76	6.50	6.69
PS-12550	9.04	5.45	8.98
PS-12750	10.25	6.60	8.98
PS-121000	12.00	6.60	8.98
PS-121100	13.00	6.73	8.66
PS-121400 FR	13.50	6.73	11.15
PSH-655 FR	2.76	1.85	4.17
PSH-1255 FR	3.54	2.76	4.21
PSH-1280FR	5.94	2.56	3.86
PSH-12100 FR	5.94	2.56	4.61
PSH-12180 FR	7.14	3.03	6.59
PSG-450	3.54	1.94	2.87
PSG-480	3.54	1.94	4.00
PSG-625	4.15	1.63	2.70
PSG-650	5.28	1.94	3.00
PSG-680	5.28	1.94	3.98
PG-6V210 FR	12.70	7.00	9.21
PG-12V28 FR	6.56	6.96	4.92
PG-12V35 FR	7.72	5.10	6.97
PG-12V42 FR	7.76	6.50	6.14
PG-12V55 FR	8.98	5.39	8.50
PG-12V75 FR	13.70	6.57	6.46
PG-12V75T FR	10.24	6.61	8.51
PG-12V92 FR	12.05	6.61	8.51
PG-12V103 FR	13.00	6.80	8.66
PG-12V120 FR	16.14	6.97	8.86
PG-12V140 FR	13.50	6.73	11.02
PG-12V150 FR	19.10	6.70	8.82
PG-12V200 FR	20.55	9.45	8.82
