ID,Ship Weight
1008751,0.25
1008753,0.25
1008752,0.25
1001716,1.5
1005637,0.25
1006122,5
1004404,0.125
1003733,0.125
1004296,0.01
1008696,0.01
1008847,0.25
1006813,0.125
1007866,0.125
1007856,0.25
1007850,0.25
1007819,0.125
1005869,0.25
1007510,2
1007043,0.5
1006063,42
1007169,1.4
1004791,0.25
1008830,0.0625
1008838,0.0625
1008797,1
1007500,8
1008794,1.4
1008756,0.25
1006289,2
1008798,0.25
1008829,0.125
1003664,0.5
1008851,1
1008799,1.2
1008758,0.25
1008795,0.5
1008757,0.25
1008833,0.125
1005208,0.0625
1005501,1
1008630,0.125
1008453,0.125
1004315,1
1005929,1
1008689,1.4
1000420,0.25
1004322,0.0625
1007212,1
1008848,0.0625
1008708,2
1008710,6
1007703,1.2
1001071,2
1005735,0.5
1008162,0.03125
1008843,0.03125
1008762,0.25
1008836,0.125
1007938,0.8125
1007944,0.8125
1007946,0.8125
1007947,0.8125
1007952,0.8125
1007939,1
1007942,1
1007943,1
1007945,1
1007948,0.8125
1007949,0.8125
1004177,0.25
1007601,0.01
1008766,0.0625
1008741,0.5
1005165,0.6875
1008740,15
1005966,0.5
1008853,0.0625
1008819,0.25
1008800,0.0625
1008803,0.0625
1004529,0.125
1006132,0.125
1008627,0.125
1008628,0.125
1008626,0.125
1005815,0.25
1006561,0.125
1006248,0.125
1006116,0.01
1006117,0.01
1003827,0.01
1004328,0.75
646,0.5
1008624,0.0625
1008633,0.0625
1002757,0.125
1007587,1.3
1008837,1
1007668,0.25
1008823,0.0625
1007667,0.1875
1005994,0.1875
1001381,1.8
1004377,0.0625
742,1.8
1004731,1
1006134,0.125
1008828,0.125
1008755,0.25
1000781,1.1
1007166,0.375
1007634,0.0625
1005487,6
1008801,1.4
1008712,1
1005928,0.125
1003496,0.125
1004363,1.2
923,0.375
1004010,0.01
1008759,0.25
1005405,0.125
1008103,0.125
1003495,0.01
1008781,0.01
1004489,1
1004488,1
1004490,1
1008856,0.5
1008632,0.125
1008761,0.25
1005969,0.625
1008764,0.5
1005184,0.25
1005927,0.125
1005035,0.5
1005036,0.5
1005033,0.5
1005034,0.5
1005843,1
1007182,1
1008748,0.01
1008852,0.625
1008785,0.5
1005483,0.551156
1008835,0.625
1003573,0.625
1003572,0.625
1005489,0.25
1008796,0.5625
1008857,1
1008855,0.5
1008825,0.5
1005140,0.375
100011,1.2
1007933,0.1875
1008808,0.25
1008793,0.5
1006585,0.375
1008816,0.125
1008849,0.3125
1003034,5
1008760,0.25
1008813,0.5
1003054,1
1004305,0.5
1007600,0.01
1007244,0.5
768,1.6
1008815,0.5
1006412,0.5
1008854,0.5
1008806,1
1002039,0.5
1008811,1
1008832,0.125
1008805,0.875
1008812,2.5
1008850,1
1008827,1
1008826,1
1008840,1
100025,0.25
1001040,0.25
1005707,2
1008814,1
1006274,0.0625
1006272,0.25
1008846,0.125
1008845,0.125
1005199,0.0625
1001929,1
1008821,1.5
1008818,1.2
1008817,1.8
1005390,0.125
1007707,22
1007708,22
1007706,26
1007705,26
1004881,30
1008773,1
1006589,1.10231
1006588,1.10231
1008767,0.5
1008768,0.25
1008769,0.25
1001701,0.5
1008701,0.125
1008702,0.125
1008820,0.0625
1005852,0.25
1004225,0.3125
1006452,0.125
1006048,0.125
1006046,5
1004011,0.5
1004972,1.3
1004777,2
1006273,0.5
1008787,0.5
1008802,1
1008810,1
1008809,1
1004409,0.5
1007214,1
1008631,0.125
1004993,250
1004992,250
1004991,250
1003277,1.1
1002588,0.25
1004118,0.25
1003875,0.25
1001865,0.25
1003051,0.5
1002586,0.25
1001866,0.25
1008822,0.125
743,3.2
1007305,0.5
1008765,0.25
1004895,0.25
1004896,0.25
1006255,1.5
1005030,0.5
1005029,0.5
1005031,0.5
1005032,0.5
1008841,0.0625
744,0.625
1003745,2
1008834,0
