"Jewelry & Watches *",,"Accessories *",23,"Button Studs",," *",," *",," *",," *",," *"
"Jewelry & Watches *",,"Accessories *",22,"Cuff Links",," *",," *",," *",," *",," *"
"Jewelry & Watches *",,"Accessories *",19,"Hair Jewelry",," *",," *",," *",," *",," *"
"Jewelry & Watches *",,"Accessories *",12,"Individual Charms",," *",," *",," *",," *",," *"
"Jewelry & Watches *",,"Accessories *",,"Jewelry Boxes & Organizers *",15434,"Jewelry Armoires",," *",," *",," *",," *"
"Jewelry & Watches *",,"Accessories *",,"Jewelry Boxes & Organizers *",13,"Jewelry Boxes",," *",," *",," *",," *"
"Jewelry & Watches *",,"Accessories *",,"Jewelry Boxes & Organizers *",15435,"Jewelry Chests",," *",," *",," *",," *"
"Jewelry & Watches *",,"Accessories *",,"Jewelry Boxes & Organizers *",4657,"Jewelry Rolls",," *",," *",," *",," *"
"Jewelry & Watches *",,"Accessories *",,"Jewelry Boxes & Organizers *",4655,"Jewelry Stands",," *",," *",," *",," *"
"Jewelry & Watches *",,"Accessories *",,"Jewelry Boxes & Organizers *",15436,"Jewelry Towers",," *",," *",," *",," *"
"Jewelry & Watches *",,"Accessories *",,"Jewelry Boxes & Organizers *",15437,"Jewelry Trays",," *",," *",," *",," *"
"Jewelry & Watches *",,"Accessories *",,"Jewelry Cleaning & Care *",4620,"Cleaning Cloths",," *",," *",," *",," *"
"Jewelry & Watches *",,"Accessories *",,"Jewelry Cleaning & Care *",4621,"Cleaning Machines",," *",," *",," *",," *"
"Jewelry & Watches *",,"Accessories *",,"Jewelry Cleaning & Care *",4622,"Cleaning Product Kits",," *",," *",," *",," *"
"Jewelry & Watches *",,"Accessories *",,"Jewelry Cleaning & Care *",4623,"Cleaning Solution",," *",," *",," *",," *"
"Jewelry & Watches *",,"Accessories *",20,"Key Chains",," *",," *",," *",," *",," *"
"Jewelry & Watches *",,"Accessories *",25,"Lapel Pins",," *",," *",," *",," *",," *"
"Jewelry & Watches *",,"Accessories *",21,"Money Clips",," *",," *",," *",," *",," *"
"Jewelry & Watches *",,"Accessories *",26,"Pins and Brooches",," *",," *",," *",," *",," *"
"Jewelry & Watches *",,"Accessories *",4624,"Tiaras",," *",," *",," *",," *",," *"
"Jewelry & Watches *",,"Accessories *",24,"Tie Clips",," *",," *",," *",," *",," *"
"Jewelry & Watches *",431,"Body Piercings",," *",," *",," *",," *",," *",," *"
"Jewelry & Watches *",,"Bracelets *",9,"Anklets",," *",," *",," *",," *",," *"
"Jewelry & Watches *",,"Bracelets *",4625,"Bangles",," *",," *",," *",," *",," *"
"Jewelry & Watches *",,"Bracelets *",4968,"Bead Bracelets",," *",," *",," *",," *",," *"
"Jewelry & Watches *",,"Bracelets *",4633,"Bracelet Sets",," *",," *",," *",," *",," *"
"Jewelry & Watches *",,"Bracelets *",4631,"Chain Bracelets",," *",," *",," *",," *",," *"
"Jewelry & Watches *",,"Bracelets *",4626,"Charm Bracelets",," *",," *",," *",," *",," *"
"Jewelry & Watches *",,"Bracelets *",4627,"Cuff Bracelets",," *",," *",," *",," *",," *"
"Jewelry & Watches *",,"Bracelets *",4632,"Golf Bracelets",," *",," *",," *",," *",," *"
"Jewelry & Watches *",,"Bracelets *",4628,"ID Bracelets",," *",," *",," *",," *",," *"
"Jewelry & Watches *",,"Bracelets *",4629,"Link Bracelets",," *",," *",," *",," *",," *"
"Jewelry & Watches *",,"Bracelets *",4630,"Tennis Bracelets",," *",," *",," *",," *",," *"
"Jewelry & Watches *",,"Earrings *",4644,"Ball Earrings",," *",," *",," *",," *",," *"
"Jewelry & Watches *",,"Earrings *",4646,"Button Earrings",," *",," *",," *",," *",," *"
"Jewelry & Watches *",,"Earrings *",4647,"Dangle Earrings",," *",," *",," *",," *",," *"
"Jewelry & Watches *",,"Earrings *",4649,"Ear Cuffs",," *",," *",," *",," *",," *"
"Jewelry & Watches *",,"Earrings *",4651,"Ear Pins",," *",," *",," *",," *",," *"
"Jewelry & Watches *",,"Earrings *",4650,"Ear Wraps",," *",," *",," *",," *",," *"
"Jewelry & Watches *",,"Earrings *",4648,"Earring Jackets",," *",," *",," *",," *",," *"
"Jewelry & Watches *",,"Earrings *",4654,"Earring Sets",," *",," *",," *",," *",," *"
"Jewelry & Watches *",,"Earrings *",4645,"Half-Ball Earrings",," *",," *",," *",," *",," *"
"Jewelry & Watches *",,"Earrings *",4652,"Hoop Earrings",," *",," *",," *",," *",," *"
"Jewelry & Watches *",,"Earrings *",4653,"Stud Earrings",," *",," *",," *",," *",," *"
"Jewelry & Watches *",4656,"Jewelry Forms",," *",," *",," *",," *",," *",," *"
"Jewelry & Watches *",14,"Jewelry Sets",," *",," *",," *",," *",," *",," *"
"Jewelry & Watches *",,"Pendants & Necklaces *",4634,"Chains",," *",," *",," *",," *",," *"
"Jewelry & Watches *",,"Pendants & Necklaces *",4635,"Chokers",," *",," *",," *",," *",," *"
"Jewelry & Watches *",,"Pendants & Necklaces *",4636,"Collars",," *",," *",," *",," *",," *"
"Jewelry & Watches *",,"Pendants & Necklaces *",10,"Lockets",," *",," *",," *",," *",," *"
"Jewelry & Watches *",,"Pendants & Necklaces *",4642,"Pendant Enhancer",," *",," *",," *",," *",," *"
"Jewelry & Watches *",,"Pendants & Necklaces *",4638,"Pendants",," *",," *",," *",," *",," *"
"Jewelry & Watches *",,"Pendants & Necklaces *",4639,"Ropes",," *",," *",," *",," *",," *"
"Jewelry & Watches *",,"Pendants & Necklaces *",4643,"Slides",," *",," *",," *",," *",," *"
"Jewelry & Watches *",,"Pendants & Necklaces *",4640,"Strands",," *",," *",," *",," *",," *"
"Jewelry & Watches *",15,"Raw Materials",17,"Beads",," *",," *",," *",," *",," *"
"Jewelry & Watches *",15,"Raw Materials",4658,"Clasps",," *",," *",," *",," *",," *"
"Jewelry & Watches *",15,"Raw Materials",16,"Loose Stones",," *",," *",," *",," *",," *"
"Jewelry & Watches *",2,"Rings",27,"Ring Sets",," *",," *",," *",," *",," *"
"Jewelry & Watches *",3,"Watches",6388,"Accessories",," *",," *",," *",," *",," *"
"Jewelry & Watches *",3,"Watches",29,"Pendant Watches",," *",," *",," *",," *",," *"
"Jewelry & Watches *",3,"Watches",30,"Pocket Watches",," *",," *",," *",," *",," *"
"Jewelry & Watches *",3,"Watches",4,"Watch Bands",," *",," *",," *",," *",," *"
"Jewelry & Watches *",3,"Watches",5,"Watch Batteries",," *",," *",," *",," *",," *"
"Jewelry & Watches *",3,"Watches",4659,"Watch Box",," *",," *",," *",," *",," *"
"Jewelry & Watches *",3,"Watches",2878,"Watch Winders",," *",," *",," *",," *",," *"
