"Software *",,"Business Software *",5875,"Accounting",," *",," *",," *",," *",," *"
"Software *",,"Business Software *",5880,"Database Management",," *",," *",," *",," *",," *"
"Software *",,"Business Software *",5876,"Forms Generator/Designer",," *",," *",," *",," *",," *"
"Software *",,"Business Software *",6591,"Point of Sale Software",," *",," *",," *",," *",," *"
"Software *",,"Business Software *",5877,"Project & Time Management",," *",," *",," *",," *",," *"
"Software *",,"Business Software *",5874,"Software Suites",," *",," *",," *",," *",," *"
"Software *",,"Business Software *",5879,"Spreadsheet",," *",," *",," *",," *",," *"
"Software *",,"Business Software *",5878,"Word Processing",," *",," *",," *",," *",," *"
"Software *",,"Communications *",5883,"Data & Fax",," *",," *",," *",," *",," *"
"Software *",,"Communications *",5882,"Networking & Connectivity",," *",," *",," *",," *",," *"
"Software *",,"Communications *",5884,"Telephony",," *",," *",," *",," *",," *"
"Software *",,"Design & Multimedia *",5887,"Audio/Video Utilities",," *",," *",," *",," *",," *"
"Software *",,"Design & Multimedia *",5888,"Engineering/Home Design",," *",," *",," *",," *",," *"
"Software *",,"Design & Multimedia *",5886,"Graphics & Publishing",," *",," *",," *",," *",," *"
"Software *",,"Music *",,"Computer Recording *",15271,"Accompaniment",," *",," *",," *",," *"
"Software *",,"Music *",,"Computer Recording *",15272,"Audio Plug-Ins",," *",," *",," *",," *"
"Software *",,"Music *",,"Computer Recording *",15285,"Instructional",," *",," *",," *",," *"
"Software *",,"Music *",,"Computer Recording *",15273,"Looping & Remixing",," *",," *",," *",," *"
"Software *",,"Music *",,"Computer Recording *",15279,"Mastering & Burning",," *",," *",," *",," *"
"Software *",,"Music *",,"Computer Recording *",15281,"MIDI",," *",," *",," *",," *"
"Software *",,"Music *",,"Computer Recording *",15280,"Music Creation & Sequencing",," *",," *",," *",," *"
"Software *",,"Music *",,"Computer Recording *",15284,"Notation & Composition",," *",," *",," *",," *"
"Software *",,"Music *",,"Computer Recording *",15274,"Production Stations",," *",," *",," *",," *"
"Software *",,"Music *",,"Computer Recording *",15275,"Recording",," *",," *",," *",," *"
"Software *",,"Music *",,"Computer Recording *",15276,"Sampling",," *",," *",," *",," *"
"Software *",,"Music *",,"Computer Recording *",15282,"Sound Editing",," *",," *",," *",," *"
"Software *",,"Music *",,"Computer Recording *",15283,"Sound Libraries",," *",," *",," *",," *"
"Software *",,"Music *",,"Computer Recording *",15277,"Synthesizers",," *",," *",," *",," *"
"Software *",,"Music *",,"Computer Recording *",15278,"Virtual Instruments",," *",," *",," *",," *"
"Software *",,"Music *",6912,"Instructional",," *",," *",," *",," *",," *"
"Software *",,"Operating Systems *",5892,"Linux/Unix",," *",," *",," *",," *",," *"
"Software *",,"Operating Systems *",5891,"Mac OS",," *",," *",," *",," *",," *"
"Software *",,"Operating Systems *",5893,"Other OS",," *",," *",," *",," *",," *"
"Software *",,"Operating Systems *",5890,"Windows (Family)",," *",," *",," *",," *",," *"
"Software *",5894,"Programming & Development",," *",," *",," *",," *",," *",," *"
"Software *",,"Reference & Education *",5896,"Education",," *",," *",," *",," *",," *"
"Software *",,"Reference & Education *",5897,"Reference",," *",," *",," *",," *",," *"
"Software *",,"Security/Virus/Utilities *",5900,"Anti-Virus",," *",," *",," *",," *",," *"
"Software *",,"Security/Virus/Utilities *",5901,"Backup Utility",," *",," *",," *",," *",," *"
"Software *",,"Security/Virus/Utilities *",5899,"Security",," *",," *",," *",," *",," *"
"Software *",,"Security/Virus/Utilities *",5902,"System Utilities",," *",," *",," *",," *",," *"
