1036700,"Accessories","ProductType:accessory OR ProductType:hat OR ProductType:bag"
1234356011,"Accessories/Belts","ProductType:accessory AND StyleKeywords:belts"
393526011,"Accessories/Cold Weather Accessories",
1264921011,"Accessories/Cold Weather Accessories/Arm Warmers","ProductType:accessory AND StyleKeywords:cold-weather-arm-warmers "
393527011,"Accessories/Cold Weather Accessories/Ear Muffs","ProductType:accessory AND StyleKeywords:earmuffs"
1264922011,"Accessories/Cold Weather Accessories/Fingerless Gloves","ProductType:accessory AND StyleKeywords:cold-weather-fingerless-gloves"
393529011,"Accessories/Cold Weather Accessories/Gloves","ProductType:accessory AND ( StyleKeywords:gloves OR StyleKeywords:glove-scarf-sets )"
393531011,"Accessories/Cold Weather Accessories/Hats","ProductType:accessory AND StyleKeywords:cold-weather"
393530011,"Accessories/Cold Weather Accessories/Mittens & Hand Muffs","ProductType:accessory AND ( StyleKeywords:mittens OR StyleKeywords:muffs )"
393532011,"Accessories/Cold Weather Accessories/Neck Warmers","ProductType:accessory AND StyleKeywords:neck-warmers"
393533011,"Accessories/Cold Weather Accessories/Scarves","ProductType:accessory AND ( ( StyleKeywords:scarfs AND Lifestyle:snow ) OR StyleKeywords:glove-scarf-sets )"
1264923011,"Accessories/Cold Weather Accessories/Sets","ProductType:accessory AND StyleKeywords:cold-weather-accessory-sets"
15743621,"Accessories/Eyewear",
1046314,"Accessories/Eyewear/Cases","ProductType:accessory AND StyleKeywords:eyeglass-cases"
688766011,"Accessories/Eyewear/Chains & Lanyards","ProductType:accessory AND StyleKeywords:eyeglass-chains"
13611511,"Accessories/Eyewear/Prescription Eyewear","ProductType:accessory AND StyleKeywords:prescription-eyewear"
1046310,"Accessories/Eyewear/Sunglasses","ProductType:accessory AND StyleKeywords:sunglasses"
1046284,"Accessories/Gloves","ProductType:accessory AND StyleKeywords:gloves"
15743631,"Accessories/Handbags","ProductType:bag AND StyleKeywords:handbags"
15743641,"Accessories/Handbags/Baguettes","ProductType:bag AND StyleKeywords:handbags AND StyleKeywords:baguettes"
15743651,"Accessories/Handbags/Bowling","ProductType:bag AND StyleKeywords:handbags AND StyleKeywords:bowling-style"
15743661,"Accessories/Handbags/Clutches","ProductType:bag AND StyleKeywords:handbags AND StyleKeywords:clutches"
15743701,"Accessories/Handbags/Hobos","ProductType:bag AND StyleKeywords:handbags AND StyleKeywords:hobos"
673127011,"Accessories/Handbags/Mini-Bags","ProductType:bag AND StyleKeywords:handbags AND StyleKeywords:mini-handbags"
673128011,"Accessories/Handbags/Oversized","ProductType:bag AND StyleKeywords:handbags AND StyleKeywords:oversized-handbags"
15743671,"Accessories/Handbags/Special Occasion","ProductType:bag AND StyleKeywords:handbags AND ( Lifestyle:dress OR Lifestyle:formal OR StyleKeywords:evening-bags )"
15743741,"Accessories/Handbags/Totes","ProductType:bag AND StyleKeywords:handbags AND StyleKeywords:totes"
673131011,"Accessories/Handbags/Wristlets","ProductType:bag AND StyleKeywords:handbags AND StyleKeywords:wristlet-handbags"
1046464,"Accessories/Handkerchiefs","ProductType:accessory AND StyleKeywords:handkerchiefs"
1046286,"Accessories/Hats","ProductType:hat"
1266091011,"Accessories/Hats/Baseball Caps","ProductType:hat AND StyleKeywords:baseball-caps"
1267357011,"Accessories/Hats/Berets","ProductType:hat AND StyleKeywords:berets"
2206544011,"Accessories/Hats/Bowlers","ProductType:hat AND StyleKeywords:bowlers"
1271802011,"Accessories/Hats/Cowboy Hats","ProductType:hat AND StyleKeywords:cowboy-hats"
1266779011,"Accessories/Hats/Fedoras","ProductType:hat AND StyleKeywords:fedoras"
1046302,"Accessories/Hats/Knit Caps","ProductType:hat AND StyleKeywords:knit-caps"
1268065011,"Accessories/Hats/Newsboy Caps","ProductType:hat AND StyleKeywords:newsboy-caps"
2206545011,"Accessories/Hats/Straw Hats","ProductType:hat AND FabricType:straw"
1266777011,"Accessories/Hats/Sun Hats","ProductType:hat AND StyleKeywords:sun-hats "
3058671,"Accessories/Hats/Visors","ProductType:hat AND StyleKeywords:visors"
15743161,"Accessories/Luggage, Bags & Travel",
15743171,"Accessories/Luggage, Bags & Travel/Bags & Backpacks","ProductType:bag AND ( Lifestyle:athletic OR StyleKeywords:messenger-bag OR StyleKeywords:messenger-bags OR StyleKeywords:wheeled-backpacks )"
360832011,"Accessories/Luggage, Bags & Travel/Bags & Backpacks/Backpacks","ProductType:bag AND ( StyleKeywords:laptop-backpacks OR StyleKeywords:wheeled-backpacks )"
15743211,"Accessories/Luggage, Bags & Travel/Bags & Backpacks/Duffle Bags","ProductType:bag AND StyleKeywords:duffle-bags"
15743181,"Accessories/Luggage, Bags & Travel/Bags & Backpacks/Gym Bags","ProductType:bag AND Lifestyle:athletic"
15743231,"Accessories/Luggage, Bags & Travel/Bags & Backpacks/Messenger Bags","ProductType:bag AND StyleKeywords:messenger-bags"
15743251,"Accessories/Luggage, Bags & Travel/Luggage","ProductType:bag AND StyleKeywords:luggage"
15743261,"Accessories/Luggage, Bags & Travel/Luggage/Carry-Ons","ProductType:bag AND StyleKeywords:carry-ons AND StyleKeywords:luggage"
15743271,"Accessories/Luggage, Bags & Travel/Luggage/Garment Bags","ProductType:bag AND StyleKeywords:garment-bags AND StyleKeywords:luggage"
15743281,"Accessories/Luggage, Bags & Travel/Luggage/Hardside Luggage","ProductType:bag AND StyleKeywords:hardsided AND StyleKeywords:luggage"
15743291,"Accessories/Luggage, Bags & Travel/Luggage/Matching Sets","ProductType:bag AND StyleKeywords:luggage-sets AND StyleKeywords:luggage"
15743301,"Accessories/Luggage, Bags & Travel/Luggage/Rolling Luggage","ProductType:bag AND StyleKeywords:wheeled AND StyleKeywords:luggage"
15743241,"Accessories/Luggage, Bags & Travel/Luggage/Totes","ProductType:bag AND StyleKeywords:totes AND StyleKeywords:luggage"
15743971,"Accessories/Luggage, Bags & Travel/Travel Accessories",
1234358011,"Accessories/Luggage, Bags & Travel/Travel Accessories/Luggage Tags","ProductType:accessory AND StyleKeywords:luggage-tags"
15744041,"Accessories/Luggage, Bags & Travel/Travel Accessories/Packing Cubes","ProductType:accessory AND StyleKeywords:packing-cubes"
15744051,"Accessories/Luggage, Bags & Travel/Travel Accessories/Packing Folders","ProductType:accessory AND StyleKeywords:packing-folders"
15744061,"Accessories/Luggage, Bags & Travel/Travel Accessories/Shoe Bags","ProductType:bag AND StyleKeywords:shoe-bags"
1046282,"Accessories/Scarves","ProductType:accessory AND ( StyleKeywords:scarfs OR StyleKeywords:glove-scarf-sets )"
1046292,"Accessories/Scarves/Cashmere","ProductType:accessory AND ( StyleKeywords:scarfs OR StyleKeywords:glove-scarf-sets ) AND ( FabricType:cashmere OR FabricType:cashmere-blend )"
1046290,"Accessories/Scarves/Knit","ProductType:accessory AND ( StyleKeywords:scarfs OR StyleKeywords:glove-scarf-sets ) AND ( FabricType:knit OR StyleKeywords:knit )"
1057864,"Accessories/Scarves/Prints & Patterns","ProductType:accessory AND ( StyleKeywords:scarfs OR StyleKeywords:glove-scarf-sets ) AND ( StyleKeywords:print OR StyleKeywords:patterned )"
1057862,"Accessories/Scarves/Rectangular","ProductType:accessory AND ( StyleKeywords:scarfs OR StyleKeywords:glove-scarf-sets ) AND StyleKeywords:rectangular-scarfs"
1057858,"Accessories/Scarves/Silk","ProductType:accessory AND ( StyleKeywords:scarfs OR StyleKeywords:glove-scarf-sets ) AND FabricType:silk"
1057860,"Accessories/Scarves/Square","ProductType:accessory AND ( StyleKeywords:scarfs OR StyleKeywords:glove-scarf-sets ) AND StyleKeywords:square-scarfs"
1046294,"Accessories/Scarves/Wool","ProductType:accessory AND ( StyleKeywords:scarfs OR StyleKeywords:glove-scarf-sets ) AND ( FabricType:wool OR FabricType:wool-blend )"
1234359011,"Accessories/Suspenders","ProductType:accessory AND StyleKeywords:suspenders"
1046470,"Accessories/Ties & Cummerbunds/Bow Ties","ProductType:accessory AND StyleKeywords:bow-ties"
1266201011,"Accessories/Ties & Cummerbunds/Cummerbunds","ProductType:accessory AND StyleKeywords:cummerbunds "
690329011,"Accessories/Ties & Cummerbunds/Neckties","ProductType:accessory AND StyleKeywords:ties"
15744111,"Accessories/Umbrellas","ProductType:accessory AND StyleKeywords:umbrellas"
15743771,"Accessories/Wallets, Money & Key Organizers/Billfolds & Wallets","ProductType:accessory AND StyleKeywords:wallets"
15743781,"Accessories/Wallets, Money & Key Organizers/Billfolds & Wallets/Bifolds","ProductType:accessory AND StyleKeywords:wallets AND StyleKeywords:bifold"
699891011,"Accessories/Wallets, Money & Key Organizers/Billfolds & Wallets/Card Cases","ProductType:accessory AND StyleKeywords:wallets AND StyleKeywords:card-case-wallets"
699890011,"Accessories/Wallets, Money & Key Organizers/Billfolds & Wallets/Money Clips","ProductType:accessory AND StyleKeywords:wallets AND StyleKeywords:money-clip-wallets"
15743811,"Accessories/Wallets, Money & Key Organizers/Billfolds & Wallets/Trifolds","ProductType:accessory AND StyleKeywords:wallets AND StyleKeywords:trifold"
15743881,"Accessories/Wallets, Money & Key Organizers/Checkbook Covers","ProductType:accessory AND StyleKeywords:checkbook-cases"
15743831,"Accessories/Wallets, Money & Key Organizers/Coin Purses","ProductType:accessory AND StyleKeywords:coin-purses"
15743841,"Accessories/Wallets, Money & Key Organizers/Credit Card Holders","ProductType:accessory AND StyleKeywords:credit-card-holders"
673132011,"Accessories/Wallets, Money & Key Organizers/ID Cases","ProductType:accessory AND StyleKeywords:identification-cases"
15743891,"Accessories/Wallets, Money & Key Organizers/Key Rings & Fobs","ProductType:accessory AND StyleKeywords:keychains"
15743901,"Accessories/Wallets, Money & Key Organizers/Money Clips","ProductType:accessory AND StyleKeywords:money-clips"
673133011,"Accessories/Wallets, Money & Key Organizers/Passport Holders","ProductType:accessory AND StyleKeywords:passport-holders"
15743861,"Accessories/Wallets, Money & Key Organizers/Travel Wallets","ProductType:accessory AND ( StyleKeywords:travel-wallets OR StyleKeywords:wallets-on-a-string )"
2206546011,"Accessories/Wraps, Stoles & Pashminas","StyleKeywords:stoles OR StyleKeywords:apparel-wraps-and-shawls"
258061011,"Costumes & Accessories",
721066011,"Costumes & Accessories/Costumes","StyleKeywords:costumes"
721067011,"Costumes & Accessories/Hats","StyleKeywords:costume-hats"
721068011,"Costumes & Accessories/Masks","StyleKeywords:costume-masks"
721070011,"Costumes & Accessories/More Accessories","StyleKeywords:costume-accessories OR StyleKeywords:costume-capes OR StyleKeywords:costume-facial-hair OR StyleKeywords:costume-teeth OR StyleKeywords:costume-footwear OR StyleKeywords:costume-gloves OR StyleKeywords:costume-hosiery OR StyleKeywords:costume-makeup OR StyleKeywords:costume-weapons OR  StyleKeywords:costume-wings "
722012011,"Costumes & Accessories/Shoes","StyleKeywords:costume-shoes OR StyleKeywords:costume-footwear"
721069011,"Costumes & Accessories/Wigs","StyleKeywords:costume-wigs"
319624011,"Exotic Apparel",
319625011,"Exotic Apparel/Bras","ProductType:bra AND StyleKeywords:adult-apparel-boutique "
319626011,"Exotic Apparel/Camisoles","StyleKeywords:camisoles AND StyleKeywords:adult-apparel-boutique "
319627011,"Exotic Apparel/Chemises, Teddies & Negligees","( StyleKeywords:teddies OR StyleKeywords:chemises OR StyleKeywords:negligees ) AND StyleKeywords:adult-apparel-boutique "
319628011,"Exotic Apparel/Corsets & Bustiers","( StyleKeywords:corsets OR StyleKeywords:bustiers ) AND StyleKeywords:adult-apparel-boutique "
378950011,"Exotic Apparel/Costumes","( StyleKeywords:costumes OR StyleKeywords:costume-accessories OR StyleKeywords:costume-gloves OR StyleKeywords:costume-hats OR StyleKeywords:costume-wings OR StyleKeywords:costume-hosiery OR StyleKeywords:costume-capes OR StyleKeywords:costume-footwear OR StyleKeywords:costume-makeup OR StyleKeywords:costume-masks OR StyleKeywords:costume-facial-hair OR StyleKeywords:costume-wigs OR StyleKeywords:costume-weapons OR StyleKeywords:costume-teeth ) AND StyleKeywords:adult-apparel-boutique "
339828011,"Exotic Apparel/Dresses","ProductType:dress AND StyleKeywords:adult-apparel-boutique "
319629011,"Exotic Apparel/Garter Belts","StyleKeywords:garter-belts AND StyleKeywords:adult-apparel-boutique "
319630011,"Exotic Apparel/Lingerie Sets"," ( ProductType:underwear OR ProductType:bra ) AND StyleKeywords:set AND StyleKeywords:adult-apparel-boutique "
319631011,"Exotic Apparel/Panties","( StyleKeywords:panties-general OR StyleKeywords:bikini-briefs OR StyleKeywords:boy-shorts OR StyleKeywords:briefs OR StyleKeywords:thongs ) AND StyleKeywords:adult-apparel-boutique "
319632011,"Exotic Apparel/Petticoats","StyleKeywords:petticoats OR StyleKeywords:pettipants AND StyleKeywords:adult-apparel-boutique "
617364011,"Exotic Apparel/Shoes","ProductType:shoes AND StyleKeywords:adult-apparel-boutique "
337166011,"Exotic Apparel/Sleepwear & Robes","ProductType:sleepwear AND StyleKeywords:adult-apparel-boutique "
337167011,"Exotic Apparel/Socks & Hosiery","ProductType:sockshosiery AND StyleKeywords:adult-apparel-boutique "
337168011,"Exotic Apparel/Swimwear","ProductType:swimwear AND StyleKeywords:adult-apparel-boutique "
49957011,"Juniors","Department:teen-girls OR Department:unisex-teen"
49958011,"Juniors/Activewear","Department:teen-girls AND Lifestyle:athletic"
49996011,"Juniors/Activewear/Pants","Department:teen-girls AND Lifestyle:athletic AND ProductType:pants"
50001011,"Juniors/Activewear/Shorts","Department:teen-girls AND Lifestyle:athletic AND ProductType:shorts"
50012011,"Juniors/Activewear/Skirts, Skorts & Dresses","Department:teen-girls AND Lifestyle:athletic AND ( ProductType:dress OR ProductType:skirt OR StyleKeywords:skorts )"
50070011,"Juniors/Activewear/Sweatshirts, Pants & Suits","Department:teen-girls AND Lifestyle:athletic AND ( StyleKeywords:sweatsuits OR StyleKeywords:sweatshirts OR StyleKeywords:sweatpants OR StyleKeywords:sports-headbands OR StyleKeywords:wristbands )"
50090011,"Juniors/Activewear/Tops","Department:teen-girls AND Lifestyle:athletic AND ProductType:shirt OR StyleKeywords:tanks"
50000011,"Juniors/Activewear/Track Pants","Department:teen-girls AND Lifestyle:athletic AND StyleKeywords:warmup-pants"
50097011,"Juniors/Activewear/Track Suits","Department:teen-girls AND Lifestyle:athletic AND StyleKeywords:warmup-suits"
49962011,"Juniors/Activewear/Underwear","Department:teen-girls AND Lifestyle:athletic AND StyleKeywords:panties-general"
50180011,"Juniors/Dresses","Department:teen-girls AND ProductType:dress"
50184011,"Juniors/Dresses/Baby Doll","Department:teen-girls AND ProductType:dress AND StyleKeywords:baby-doll"
50194011,"Juniors/Dresses/Prom & Party","Department:teen-girls AND ProductType:dress AND ( Lifestyle:formal OR Lifestyle:dress OR Lifestyle:party )"
50189011,"Juniors/Dresses/Shirtdresses","Department:teen-girls AND ProductType:dress AND StyleKeywords:shirtdresses"
50191011,"Juniors/Dresses/Sundresses","Department:teen-girls AND ProductType:dress AND StyleKeywords:sundresses"
50192011,"Juniors/Dresses/Tank Dresses","Department:teen-girls AND ProductType:dress AND StyleKeywords:tanks"
50193011,"Juniors/Dresses/Wrap","Department:teen-girls AND ProductType:dress AND StyleKeywords:wraps"
1258612011,"Juniors'/Hoodies & Loungewear/Hoodies","Department:teen-girls AND StyleKeywords:sweatshirts AND StyleKeywords:hooded"
1258613011,"Juniors'/Hoodies & Loungewear/Pants","Department:teen-girls AND StyleKeywords:sweatpants"
1258614011,"Juniors'/Hoodies & Loungewear/Sets","Department:teen-girls AND StyleKeywords:sweatsuits"
50333011,"Juniors/Jackets & Blazers","Department:teen-girls AND ( ProductType:blazer OR ProductType:suit )"
50231011,"Juniors/Outerwear","Department:teen-girls AND ProductType:outerwear"
50232011,"Juniors/Outerwear/Coats","Department:teen-girls AND ProductType:outerwear AND StyleKeywords:coats"
50251011,"Juniors/Outerwear/Fleece","Department:teen-girls AND ProductType:outerwear AND ( FabricType:fleece OR FabricType:polartec-fleece OR StyleKeywords:fleece )"
50258011,"Juniors/Outerwear/Jackets & Parkas","Department:teen-girls AND ProductType:outerwear AND ( StyleKeywords:jackets OR StyleKeywords:parkas )"
1252206011,"Juniors'/Outerwear/Leather, Suede & Shearling","Department:teen-girls AND ProductType:outerwear AND ( FabricType:leather OR FabricType:suede OR FabricType:fur ) "
50283011,"Juniors/Outerwear/Rainwear","Department:teen-girls AND ProductType:outerwear AND ( StyleKeywords:rain-jackets OR StyleKeywords:waterproof OR Lifestyle:rain OR StyleKeywords:raincoats )"
50289011,"Juniors/Outerwear/Vests","Department:teen-girls AND ProductType:outerwear AND StyleKeywords:vests"
50099011,"Juniors/Pants","Department:teen-girls AND ProductType:pants"
50107011,"Juniors/Pants/Corduroys","Department:teen-girls AND ProductType:pants AND ( FabricType:corduroy OR StyleKeywords:corduroy OR StyleKeywords:cords )"
1265353011,"Juniors'/Pants/Cropped & Capris","Department:teen-girls AND ProductType:pants AND ( StyleKeywords:cropped OR StyleKeywords:capris ) "
50100011,"Juniors/Pants/Dress","Department:teen-girls AND ProductType:pants AND ( Lifestyle:business OR Lifestyle:dress OR Lifestyle:formal )"
50116011,"Juniors/Pants/Jeans","Department:teen-girls AND ProductType:pants AND StyleKeywords:jeans"
50125011,"Juniors/Pants/Khakis & Chinos","Department:teen-girls AND ProductType:pants AND ( StyleKeywords:chinos OR StyleKeywords:khakis )"
50352011,"Juniors/Shirts","Department:teen-girls AND ProductType:shirt"
50353011,"Juniors/Shirts/Blouses","Department:teen-girls AND ProductType:shirt AND StyleKeywords:blouses"
50363011,"Juniors/Shirts/Polos","Department:teen-girls AND ProductType:shirt AND StyleKeywords:polos"
50144011,"Juniors/Shorts","Department:teen-girls AND ProductType:shorts"
50159011,"Juniors/Skirts","Department:teen-girls AND ProductType:skirt"
50292011,"Juniors/Sleepwear","ProductType:sleepwear"
50293011,"Juniors/Sleepwear/Pajamas/Pajama Bottoms","Department:teen-girls AND ProductType:sleepwear AND StyleKeywords:pajama-bottoms"
50296011,"Juniors/Sleepwear/Pajamas/Pajama Sets","Department:teen-girls AND ProductType:sleepwear AND  ( StyleKeywords:shorts-set OR StyleKeywords:shorts-sets OR StyleKeywords:pants-set OR StyleKeywords:pants-sets )"
50297011,"Juniors/Sleepwear/Robes","Department:teen-girls AND ProductType:sleepwear AND ( StyleKeywords:robes OR StyleKeywords:housecoats )"
50301011,"Juniors/Sleepwear/Sleep Shirts & Nightgowns","Department:teen-girls AND ProductType:sleepwear AND ( StyleKeywords:night-shirts OR StyleKeywords:nightgowns )"
50311011,"Juniors/Socks & Hosiery","Department:teen-girls AND ProductType:sockshosiery"
50312011,"Juniors/Socks & Hosiery/Pantyhose","Department:teen-girls AND ProductType:sockshosiery AND StyleKeywords:pantyhose"
50317011,"Juniors/Socks & Hosiery/Socks","Department:teen-girls AND ProductType:sockshosiery AND StyleKeywords:socks"
50326011,"Juniors/Socks & Hosiery/Tights","Department:teen-girls AND ProductType:sockshosiery AND StyleKeywords:tights"
50383011,"Juniors/Sweaters","Department:teen-girls AND ProductType:sweater"
50337011,"Juniors/Swimwear","Department:teen-girls AND ProductType:swimwear"
50338011,"Juniors/Swimwear/Cover-Ups","Department:teen-girls AND ProductType:swimwear AND ( StyleKeywords:cover-ups OR StyleKeywords:sarongs OR StyleKeywords:wraps )"
50339011,"Juniors/Swimwear/One-Piece","Department:teen-girls AND ProductType:swimwear AND StyleKeywords:tank-suits"
50346011,"Juniors/Swimwear/Two-Piece","Department:teen-girls AND ProductType:swimwear AND ( StyleKeywords:bikinis ORStyleKeywords:french-bikinis )"
50375011,"Juniors/T-Shirts","Department:teen-girls AND StyleKeywords:t-shirts"
1044510,"Kids' & Baby/Baby Boys (0-24 Months)","Department:baby-boys "
1046184,"Kids' & Baby/Baby Boys (0-24 Months)/Body Suits","Department:baby-boys AND StyleKeywords:bodysuits"
13698211,"Kids' & Baby/Baby Boys (0-24 Months)/Clothing Sets","Department:baby-boys AND StyleKeywords:coordinate-sets"
699897011,"Kids' & Baby/Baby Boys (0-24 Months)/One-Pieces","Department:baby-boys AND StyleKeywords:one-piece"
1046178,"Kids' & Baby/Baby Boys (0-24 Months)/Overalls","Department:baby-boys AND ( StyleKeywords:overalls OR StyleKeywords:shortalls )"
1046176,"Kids' & Baby/Baby Boys (0-24 Months)/Pants","Department:baby-boys AND ProductType:pants"
1044520,"Kids' & Baby/Baby Boys (0-24 Months)/Rompers","Department:baby-boys AND StyleKeywords:rompers"
13698231,"Kids' & Baby/Baby Boys (0-24 Months)/Sets","Department:baby-boys AND StyleKeywords:coordinate-sets"
1044516,"Kids' & Baby/Baby Boys (0-24 Months)/Shirts","Department:baby-boys AND ProductType:shirt"
1046180,"Kids' & Baby/Baby Boys (0-24 Months)/Shorts","Department:baby-boys AND ProductType:shorts"
1044524,"Kids' & Baby/Baby Boys (0-24 Months)/Sleepwear","Department:baby-boys AND ProductType:sleepwear"
1288638011,"Kids' & Baby/Baby Boys (0-24 Months)/Snowsuits","Department:baby-boys AND StyleKeywords:infant-and-toddler-snowsuits"
1046202,"Kids' & Baby/Baby Boys (0-24 Months)/Socks","Department:baby-boys AND ProductType:sockshosiery"
1046188,"Kids' & Baby/Baby Boys (0-24 Months)/Sweaters","Department:baby-boys AND ProductType:sweater"
13980751,"Kids' & Baby/Baby Boys (0-24 Months)/Sweatpants","Department:baby-boys AND StyleKeywords:sweatpants"
1046190,"Kids' & Baby/Baby Boys (0-24 Months)/Sweatshirts","Department:baby-boys AND StyleKeywords:sweatshirts"
1044522,"Kids' & Baby/Baby Boys (0-24 Months)/Underwear","Department:baby-boys AND ProductType:underwear"
1044512,"Kids' & Baby/Baby Girls (0-24 Months)","Department:baby-girls "
1046236,"Kids' & Baby/Baby Girls (0-24 Months)/Body Suits","Department:baby-girls AND StyleKeywords:bodysuits"
13697531,"Kids' & Baby/Baby Girls (0-24 Months)/Clothing Sets","Department:baby-girls AND StyleKeywords:coordinate-sets"
1044542,"Kids' & Baby/Baby Girls (0-24 Months)/Dresses & Jumpers","Department:baby-girls AND ProductType:dress"
1044528,"Kids' & Baby/Baby Girls (0-24 Months)/One-Pieces","Department:baby-girls AND StyleKeywords:one-piece"
1046222,"Kids' & Baby/Baby Girls (0-24 Months)/Overalls & Shortalls","Department:baby-girls AND ( StyleKeywords:overalls OR StyleKeywords:shortalls )"
1046220,"Kids' & Baby/Baby Girls (0-24 Months)/Pants","Department:baby-girls AND ProductType:pants"
699905011,"Kids' & Baby/Baby Girls (0-24 Months)/Rompers","Department:baby-girls AND StyleKeywords:rompers"
13698221,"Kids' & Baby/Baby Girls (0-24 Months)/Sets","Department:baby-girls AND StyleKeywords:coordinate-sets"
1044532,"Kids' & Baby/Baby Girls (0-24 Months)/Shirts","Department:baby-girls AND ProductType:shirt"
1046224,"Kids' & Baby/Baby Girls (0-24 Months)/Shorts","Department:baby-girls AND ProductType:shorts"
1046226,"Kids' & Baby/Baby Girls (0-24 Months)/Skirts","Department:baby-girls AND ProductType:skirt"
1044538,"Kids' & Baby/Baby Girls (0-24 Months)/Sleepwear","Department:baby-girls AND ProductType:sleepwear"
1288639011,"Kids' & Baby/Baby Girls (0-24 Months)/Snowsuits","Department:baby-girls AND StyleKeywords:infant-and-toddler-snowsuits"
1046246,"Kids' & Baby/Baby Girls (0-24 Months)/Socks & Tights","Department:baby-girls AND ( StyleKeywords:socks OR StyleKeywords:tights OR ProductType:sockshosiery )"
1258892011,"Kids' & Baby/Baby Girls (0-24 Months)/Socks & Tights/Socks","Department:baby-girls AND StyleKeywords:socks"
1258893011,"Kids' & Baby/Baby Girls (0-24 Months)/Socks & Tights/Tights","Department:baby-girls AND StyleKeywords:tights"
1046240,"Kids' & Baby/Baby Girls (0-24 Months)/Sweaters","Department:baby-girls AND ProductType:sweater"
13972471,"Kids' & Baby/Baby Girls (0-24 Months)/Sweatpants","Department:baby-girls AND StyleKeywords:sweatpants"
1046242,"Kids' & Baby/Baby Girls (0-24 Months)/Sweatshirts","Department:baby-girls AND StyleKeywords:sweatshirts"
1044536,"Kids' & Baby/Baby Girls (0-24 Months)/Underwear","Department:baby-girls AND ProductType:underwear"
1040666,"Kids' & Baby/Boys (2-20)","Department:boys OR Department:unisex-child"
3455641,"Kids' & Baby/Boys (2-20)/Activewear","Department:boys AND Lifestyle:athletic"
1045950,"Kids' & Baby/Boys (2-20)/Activewear/Pants","Department:boys AND Lifestyle:athletic AND ProductType:pants"
394414011,"Kids' & Baby/Boys (2-20)/Activewear/Shirts","Department:boys AND Lifestyle:athletic AND ProductType:shirt"
1045966,"Kids' & Baby/Boys (2-20)/Activewear/Shorts","Department:boys AND Lifestyle:athletic AND ProductType:shorts"
700147011,"Kids' & Baby/Boys (2-20)/Activewear/Sweatshirts, Pants & Suits",
13980741,"Kids' & Baby/Boys (2-20)/Activewear/Sweatshirts, Pants & Suits/Sweatpants","Department:boys AND Lifestyle:athletic AND StyleKeywords:sweatpants"
1046006,"Kids' & Baby/Boys (2-20)/Activewear/Sweatshirts, Pants & Suits/Sweatshirts","Department:boys AND Lifestyle:athletic AND StyleKeywords:sweatshirts"
1288606011,"Kids' & Baby/Boys (2-20)/Clothing Sets","Department:boys AND StyleKeywords:clothing-sets"
1288608011,"Kids' & Baby/Boys (2-20)/Clothing Sets/Pants Sets","Department:boys AND StyleKeywords:pants-clothing-sets"
1288607011,"Kids' & Baby/Boys (2-20)/Clothing Sets/Shorts Sets","Department:boys AND StyleKeywords:shorts-clothing-sets"
1046120,"Kids' & Baby/Boys (2-20)/Coats & Jackets","Department:boys AND ProductType:outerwear AND ( StyleKeywords:jackets OR StyleKeywords:parkas OR StyleKeywords:pea-coats OR StyleKeywords:windbreakers )"
1046118,"Kids' & Baby/Boys (2-20)/Coats & Jackets/Coats","Department:boys AND ProductType:outerwear AND StyleKeywords:coats"
1288640011,"Kids' & Baby/Boys (2-20)/Coats & Jackets/Denim Jackets","Department:boys AND ProductType:outerwear AND StyleKeywords:denim-jackets"
1046136,"Kids' & Baby/Boys (2-20)/Coats & Jackets/Parkas","Department:boys AND ProductType:outerwear AND StyleKeywords:parkas"
1046134,"Kids' & Baby/Boys (2-20)/Coats & Jackets/Pea Coats","Department:boys AND ProductType:outerwear AND StyleKeywords:pea-coats"
1046128,"Kids' & Baby/Boys (2-20)/Coats & Jackets/Vests","Department:boys AND ProductType:outerwear AND StyleKeywords:vests"
1046142,"Kids' & Baby/Boys (2-20)/Coats & Jackets/Windbreakers","Department:boys AND ProductType:outerwear AND ( Lifestyle:rain OR StyleKeywords:windbreakers )"
1288609011,"Kids' & Baby/Boys (2-20)/Hoodies","Department:boys AND StyleKeywords:sweatshirts AND StyleKeywords:hooded"
1045904,"Kids' & Baby/Boys (2-20)/Pants","Department:boys AND ProductType:pants"
3455411,"Kids' & Baby/Boys (2-20)/Pants/Cargos","Department:boys AND ProductType:pants AND StyleKeywords:cargos"
3455401,"Kids' & Baby/Boys (2-20)/Pants/Carpenters","Department:boys AND ProductType:pants AND StyleKeywords:carpenters"
1045912,"Kids' & Baby/Boys (2-20)/Pants/Corduroys","Department:boys AND ProductType:pants AND ( FabricType:corduroy OR StyleKeywords:corduroy OR StyleKeywords:cords )"
1045914,"Kids' & Baby/Boys (2-20)/Pants/Dress Pants","Department:boys AND ProductType:pants AND StyleKeywords:trousers"
1045910,"Kids' & Baby/Boys (2-20)/Pants/Jeans","Department:boys AND ProductType:pants AND StyleKeywords:jeans"
1045908,"Kids' & Baby/Boys (2-20)/Pants/Khakis & Chinos","Department:boys AND ProductType:pants AND ( StyleKeywords:chinos OR StyleKeywords:khakis )"
3455421,"Kids' & Baby/Boys (2-20)/Pants/Overalls","Department:boys AND ProductType:pants AND StyleKeywords:overalls"
1288610011,"Kids' & Baby/Boys (2-20)/Rain & Snow Gear",
1046124,"Kids' & Baby/Boys (2-20)/Rain & Snow Gear/Rainwear","Department:boys AND ProductType:outerwear AND Lifestyle:rain"
1288611011,"Kids' & Baby/Boys (2-20)/Rain & Snow Gear/Snow Pants","Department:boys AND ProductType:outerwear AND StyleKeywords:snow-pants"
1044470,"Kids' & Baby/Boys (2-20)/Shirts","Department:boys AND ProductType:shirt"
1045972,"Kids' & Baby/Boys (2-20)/Shirts/Button-Downs & Oxfords","Department:boys AND ProductType:shirt AND ( StyleKeywords:button-downs ORStyleKeywords:oxfords )"
1045984,"Kids' & Baby/Boys (2-20)/Shirts/Henley & Rugby Shirts","Department:boys AND ProductType:shirt AND ( StyleKeywords:henley-shirts OR StyleKeywords:rugby-style )"
1045982,"Kids' & Baby/Boys (2-20)/Shirts/Polos","Department:boys AND ProductType:shirt AND StyleKeywords:polos"
1045974,"Kids' & Baby/Boys (2-20)/Shirts/Turtlenecks","Department:boys AND ProductType:shirt AND StyleKeywords:turtleneck"
1045906,"Kids' & Baby/Boys (2-20)/Shorts","Department:boys AND ProductType:shorts"
3455441,"Kids' & Baby/Boys (2-20)/Shorts/Cargos","Department:boys AND ProductType:shorts AND StyleKeywords:cargos"
3455431,"Kids' & Baby/Boys (2-20)/Shorts/Carpenters","Department:boys AND ProductType:shorts AND StyleKeywords:carpenters"
1045964,"Kids' & Baby/Boys (2-20)/Shorts/Denim","Department:boys AND ProductType:shorts AND ( FabricType:denim OR StyleKeywords:denim )"
1288612011,"Kids' & Baby/Boys (2-20)/Shorts/Khakis","Department:boys AND ProductType:shorts AND StyleKeywords:khakis-shorts"
3455651,"Kids' & Baby/Boys (2-20)/Sleepwear & Robes","Department:boys AND ProductType:sleepwear"
1288641011,"Kids' & Baby/Boys (2-20)/Sleepwear & Robes/Pajama Bottoms","Department:boys AND ProductType:sleepwear AND StyleKeywords:  
pajama-bottoms"
1292233011,"Kids' & Baby/Boys (2-20)/Sleepwear & Robes/Pajama Tops","Department:boys AND ProductType:sleepwear AND StyleKeywords:  
pajama-tops"
1046024,"Kids' & Baby/Boys (2-20)/Sleepwear & Robes/Pajamas","Department:boys AND ProductType:sleepwear AND StyleKeywords:pajamas"
1046026,"Kids' & Baby/Boys (2-20)/Sleepwear & Robes/Robes","Department:boys AND ProductType:sleepwear AND StyleKeywords:robes"
1046030,"Kids' & Baby/Boys (2-20)/Socks","Department:boys AND ProductType:sockshosiery"
699914011,"Kids' & Baby/Boys (2-20)/Suits & Sport Coats",
1046022,"Kids' & Baby/Boys (2-20)/Suits & Sport Coats/Sport Coats & Blazers","Department:boys AND ProductType:blazer"
1044472,"Kids' & Baby/Boys (2-20)/Suits & Sport Coats/Suits","Department:boys AND ProductType:suit"
3455451,"Kids' & Baby/Boys (2-20)/Sweaters","Department:boys AND ProductType:sweater"
1288613011,"Kids' & Baby/Boys (2-20)/Sweaters/Cardigans","Department:boys AND ProductType:sweater AND StyleKeywords:cardigans"
1288614011,"Kids' & Baby/Boys (2-20)/Sweaters/Pullovers","Department:boys AND ProductType:sweater AND StyleKeywords:crewneck"
1288615011,"Kids' & Baby/Boys (2-20)/Sweaters/Turtlenecks","Department:boys AND ProductType:sweater AND ( StyleKeywords:turtleneck OR StyleKeywords:mock-turtleneck )"
3455631,"Kids' & Baby/Boys (2-20)/Swimwear","Department:boys AND ProductType:swimwear"
673135011,"Kids' & Baby/Boys (2-20)/Swimwear/Boardshorts","Department:boys AND ProductType:swimwear AND StyleKeywords:board-shorts"
1288616011,"Kids' & Baby/Boys (2-20)/Swimwear/Rash Guards & UV Swimwear","Department:boys AND ProductType:swimwear AND StyleKeywords:rash-guard-shirts"
673137011,"Kids' & Baby/Boys (2-20)/Swimwear/Trunks","Department:boys AND ProductType:swimwear AND StyleKeywords:trunks"
1046036,"Kids' & Baby/Boys (2-20)/Thermal Underwear","Department:boys AND StyleKeywords:long-underwear"
1045968,"Kids' & Baby/Boys (2-20)/T-Shirts & Tanks","Department:boys AND StyleKeywords:t-shirts"
1045980,"Kids' & Baby/Boys (2-20)/T-Shirts & Tanks/Tank Tops","Department:boys AND ProductType:shirt AND StyleKeywords:tanks"
1288961011,"Kids' & Baby/Boys (2-20)/T-Shirts & Tanks/T-Shirts","Department:boys AND ProductType:shirt AND StyleKeywords:t-shirts"
1046038,"Kids' & Baby/Boys (2-20)/Undershirts","Department:boys AND StyleKeywords:undershirts"
1046044,"Kids' & Baby/Boys (2-20)/Undershirts/Tank Tops","Department:boys AND StyleKeywords:undershirts AND StyleKeywords:tanks"
1046042,"Kids' & Baby/Boys (2-20)/Undershirts/T-Shirts","Department:boys AND StyleKeywords:undershirts AND StyleKeywords:t-shirts"
1046028,"Kids' & Baby/Boys (2-20)/Underwear","Department:boys AND ProductType:underwear"
1046040,"Kids' & Baby/Boys (2-20)/Underwear/Boxer Briefs","Department:boys AND ProductType:underwear AND StyleKeywords:boxer-briefs"
1046032,"Kids' & Baby/Boys (2-20)/Underwear/Boxers","Department:boys AND ProductType:underwear AND StyleKeywords:boxers"
1046034,"Kids' & Baby/Boys (2-20)/Underwear/Briefs","Department:boys AND ProductType:underwear AND StyleKeywords:briefs"
1040664,"Kids' & Baby/Girls (2-16)","Department:girls OR Department:unisex-child"
1045330,"Kids' & Baby/Girls (2-16)/Activewear/Pants","Department:girls AND Lifestyle:athletic AND ProductType:pants"
394413011,"Kids' & Baby/Girls (2-16)/Activewear/Shirts","Department:girls AND Lifestyle:athletic AND ProductType:shirt"
1045336,"Kids' & Baby/Girls (2-16)/Activewear/Shorts","Department:girls AND Lifestyle:athletic AND ProductType:shorts"
1294253011,"Kids' & Baby/Girls (2-16)/Activewear/Skirts","Department:girls AND Lifestyle:athletic AND ProductType:skirt"
700146011,"Kids' & Baby/Girls (2-16)/Activewear/Sweatshirts, Pants & Suits",
13972461,"Kids' & Baby/Girls (2-16)/Activewear/Sweatshirts, Pants & Suits/Sweatpants","Department:girls AND Lifestyle:athletic AND StyleKeywords:sweatpants"
1045196,"Kids' & Baby/Girls (2-16)/Activewear/Sweatshirts, Pants & Suits/Sweatshirts","Department:girls AND Lifestyle:athletic AND StyleKeywords:sweatshirts"
1288617011,"Kids' & Baby/Girls (2-16)/Clothing Sets","Department:girls AND StyleKeywords:clothing-sets"
1288620011,"Kids' & Baby/Girls (2-16)/Clothing Sets/Pants Sets","Department:girls AND StyleKeywords:pants-clothing-sets"
1288618011,"Kids' & Baby/Girls (2-16)/Clothing Sets/Shorts Sets","Department:girls AND StyleKeywords:shorts-clothing-sets"
1288619011,"Kids' & Baby/Girls (2-16)/Clothing Sets/Skirt Sets","Department:girls AND StyleKeywords:skirts-clothing-sets"
1045206,"Kids' & Baby/Girls (2-16)/Coats & Jackets","Department:girls AND ProductType:outerwear AND ( StyleKeywords:jackets OR StyleKeywords:parkas )"
1288709011,"Kids' & Baby/Girls (2-16)/Coats & Jackets/Denim Jackets","Department:girls AND ProductType:outerwear AND StyleKeywords:denim-jackets"
1045226,"Kids' & Baby/Girls (2-16)/Coats & Jackets/Parkas","Department:girls AND ProductType:outerwear AND StyleKeywords:parkas"
1045214,"Kids' & Baby/Girls (2-16)/Coats & Jackets/Vests","Department:girls AND ProductType:outerwear AND StyleKeywords:vests"
1045236,"Kids' & Baby/Girls (2-16)/Coats & Jackets/Windbreakers","Department:girls AND ProductType:outerwear AND ( StyleKeywords:jackets OR StyleKeywords:parkas ) AND StyleKeywords:windbreakers"
1045470,"Kids' & Baby/Girls (2-16)/Dresses","Department:girls AND ProductType:dress"
1045518,"Kids' & Baby/Girls (2-16)/Dresses/Baby Doll","Department:girls AND ProductType:dress AND StyleKeywords:baby-doll"
1045526,"Kids' & Baby/Girls (2-16)/Dresses/Formal & Special Occasions","Department:girls AND ProductType:dress AND ( Lifestyle:party OR Lifestyle:formal )"
1045512,"Kids' & Baby/Girls (2-16)/Dresses/Jumpers","Department:girls AND ProductType:dress AND StyleKeywords:jumpers"
1045524,"Kids' & Baby/Girls (2-16)/Dresses/Shirtdresses","Department:girls AND ProductType:dress AND StyleKeywords:shirtdresses"
683030011,"Kids' & Baby/Girls (2-16)/Dresses/Sundresses","Department:girls AND ProductType:dress AND StyleKeywords:sundresses"
1045520,"Kids' & Baby/Girls (2-16)/Dresses/Tank","Department:girls AND ProductType:dress AND StyleKeywords:tanks"
1288621011,"Kids' & Baby/Girls (2-16)/Hoodies","Department:girls AND StyleKeywords:sweatshirts AND StyleKeywords:hooded"
1045268,"Kids' & Baby/Girls (2-16)/Jeans","Department:girls AND ProductType:pants AND StyleKeywords:jeans"
1045264,"Kids' & Baby/Girls (2-16)/Pants","Department:girls AND ProductType:pants"
1288624011,"Kids' & Baby/Girls (2-16)/Pants/Capris","Department:girls AND ProductType:pants AND StyleKeywords:capris"
1045274,"Kids' & Baby/Girls (2-16)/Pants/Corduroys","Department:girls AND ProductType:pants AND ( FabricType:corduroy OR StyleKeywords:corduroy OR StyleKeywords:cords )"
1045334,"Kids' & Baby/Girls (2-16)/Pants/Dress Pants","Department:girls AND ProductType:pants AND ( StyleKeywords:slacks OR ( Lifestyle:formal OR Lifestyle:dress ) )"
1045270,"Kids' & Baby/Girls (2-16)/Pants/Khakis & Chinos","Department:girls AND ProductType:pants AND ( StyleKeywords:chinos OR StyleKeywords:khakis )"
1288625011,"Kids' & Baby/Girls (2-16)/Pants/Knit Pants & Leggings","Department:girls AND ProductType:pants AND ( FabricType:knit OR StyleKeywords:knit OR StyleKeywords:leggings )"
1045272,"Kids' & Baby/Girls (2-16)/Pants/Overalls","Department:girls AND ProductType:pants AND StyleKeywords:overalls"
1288622011,"Kids' & Baby/Girls (2-16)/Rain & Snow Gear",
1045210,"Kids' & Baby/Girls (2-16)/Rain & Snow Gear/Rainwear","Department:girls AND ProductType:outerwear AND Lifestyle:rain"
1288623011,"Kids' & Baby/Girls (2-16)/Rain & Snow Gear/Snow Pants","Department:girls AND ProductType:outerwear AND StyleKeywords:snow-pants"
1044490,"Kids' & Baby/Girls (2-16)/Shirts","Department:girls AND ProductType:shirt"
1045136,"Kids' & Baby/Girls (2-16)/Shirts/Blouses","Department:girls AND ProductType:shirt AND ( StyleKeywords:blouses OR StyleKeywords:button-downs )"
1045132,"Kids' & Baby/Girls (2-16)/Shirts/Polos","Department:girls AND ProductType:shirt AND StyleKeywords:polos"
1045156,"Kids' & Baby/Girls (2-16)/Shirts/Tank Tops","Department:girls AND ProductType:shirt AND StyleKeywords:tanks"
1288626011,"Kids' & Baby/Girls (2-16)/Shirts/Tunics","Department:girls AND ProductType:shirt AND StyleKeywords:tunic-shirts"
1045134,"Kids' & Baby/Girls (2-16)/Shirts/Turtlenecks","Department:girls AND ProductType:shirt AND ( StyleKeywords:turtleneck OR StyleKeywords:mock-turtleneck )"
1045266,"Kids' & Baby/Girls (2-16)/Shorts","Department:girls AND ProductType:shorts"
1045468,"Kids' & Baby/Girls (2-16)/Skirts","Department:girls AND ProductType:skirt"
1288628011,"Kids' & Baby/Girls (2-16)/Skirts, Scooters & Skorts/Scooters","Department:girls AND StyleKeywords:scooter-skirts"
1288629011,"Kids' & Baby/Girls (2-16)/Skirts, Scooters & Skorts/Skirts","Department:girls AND StyleKeywords:skirts"
13588431,"Kids' & Baby/Girls (2-16)/Skirts, Scooters & Skorts/Skorts","Department:girls AND StyleKeywords:skorts"
1045424,"Kids' & Baby/Girls (2-16)/Sleepwear & Robes","Department:girls AND ProductType:sleepwear"
1045436,"Kids' & Baby/Girls (2-16)/Sleepwear & Robes/Pajama Bottoms","Department:girls AND ProductType:sleepwear AND StyleKeywords:pajama-bottoms"
1045434,"Kids' & Baby/Girls (2-16)/Sleepwear & Robes/Pajama Sets","Department:girls AND ProductType:sleepwear AND ( StyleKeywords:pants-sets OR StyleKeywords:shorts-sets )"
1292234011,"Kids' & Baby/Girls (2-16)/Sleepwear & Robes/Pajama Tops","Department:girls AND ProductType:sleepwear AND StyleKeywords:pajama-tops"
1045430,"Kids' & Baby/Girls (2-16)/Sleepwear & Robes/Robes","Department:girls AND ProductType:sleepwear AND StyleKeywords:robes"
1045438,"Kids' & Baby/Girls (2-16)/Sleepwear & Robes/Sleep Shirts & Nightgowns","Department:girls AND ProductType:sleepwear AND ( StyleKeywords:night-shirts OR StyleKeywords:nightgowns )"
1045426,"Kids' & Baby/Girls (2-16)/Socks & Hosiery","Department:girls AND ProductType:sockshosiery"
1045466,"Kids' & Baby/Girls (2-16)/Socks & Hosiery/Crew Socks","Department:girls AND ProductType:sockshosiery AND ( StyleKeywords:crew OR StyleKeywords:crew-socks )"
1045464,"Kids' & Baby/Girls (2-16)/Socks & Hosiery/Knee-Highs","Department:girls AND ProductType:sockshosiery AND StyleKeywords:knee-high"
1045462,"Kids' & Baby/Girls (2-16)/Socks & Hosiery/Tights","Department:girls AND ProductType:sockshosiery AND StyleKeywords:tights"
3455761,"Kids' & Baby/Girls (2-16)/Sports & Fitness Apparel","Department:girls AND Lifestyle:athletic"
3455741,"Kids' & Baby/Girls (2-16)/Sweaters","Department:girls AND ProductType:sweater"
1045168,"Kids' & Baby/Girls (2-16)/Sweaters/Cardigans & Twin Sets","Department:girls AND ProductType:sweater AND ( StyleKeywords:cardigans OR StyleKeywords:twin-sets OR StyleKeywords:shells )"
1045186,"Kids' & Baby/Girls (2-16)/Sweaters/Crewnecks","Department:girls AND ProductType:sweater AND StyleKeywords:crewneck"
1288630011,"Kids' & Baby/Girls (2-16)/Sweaters/Dusters & Long Tunics","Department:girls AND ProductType:sweater AND StyleKeywords:tunic-sweaters"
3455751,"Kids' & Baby/Girls (2-16)/Swimwear","Department:girls AND ProductType:swimwear"
1288633011,"Kids' & Baby/Girls (2-16)/Swimwear/Board Shorts","Department:girls AND ProductType:swimwear AND StyleKeywords:board-shorts "
1288635011,"Kids' & Baby/Girls (2-16)/Swimwear/Cover-ups & Wraps","Department:girls AND ProductType:swimwear AND ( StyleKeywords:cover-ups OR StyleKeywords:sarongs OR StyleKeywords:wraps )"
1288631011,"Kids' & Baby/Girls (2-16)/Swimwear/One-Piece","Department:girls AND ProductType:swimwear AND StyleKeywords:tank-suits"
1288634011,"Kids' & Baby/Girls (2-16)/Swimwear/Rash Guards & UV Swimwear","Department:girls AND ProductType:swimwear AND StyleKeywords:rash-guard-shirts"
1288632011,"Kids' & Baby/Girls (2-16)/Swimwear/Two-Piece","Department:girls AND ProductType:swimwear AND ( StyleKeywords:bikinis OR StyleKeywords:french-bikinis )"
1045128,"Kids' & Baby/Girls (2-16)/T-Shirts","Department:girls AND StyleKeywords:t-shirts"
1045428,"Kids' & Baby/Girls (2-16)/Underwear","Department:girls AND ProductType:underwear"
1045456,"Kids' & Baby/Girls (2-16)/Underwear/Camis & Tanks","Department:girls AND ProductType:underwear AND StyleKeywords:camisoles"
1288636011,"Kids' & Baby/Girls (2-16)/Underwear/Panties","Department:girls AND ProductType:underwear AND ( StyleKeywords:briefs OR StyleKeywords:bikini-briefs OR StyleKeywords:french-bikinis OR StyleKeywords:hip-huggers OR StyleKeywords:panties-general OR StyleKeywords:underwear-bottoms )"
1288637011,"Kids' & Baby/Girls (2-16)/Underwear/Slips","Department:girls AND ProductType:underwear AND ( StyleKeywords:half-slips OR StyleKeywords:full-slips )"
1263607011,"Kids' & Baby/Girls (2-16)/Underwear/Training Bras","Department:girls AND ( StyleKeywords:training-bras OR StyleKeywords:bra-tops )"
1040658,"Men's","Department:mens"
3455821,"Men's/Activewear","Department:mens AND Lifestyle:athletic"
1045724,"Men's/Activewear/Athletic Socks","Department:mens AND Lifestyle:athletic AND ProductType:sockshosiery"
673138011,"Men's/Activewear/Jackets","Department:mens AND Lifestyle:athletic AND StyleKeywords:athletic-jackets"
14291681,"Men's/Activewear/Jock Straps","Department:mens AND Lifestyle:athletic AND StyleKeywords:athletic-supporter"
1046666,"Men's/Activewear/Pants","Department:mens AND Lifestyle:athletic AND ProductType:pants"
1046648,"Men's/Activewear/Shirts","Department:mens AND Lifestyle:athletic AND ProductType:shirt"
1046660,"Men's/Activewear/Shorts","Department:mens AND Lifestyle:athletic AND ProductType:shorts"
14291721,"Men's/Activewear/Shorts/Basketball","Department:mens AND Lifestyle:athletic AND ProductType:shorts AND Lifestyle:basketball"
1046664,"Men's/Activewear/Shorts/Biking & Compression","Department:mens AND Lifestyle:athletic AND ProductType:shorts AND ( StyleKeywords:compression OR Lifestyle:biking )"
14291741,"Men's/Activewear/Shorts/Golf","Department:mens AND Lifestyle:athletic AND ProductType:shorts AND Lifestyle:golf"
15780521,"Men's/Activewear/Shorts/Hiking","Department:mens AND Lifestyle:athletic AND ProductType:shorts AND Lifestyle:hiking"
1046662,"Men's/Activewear/Shorts/Running","Department:mens AND Lifestyle:athletic AND ProductType:shorts AND Lifestyle:running"
14291751,"Men's/Activewear/Shorts/Soccer","Department:mens AND Lifestyle:athletic AND ProductType:shorts AND Lifestyle:soccer"
15780531,"Men's/Activewear/Shorts/Tennis","Department:mens AND Lifestyle:athletic AND ProductType:shorts AND Lifestyle:tennis"
699909011,"Men's/Activewear/Sweatshirts, Pants & Suits",
15786641,"Men's/Activewear/Sweatshirts, Pants & Suits/Sweatpants","Department:mens AND Lifestyle:athletic AND StyleKeywords:sweatpants"
1045664,"Men's/Activewear/Sweatshirts, Pants & Suits/Sweatshirts","Department:mens AND Lifestyle:athletic AND StyleKeywords:sweatshirts"
683027011,"Men's/Activewear/Sweatshirts, Pants & Suits/Sweatsuits","Department:mens AND Lifestyle:athletic AND StyleKeywords:sweatsuits"
1046668,"Men's/Activewear/Tights & Leggings","Department:mens AND Lifestyle:athletic AND StyleKeywords:leggings"
14291851,"Men's/Activewear/Track Jackets","Department:mens AND Lifestyle:athletic AND StyleKeywords:warmup-jacket"
14291711,"Men's/Activewear/Track Pants","Department:mens AND Lifestyle:athletic AND StyleKeywords:warmup-pants"
14291771,"Men's/Activewear/Track Suits","Department:mens AND Lifestyle:athletic AND ProductType:pants AND StyleKeywords:warmup-suits"
1046676,"Men's/Activewear/Underwear","Department:mens AND Lifestyle:athletic AND ProductType:underwear"
1258644011,"Men's/Hoodies & Track Jackets/Hoodies","Department:mens AND StyleKeywords:sweatshirts AND StyleKeywords:hooded"
1258646011,"Men's/Hoodies & Track Jackets/Sets","Department:mens AND StyleKeywords:sweatsuits"
1258645011,"Men's/Hoodies & Track Jackets/Sweats","Department:mens AND StyleKeywords:sweatpants"
1045564,"Men's/Jeans","Department:mens AND ProductType:pants AND StyleKeywords:jeans"
1044448,"Men's/Outerwear","( Department:mens AND ProductType:outerwear ) OR ( TargetAudience:men AND ItemTypeKeyword:fashion-motorcycle-jackets )"
1045830,"Men's/Outerwear/Coats, Jackets & Parkas",
1252199011,"Men's/Outerwear/Coats, Jackets & Parkas/Cashmere","Department:mens AND ProductType:outerwear AND FabricType:cashmere"
1045828,"Men's/Outerwear/Coats, Jackets & Parkas/Coats","Department:mens AND ProductType:outerwear AND StyleKeywords:coats"
1252200011,"Men's/Outerwear/Coats, Jackets & Parkas/Down","Department:mens AND ProductType:outerwear AND FabricType:down"
1252201011,"Men's/Outerwear/Coats, Jackets & Parkas/Leather, Suede & Shearling","Department:mens AND ProductType:outerwear AND ( FabricType:leather OR FabricType:suede OR FabricType:fur )"
1252202011,"Men's/Outerwear/Coats, Jackets & Parkas/Microfiber","Department:mens AND ProductType:outerwear AND FabricType:microfiber"
1045852,"Men's/Outerwear/Coats, Jackets & Parkas/Parkas","Department:men AND ProductType:outerwear AND StyleKeywords:parkas"
1045846,"Men's/Outerwear/Coats, Jackets & Parkas/Trench Coats","Department:mens AND ProductType:outerwear AND StyleKeywords:trenchcoats"
1252203011,"Men's/Outerwear/Coats, Jackets & Parkas/Wool","Department:mens AND ProductType:outerwear AND FabricType:wool"
1045836,"Men's/Outerwear/Fleece","Department:mens AND ProductType:outerwear AND ( FabricType:fleece OR FabricType:polartec-fleece OR StyleKeywords:fleece )"
1045834,"Men's/Outerwear/Rainwear","Department:mens AND ProductType:outerwear AND ( StyleKeywords:raincoats OR StyleKeywords:waterproof OR Lifestyle:rain OR StyleKeywords:rain-jackets )"
1045838,"Men's/Outerwear/Vests","Department:mens AND ProductType:outerwear AND StyleKeywords:vests"
1045558,"Men's/Pants","Department:mens AND ProductType:pants"
1254635011,"Men's/Pants/Cargo","Department:mens AND ProductType:pants AND StyleKeywords:cargos"
1254636011,"Men's/Pants/Carpenter","Department:mens AND ProductType:pants AND StyleKeywords:carpenters"
1045562,"Men's/Pants/Chinos & Khakis","Department:mens AND ProductType:pants AND ( StyleKeywords:chinos OR StyleKeywords:khakis )"
1045566,"Men's/Pants/Corduroy","Department:mens AND ProductType:pants AND ( FabricType:corduroy OR StyleKeywords:corduroy OR StyleKeywords:cords )"
1045568,"Men's/Pants/Dress & Formal","Department:mens AND ProductType:pants AND StyleKeywords:trousers AND ( Lifestyle:dress OR Lifestyle:formal )"
3455791,"Men's/Pants/Overalls","Department:mens AND ProductType:pants AND StyleKeywords:overalls"
1044440,"Men's/Shirts","Department:mens AND ProductType:shirt"
1045630,"Men's/Shirts/Button-Downs & Oxfords","Department:mens AND ProductType:shirt AND ( StyleKeywords:button-downs OR StyleKeywords:oxfords )"
1045626,"Men's/Shirts/Dress Shirts","Department:mens AND ProductType:shirt AND ( Lifestyle:dress OR Lifestyle:formal )"
1045642,"Men's/Shirts/Henley & Rugby Shirts","Department:mens AND ProductType:shirt AND ( StyleKeywords:rugby-style OR StyleKeywords:henley-shirts )"
1045640,"Men's/Shirts/Polos","Department:mens AND ProductType:shirt AND StyleKeywords:polos"
1045632,"Men's/Shirts/Turtlenecks","Department:mens AND ProductType:shirt AND ( StyleKeywords:turtleneck OR StyleKeywords:mock-turtleneck )"
1045560,"Men's/Shorts","Department:mens AND ProductType:shorts"
3455861,"Men's/Sleepwear & Robes","Department:mens AND ProductType:sleepwear"
1045702,"Men's/Sleepwear & Robes/Pajamas",
14292101,"Men's/Sleepwear & Robes/Pajamas/Pajama Bottoms","Department:mens AND ProductType:sleepwear AND StyleKeywords:pajama-bottoms"
14292111,"Men's/Sleepwear & Robes/Pajamas/Pajama Sets","Department:mens AND ProductType:sleepwear AND StyleKeywords:pajamas"
14292121,"Men's/Sleepwear & Robes/Pajamas/Pajama Tops","Department:mens AND ProductType:sleepwear AND StyleKeywords:pajama-tops"
1045704,"Men's/Sleepwear & Robes/Robes","Department:mens AND ProductType:sleepwear AND StyleKeywords:robes"
1045708,"Men's/Socks","Department:mens AND ProductType:sockshosiery"
1045728,"Men's/Socks/Crew Socks","Department:mens AND ProductType:sockshosiery AND ( StyleKeywords:crew OR StyleKeywords:crew-socks )"
1045726,"Men's/Socks/Dress","Department:mens AND ProductType:sockshosiery AND Lifestyle:dress"
1045684,"Men's/Suits & Sport Coats",
1045694,"Men's/Suits & Sport Coats/Sport Coats & Blazers","Department:mens AND ProductType:blazer"
1045686,"Men's/Suits & Sport Coats/Suits","Department:mens AND ProductType:suit"
1044442,"Men's/Sweaters","Department:mens AND ProductType:sweater"
1045658,"Men's/Sweaters/Cardigans","Department:mens AND ProductType:sweater AND StyleKeywords:cardigans"
1045668,"Men's/Sweaters/Crewnecks","Department:mens AND ProductType:sweater AND StyleKeywords:crewneck"
1045672,"Men's/Sweaters/Polos","Department:mens AND ProductType:sweater AND StyleKeywords:polos"
1045670,"Men's/Sweaters/Turtlenecks","Department:mens AND ProductType:sweater AND ( StyleKeywords:turtleneck OR StyleKeywords:mock-turtleneck )"
1045662,"Men's/Sweaters/Vests","Department:mens AND ProductType:sweater AND StyleKeywords:vests"
1045666,"Men's/Sweaters/V-Necks","Department:mens AND ProductType:sweater AND StyleKeywords:v-neck"
1046670,"Men's/Swimwear","Department:mens AND ProductType:swimwear"
14292191,"Men's/Swimwear/Boardshorts","Department:mens AND ProductType:swimwear AND StyleKeywords:board-shorts"
1046674,"Men's/Swimwear/Briefs","Department:mens AND ProductType:swimwear AND StyleKeywords:briefs"
2206401011,"Men's/Swimwear/Jammers","Department:mens AND ProductType:swimwear AND StyleKeywords:jammers"
1046672,"Men's/Swimwear/Trunks","Department:mens AND ProductType:swimwear AND StyleKeywords:trunks"
1045714,"Men's/Thermal Underwear","Department:mens AND StyleKeywords:long-underwear"
14292231,"Men's/Thermal Underwear/Bottoms","Department:mens AND StyleKeywords:long-underwear AND StyleKeywords:underwear-bottoms"
14292241,"Men's/Thermal Underwear/Sets","Department:mens AND StyleKeywords:long-underwear AND StyleKeywords:set"
14292251,"Men's/Thermal Underwear/Tops","Department:mens AND StyleKeywords:long-underwear AND StyleKeywords:underwear-tops"
1045624,"Men's/T-Shirts","Department:mens AND ( StyleKeywords:t-shirts OR StyleKeywords:tanks )"
1045716,"Men's/Undershirts","Department:mens AND StyleKeywords:undershirts"
1045722,"Men's/Undershirts/Tank Tops","Department:mens AND StyleKeywords:undershirts AND StyleKeywords:tanks"
1045720,"Men's/Undershirts/T-Shirts","Department:mens AND StyleKeywords:undershirts AND StyleKeywords:t-shirts"
1045706,"Men's/Underwear","Department:mens AND ProductType:underwear"
1045718,"Men's/Underwear/Boxer Briefs","Department:mens AND ProductType:underwear AND StyleKeywords:boxer-briefs"
1045710,"Men's/Underwear/Boxers","Department:mens AND ProductType:underwear AND StyleKeywords:boxers"
1045712,"Men's/Underwear/Briefs","Department:mens AND ProductType:underwear AND StyleKeywords:briefs"
14292211,"Men's/Underwear/Jock Straps","Department:mens AND ProductType:underwear AND StyleKeywords:athletic-supporter"
14292221,"Men's/Underwear/Novelty","Department:mens AND ProductType:underwear AND StyleKeywords:novelty"
3122201,"Men's/Underwear/Thongs & G-Strings","Department:mens AND ProductType:underwear AND ( StyleKeywords:thongs OR StyleKeywords:g-strings )"
1040660,"Women's",
3456051,"Women's/Activewear",
1046600,"Women's/Activewear/Pants","Department:womens AND Lifestyle:athletic AND ProductType:pants"
1046596,"Women's/Activewear/Pants/Capris","Department:womens AND Lifestyle:athletic AND ProductType:pants AND StyleKeywords:capris"
1046592,"Women's/Activewear/Pants/Tights & Leggings","Department:womens AND Lifestyle:athletic AND ProductType:pants AND StyleKeywords:leggings"
15781271,"Women's/Activewear/Pants/Track Pants","Department:womens AND Lifestyle:athletic AND ProductType:pants AND StyleKeywords:warmup-pants"
1046590,"Women's/Activewear/Shorts","Department:womens AND Lifestyle:athletic AND ProductType:shorts"
15781291,"Women's/Activewear/Shorts/Basketball","Department:womens AND Lifestyle:athletic AND ProductType:shorts AND Lifestyle:basketball"
15781301,"Women's/Activewear/Shorts/Biking & Compression","Department:womens AND Lifestyle:athletic AND ProductType:shorts AND ( StyleKeywords:compression OR Lifestyle:biking )"
15781321,"Women's/Activewear/Shorts/Golf","Department:womens AND Lifestyle:athletic AND ProductType:shorts AND Lifestyle:golf"
15781331,"Women's/Activewear/Shorts/Hiking","Department:womens AND Lifestyle:athletic AND ProductType:shorts AND Lifestyle:hiking"
15781341,"Women's/Activewear/Shorts/Running","Department:womens AND Lifestyle:athletic AND ProductType:shorts AND Lifestyle:running"
15781351,"Women's/Activewear/Shorts/Soccer","Department:womens AND Lifestyle:athletic AND ProductType:shorts AND Lifestyle:soccer"
15781361,"Women's/Activewear/Shorts/Tennis","Department:womens AND Lifestyle:athletic AND ProductType:shorts AND Lifestyle:tennis"
15781371,"Women's/Activewear/Shorts/Walking","Department:womens AND Lifestyle:athletic AND ProductType:shorts AND Lifestyle:walking"
1046602,"Women's/Activewear/Skirts, Skorts & Dresses","Department:womens AND Lifestyle:athletic AND ( ProductType:dress OR ProductType:skirt OR  StyleKeywords:skorts )"
15782511,"Women's/Activewear/Sweatshirts, Pants & Suits",
1250423011,"Women's/Activewear/Sweatshirts, Pants & Suits/Sweatpants","Department:womens AND Lifestyle:athletic AND StyleKeywords:sweatpants"
1044608,"Women's/Activewear/Sweatshirts, Pants & Suits/Sweatshirts","Department:womens AND Lifestyle:athletic AND StyleKeywords:sweatshirts"
1044640,"Women's/Activewear/Sweatshirts, Pants & Suits/Sweatshirts/Crewnecks","Department:womens AND Lifestyle:athletic AND StyleKeywords:sweatshirts AND StyleKeywords:pullovers"
1044642,"Women's/Activewear/Sweatshirts, Pants & Suits/Sweatshirts/Hooded","Department:womens AND Lifestyle:athletic AND StyleKeywords:sweatshirts AND StyleKeywords:hooded"
1044644,"Women's/Activewear/Sweatshirts, Pants & Suits/Sweatshirts/Zippered","Department:womens AND Lifestyle:athletic AND StyleKeywords:sweatshirts AND StyleKeywords:zip"
1250424011,"Women's/Activewear/Sweatshirts, Pants & Suits/Sweatsuits","Department:womens AND Lifestyle:athletic AND StyleKeywords:sweatsuits "
1046580,"Women's/Activewear/Tops","Department:womens AND Lifestyle:athletic AND ProductType:shirt"
14292331,"Women's/Activewear/Track Suits","Department:womens AND Lifestyle:athletic AND StyleKeywords:warmup-suits"
1046606,"Women's/Activewear/Underwear","Department:womens AND Lifestyle:athletic AND StyleKeywords:panties-general"
1045024,"Women's/Dresses","Department:womens AND ProductType:dress"
1045086,"Women's/Dresses/Baby Doll","Department:womens AND ProductType:dress AND StyleKeywords:baby-doll"
1045068,"Women's/Dresses/Formal & Special Occasions","Department:womens AND ProductType:dress AND ( Lifestyle:formal OR Lifestyle:dress OR Lifestyle:party )"
1045076,"Women's/Dresses/Jumpers","Department:womens AND ProductType:dress AND StyleKeywords:jumpers"
1045072,"Women's/Dresses/Shifts","Department:womens AND ProductType:dress AND StyleKeywords:shift"
1045090,"Women's/Dresses/Shirtdresses","Department:womens AND ProductType:dress AND StyleKeywords:shirtdresses"
1045080,"Women's/Dresses/Sundresses","Department:womens AND ProductType:dress AND StyleKeywords:sundresses"
1294880011,"Women's/Dresses/Sweater Dresses","Department:womens AND ProductType:dress AND StyleKeywords:sweater-dresses"
1045088,"Women's/Dresses/Tank","Department:womens AND ProductType:dress AND StyleKeywords:tanks"
1045074,"Women's/Dresses/Wrap","Department:womens AND ProductType:dress AND StyleKeywords:wraps"
1258602011,"Women's/Hoodies & Loungewear",
1258603011,"Women's/Hoodies & Loungewear/Hoodies","Department:womens AND StyleKeywords:sweatshirts AND StyleKeywords:hooded"
1258604011,"Women's/Hoodies & Loungewear/Pants","Department:womens AND StyleKeywords:sweatpants"
1258633011,"Women's/Hoodies & Loungewear/Sets","Department:womens AND StyleKeywords:sweatsuits"
14333511,"Women's/Intimate Apparel",
1044960,"Women's/Intimate Apparel/Bras","Department:womens AND ProductType:bra"
673140011,"Women's/Intimate Apparel/Bras/Bralettes","Department:womens AND ProductType:bra AND StyleKeywords:bralettes"
673141011,"Women's/Intimate Apparel/Bras/Convertible","Department:womens AND ProductType:bra AND StyleKeywords:convertible-bras"
1044986,"Women's/Intimate Apparel/Bras/Demicup","Department:womens AND ProductType:bra AND StyleKeywords:demicup"
1045008,"Women's/Intimate Apparel/Bras/Mastectomy","Department:womens AND ProductType:bra AND StyleKeywords:mastectomy"
673142011,"Women's/Intimate Apparel/Bras/Maternity","Department:womens AND ProductType:bra AND StyleKeywords:maternity-bras"
1045002,"Women's/Intimate Apparel/Bras/Minimizers","Department:womens AND ProductType:bra AND StyleKeywords:minimizer"
1045006,"Women's/Intimate Apparel/Bras/Nursing","Department:womens AND ProductType:bra AND StyleKeywords:nursing"
1044988,"Women's/Intimate Apparel/Bras/Push-Up","Department:womens AND ProductType:bra AND StyleKeywords:push-up"
1044990,"Women's/Intimate Apparel/Bras/Sports Bras","Department:womens AND ProductType:bra AND ( Lifestyle:athletic OR StyleKeywords:sportsbras )"
1045004,"Women's/Intimate Apparel/Bras/Strapless","Department:womens AND ProductType:bra AND ( StyleKeywords:strapless OR StyleKeywords:convertible )"
1044966,"Women's/Intimate Apparel/Bustiers","Department:womens AND StyleKeywords:bustiers"
1044970,"Women's/Intimate Apparel/Camisoles","Department:womens AND StyleKeywords:camisoles"
1044968,"Women's/Intimate Apparel/Chemises, Teddies & Negligees","Department:womens AND ( StyleKeywords:teddies OR StyleKeywords:chemises OR StyleKeywords:negligees )"
699907011,"Women's/Intimate Apparel/Corsets","Department:womens AND StyleKeywords:corsets"
14292461,"Women's/Intimate Apparel/Garter Belts","Department:womens AND StyleKeywords:garter-belts"
1044962,"Women's/Intimate Apparel/Lingerie Sets","Department:womens AND ( ProductType:underwear OR ProductType:bra ) AND StyleKeywords:set"
1044958,"Women's/Intimate Apparel/Panties","Department:womens AND ProductType:underwear"
1044974,"Women's/Intimate Apparel/Panties/Bikinis","Department:womens AND ProductType:underwear AND StyleKeywords:bikini-briefs"
1044982,"Women's/Intimate Apparel/Panties/Boy Shorts","Department:womens AND ProductType:underwear AND StyleKeywords:boy-shorts"
1044972,"Women's/Intimate Apparel/Panties/Briefs","Department:womens AND ProductType:underwear AND StyleKeywords:briefs"
673143011,"Women's/Intimate Apparel/Panties/G-Strings","Department:womens AND ProductType:underwear AND StyleKeywords:g-string-underwear"
673144011,"Women's/Intimate Apparel/Panties/Hipsters","Department:womens AND ProductType:underwear AND StyleKeywords:hipster-panties"
1044976,"Women's/Intimate Apparel/Panties/Thongs","Department:womens AND ProductType:underwear AND StyleKeywords:thongs"
1045010,"Women's/Intimate Apparel/Shapewear","Department:womens AND ( StyleKeywords:slenderizers OR StyleKeywords:body-shapers )"
1294868011,"Women's/Intimate Apparel/Shapewear/Bodysuits","Department:womens AND ( StyleKeywords:slenderizers OR StyleKeywords:body-shapers ) AND StyleKeywords:bodysuit-underwear"
1294869011,"Women's/Intimate Apparel/Shapewear/Briefs","Department:womens AND ( StyleKeywords:slenderizers OR StyleKeywords:body-shapers ) AND StyleKeywords:briefs"
1294870011,"Women's/Intimate Apparel/Shapewear/Camisoles","Department:womens AND ( StyleKeywords:slenderizers OR StyleKeywords:body-shapers ) AND StyleKeywords:camisoles"
1294871011,"Women's/Intimate Apparel/Shapewear/Slips","Department:womens AND ( StyleKeywords:slenderizers OR StyleKeywords:body-shapers ) AND StyleKeywords:slips"
1294872011,"Women's/Intimate Apparel/Shapewear/Thigh Shapers","Department:womens AND ( StyleKeywords:slenderizers OR StyleKeywords:body-shapers ) AND StyleKeywords:thigh-shapewear"
1294873011,"Women's/Intimate Apparel/Shapewear/Waist Shapers","Department:womens AND ( StyleKeywords:slenderizers OR StyleKeywords:body-shapers ) AND StyleKeywords:waist-shapewear"
1044964,"Women's/Intimate Apparel/Slips","Department:womens AND StyleKeywords:slips "
1045014,"Women's/Intimate Apparel/Slips/Full Slips","Department:womens AND StyleKeywords:full-slips"
1045016,"Women's/Intimate Apparel/Slips/Half Slips","Department:womens AND StyleKeywords:half-slips"
1048188,"Women's/Jeans","Department:womens AND StyleKeywords:jeans"
1285228011,"Women's/Maternity","Department:womens AND SpecialSize:maternity"
1285238011,"Women's/Maternity/Coats & Jackets","Department:womens AND SpecialSize:maternity AND ProductType:Outerwear"
1285229011,"Women's/Maternity/Dresses","Department:womens AND SpecialSize:maternity AND ProductType:Dress"
1285230011,"Women's/Maternity/Intimate Apparel","Department:womens AND SpecialSize:maternity AND ( ProductType:Underwear OR ProductType:Bra )"
1285231011,"Women's/Maternity/Intimate Apparel/Abdominal Support","Department:womens AND SpecialSize:maternity AND StyleKeywords:maternity-abdominal-supports"
1285232011,"Women's/Maternity/Intimate Apparel/Belly Bands","Department:womens AND SpecialSize:maternity AND StyleKeywords:maternity-belly-bands"
1285233011,"Women's/Maternity/Intimate Apparel/Bra Extenders","Department:womens AND SpecialSize:maternity AND StyleKeywords:bra-extenders"
1285235011,"Women's/Maternity/Intimate Apparel/Camisoles","Department:womens AND SpecialSize:maternity AND StyleKeywords:camisoles"
1285234011,"Women's/Maternity/Intimate Apparel/Nursing & Maternity Bras","Department:womens AND SpecialSize:maternity AND ProductType:Bra"
1285236011,"Women's/Maternity/Intimate Apparel/Panties","Department:womens AND SpecialSize:maternity AND ProductType:Underwear AND ( StyleKeywords:panties-general OR StyleKeywords:bikini-briefs OR StyleKeywords:boy-shorts OR StyleKeywords:briefs OR StyleKeywords:thong OR StyleKeywords:thongs OR StyleKeywords:g-string-underwear OR StyleKeywords:hipster-panties )"
1285237011,"Women's/Maternity/Jeans","Department:womens AND SpecialSize:maternity AND StyleKeywords:jeans"
1285239011,"Women's/Maternity/Pants","Department:womens AND SpecialSize:maternity AND ProductType:pants"
1285240011,"Women's/Maternity/Shirts & Blouses","Department:womens AND SpecialSize:maternity AND ProductType:shirt"
1285241011,"Women's/Maternity/Shirts & Blouses/Maternity","Department:womens AND SpecialSize:maternity AND ProductType:shirt AND StyleKeywords:maternity-shirts"
1285242011,"Women's/Maternity/Shirts & Blouses/Nursing","Department:womens AND SpecialSize:maternity AND ProductType:shirt AND StyleKeywords:nursing-shirts"
1285243011,"Women's/Maternity/Shorts","Department:womens AND SpecialSize:maternity AND ProductType:shorts"
1285244011,"Women's/Maternity/Skirts","Department:womens AND SpecialSize:maternity AND ProductType:skirt"
1285245011,"Women's/Maternity/Sleepwear","Department:womens AND SpecialSize:maternity AND ProductType:sleepwear"
1285246011,"Women's/Maternity/Socks & Hosiery","Department:womens AND SpecialSize:maternity AND ProductType:sockshosiery"
1285247011,"Women's/Maternity/Suits & Separates","Department:womens AND SpecialSize:maternity AND ( ProductType:blazer OR ProductType:suit )"
1285248011,"Women's/Maternity/Sweaters","Department:womens AND SpecialSize:maternity AND ProductType:sweater"
1285249011,"Women's/Maternity/Swimwear","Department:womens AND SpecialSize:maternity AND ProductType:swimwear"
1285250011,"Women's/Maternity/T-Shirts","Department:womens AND SpecialSize:maternity AND StyleKeywords:t-shirts"
1044464,"Women's/Outerwear","( Department:womens AND ProductType:outerwear ) OR ( ItemTypeKeyword:fashion-motorcycle-jackets AND TargetAudience:women )"
1044646,"Women's/Outerwear/Coats, Jackets & Parkas",
1252179011,"Women's/Outerwear/Coats, Jackets & Parkas/Cashmere","Department:womens AND ProductType:outerwear AND FabricType:cashmere"
1252180011,"Women's/Outerwear/Coats, Jackets & Parkas/Down","Department:womens AND ProductType:outerwear AND FabricType:down"
1252181011,"Women's/Outerwear/Coats, Jackets & Parkas/Knit","Department:womens AND ProductType:outerwear AND FabricType:knit"
1044686,"Women's/Outerwear/Coats, Jackets & Parkas/Leather, Suede & Shearling","Department:womens AND ProductType:outerwear AND ( FabricType:leather OR FabricType:suede OR FabricType:fur OR StyleKeywords:fur-lined OR StyleKeywords:leather OR StyleKeywords:suede )"
668775011,"Women's/Outerwear/Coats, Jackets & Parkas/Motorcycle Jackets/Fashion Motorcycle Jackets","ItemTypeKeyword:fashion-motorcycle-jackets AND TargetAudience:women "
1044702,"Women's/Outerwear/Coats, Jackets & Parkas/Parkas","Department:womens AND ProductType:outerwear AND StyleKeywords:parkas"
1044698,"Women's/Outerwear/Coats, Jackets & Parkas/Pea Coats","Department:womens AND ProductType:outerwear AND StyleKeywords:pea-coats"
1044666,"Women's/Outerwear/Coats, Jackets & Parkas/Trench Coats","Department:womens AND ProductType:outerwear AND ( StyleKeywords:trenchcoats OR StyleKeywords:dusters )"
1252182011,"Women's/Outerwear/Coats, Jackets & Parkas/Wool","Department:womens AND ProductType:outerwear AND FabricType:wool"
1044654,"Women's/Outerwear/Fleece","Department:womens AND ProductType:outerwear AND ( FabricType:fleece OR FabricType:polartec-fleece OR StyleKeywords:fleece )"
1044652,"Women's/Outerwear/Rainwear","Department:womens AND ProductType:outerwear AND ( StyleKeywords:rain-jackets OR StyleKeywords:waterproof OR Lifestyle:rain OR StyleKeywords:raincoats )"
1044656,"Women's/Outerwear/Vests","Department:womens AND ProductType:outerwear AND StyleKeywords:vests"
1048184,"Women's/Pants","Department:womens AND ProductType:pants"
1254638011,"Women's/Pants/Cargo","Department:womens AND ProductType:pants AND StyleKeywords:cargos"
1254639011,"Women's/Pants/Carpenter","Department:womens AND ProductType:pants AND StyleKeywords:carpenters"
1048196,"Women's/Pants/Corduroys","Department:womens AND ProductType:pants AND ( FabricType:corduroy OR StyleKeywords:corduroy OR StyleKeywords:cords )"
382294011,"Women's/Pants/Cropped & Capris","Department:womens AND ProductType:pants AND ( StyleKeywords:cropped OR StyleKeywords:capris )"
1048266,"Women's/Pants/Dress Pants","Department:womens AND ProductType:pants AND ( Lifestyle:business OR Lifestyle:dress OR Lifestyle:formal )"
1048190,"Women's/Pants/Khakis & Chinos","Department:womens AND ProductType:pants AND ( StyleKeywords:chinos OR StyleKeywords:khakis )"
1048198,"Women's/Pants/Knits","Department:womens AND ProductType:pants AND ( FabricType:knit OR StyleKeywords:knit )"
1258967011,"Women's/Pants/Leggings","Department:womens AND ProductType:pants AND StyleKeywords:leggings"
1048194,"Women's/Pants/Overalls","Department:womens AND ProductType:pants AND StyleKeywords:overalls"
1044454,"Women's/Shirts, Blouses & Polos","Department:womens AND ProductType:shirt"
1044552,"Women's/Shirts, Blouses & Polos/Blouses","Department:womens AND ProductType:shirt AND StyleKeywords:blouses"
2053006011,"Women's/Shirts, Blouses & Polos/Button-Downs & Oxfords","Department:womens AND ProductType:shirt AND ( StyleKeywords:oxfords OR StyleKeywords:button-downs )"
673146011,"Women's/Shirts, Blouses & Polos/Camisoles & Halters","Department:womens AND ProductType:shirt AND ( StyleKeywords:camisole-shirts OR StyleKeywords:halter-tops )"
1044590,"Women's/Shirts, Blouses & Polos/Peasant Blouses","Department:womens AND ProductType:shirt AND StyleKeywords:peasant-blouses"
1044548,"Women's/Shirts, Blouses & Polos/Polos","Department:womens AND ProductType:shirt AND StyleKeywords:polos"
673148011,"Women's/Shirts, Blouses & Polos/Tanks","Department:womens AND ProductType:shirt AND ( StyleKeywords:tank-top-shirts OR StyleKeywords:tanks )"
1288627011,"Women's/Shirts, Blouses & Polos/Tunics","Department:womens AND ProductType:shirt AND StyleKeywords:tunics"
673149011,"Women's/Shirts, Blouses & Polos/Turtlenecks","Department:womens AND ProductType:shirt AND ( StyleKeywords:turtleneck-shirts OR StyleKeywords:mock-turtleneck-shirts )"
1048186,"Women's/Shorts","Department:womens AND ProductType:shorts"
673150011,"Women's/Shorts/Bermuda Shorts","Department:womens AND ProductType:shorts AND StyleKeywords:bermuda-shorts"
13588421,"Women's/Shorts/Culottes","Department:womens AND ProductType:shorts AND StyleKeywords:culottes"
1048286,"Women's/Shorts/Cutoffs","Department:womens AND ProductType:shorts AND StyleKeywords:cut-offs"
1294884011,"Women's/Shorts/Denim","Department:womens AND ProductType:shorts AND StyleKeywords:denim-shorts"
1294885011,"Women's/Shorts/Khaki","Department:womens AND ProductType:shorts AND StyleKeywords:khakis-shorts"
1048288,"Women's/Shorts/Knits & Elastic Waist","Department:womens AND ProductType:shorts AND ( StyleKeywords:elastic-waist OR FabricType:knit OR StyleKeywords:knit )"
13588411,"Women's/Shorts/Skorts","Department:womens AND ProductType:shorts AND StyleKeywords:skorts"
1045022,"Women's/Skirts","Department:womens AND ProductType:skirt"
1044884,"Women's/Sleepwear","Department:womens AND ProductType:sleepwear"
683029011,"Women's/Sleepwear/Pajamas",
1044896,"Women's/Sleepwear/Pajamas/Pajama Bottoms","Department:womens AND ProductType:sleepwear AND StyleKeywords:pajama-bottoms"
1044894,"Women's/Sleepwear/Pajamas/Pajama Sets","Department:womens AND ProductType:sleepwear AND StyleKeywords:pajamas"
1045012,"Women's/Sleepwear/Robes","Department:womens AND ProductType:sleepwear AND ( StyleKeywords:robes OR StyleKeywords:housecoats )"
1044898,"Women's/Sleepwear/Sleep Shirts & Nightgowns","Department:womens AND ProductType:sleepwear AND ( StyleKeywords:night-shirts OR StyleKeywords:nightgowns )"
1044886,"Women's/Socks & Hosiery","Department:womens AND ProductType:sockshosiery"
1044934,"Women's/Socks & Hosiery/Pantyhose","Department:womens AND ProductType:sockshosiery AND StyleKeywords:pantyhose"
1044944,"Women's/Socks & Hosiery/Pantyhose/Control Top","Department:womens AND ProductType:sockshosiery AND StyleKeywords:control"
1044938,"Women's/Socks & Hosiery/Pantyhose/Sheer","Department:womens AND ProductType:sockshosiery AND StyleKeywords:sheer"
1044914,"Women's/Socks & Hosiery/Socks","Department:womens AND ProductType:sockshosiery AND StyleKeywords:socks"
1044924,"Women's/Socks & Hosiery/Socks/Ankle Socks","Department:womens AND ProductType:sockshosiery AND StyleKeywords:ankle-length"
1044920,"Women's/Socks & Hosiery/Socks/Athletic","Department:womens AND ProductType:sockshosiery AND Lifestyle:athletic"
673151011,"Women's/Socks & Hosiery/Socks/Boots Socks","Department:womens AND ProductType:sockshosiery AND StyleKeywords:boot-socks"
1044922,"Women's/Socks & Hosiery/Socks/Footies","Department:womens AND ProductType:sockshosiery AND StyleKeywords:footies"
1044918,"Women's/Socks & Hosiery/Socks/Trouser Socks & Knee-Highs","Department:womens AND ProductType:sockshosiery AND ( StyleKeywords:knee-high OR StyleKeywords:trouser-socks )"
1044936,"Women's/Socks & Hosiery/Tights","Department:womens AND ProductType:sockshosiery AND StyleKeywords:tights"
1044956,"Women's/Socks & Hosiery/Tights/Control Top","Department:womens AND ProductType:sockshosiery AND StyleKeywords:control"
1044950,"Women's/Socks & Hosiery/Tights/Matte","Department:womens AND ProductType:sockshosiery AND StyleKeywords:matte"
1044954,"Women's/Socks & Hosiery/Tights/Mesh & Net","Department:womens AND ProductType:sockshosiery AND ( FabricType:mesh OR StyleKeywords:fishnet )"
1044946,"Women's/Socks & Hosiery/Tights/Opaque","Department:womens AND ProductType:sockshosiery AND StyleKeywords:opaque"
1044948,"Women's/Socks & Hosiery/Tights/Patterned","Department:womens AND ProductType:sockshosiery AND StyleKeywords:patterned"
1044460,"Women's/Suits & Separates",
1045112,"Women's/Suits & Separates/Blazers & Suit Jackets","Department:womens AND ProductType:blazer"
699908011,"Women's/Suits & Separates/Dress Suits","Department:womens AND ProductType:suit AND StyleKeywords:dress-suits"
1045108,"Women's/Suits & Separates/Pantsuits","Department:womens AND ProductType:suit AND StyleKeywords:pant-suits"
1045110,"Women's/Suits & Separates/Skirt Suits","Department:womens AND ProductType:suit AND StyleKeywords:skirt-suits"
1044456,"Women's/Sweaters","Department:womens AND ProductType:sweater"
1044612,"Women's/Sweaters/Cardigans","Department:womens AND ProductType:sweater AND StyleKeywords:cardigans"
1044630,"Women's/Sweaters/Crewnecks","Department:womens AND ProductType:sweater AND StyleKeywords:crewneck"
13755551,"Women's/Sweaters/Ponchos","Department:womens AND ProductType:sweater AND StyleKeywords:ponchos"
1289300011,"Women's/Sweaters/Tunics","Department:womens AND ProductType:sweater AND StyleKeywords:tunics"
1044632,"Women's/Sweaters/Turtlenecks","Department:womens AND ProductType:sweater AND ( StyleKeywords:turtleneck OR StyleKeywords:mock-turtleneck )"
1044602,"Women's/Sweaters/Twin Sets","Department:womens AND ProductType:sweater AND ( StyleKeywords:shells OR StyleKeywords:twin-sets )"
1044606,"Women's/Sweaters/Vests","Department:womens AND ProductType:sweater AND StyleKeywords:vests"
1044628,"Women's/Sweaters/V-Necks","Department:womens AND ProductType:sweater AND StyleKeywords:v-neck"
1046622,"Women's/Swimwear","Department:womens AND ProductType:swimwear"
15835971,"Women's/Swimwear/Boardshorts","Department:womens AND ProductType:swimwear AND StyleKeywords:board-shorts"
1046626,"Women's/Swimwear/Cover-Ups & Wraps","Department:womens AND ProductType:swimwear AND ( StyleKeywords:cover-ups OR StyleKeywords:sarongs OR StyleKeywords:wraps )"
1046624,"Women's/Swimwear/One-Piece","Department:womens AND ProductType:swimwear AND StyleKeywords:tank-suits"
1046628,"Women's/Swimwear/One-Piece/Skirted","Department:womens AND ProductType:swimwear AND StyleKeywords:tank-suits AND StyleKeywords:skirted"
1046630,"Women's/Swimwear/One-Piece/Slimming","Department:womens AND ProductType:swimwear AND StyleKeywords:tank-suits AND StyleKeywords:control"
1046632,"Women's/Swimwear/One-Piece/Strapless","Department:womens AND ProductType:swimwear AND StyleKeywords:tank-suits AND StyleKeywords:strapless"
673152011,"Women's/Swimwear/Racing & Competition","Department:womens AND ProductType:swimwear AND StyleKeywords:racing-swimsuits"
328818011,"Women's/Swimwear/Separates","Department:womens AND ProductType:swimwear AND StyleKeywords:swimsuit-separates"
328821011,"Women's/Swimwear/Separates/Bottoms","Department:womens AND ProductType:swimwear AND StyleKeywords:swimsuit-bottoms"
328820011,"Women's/Swimwear/Separates/Tops","Department:womens AND ProductType:swimwear AND StyleKeywords:swimsuit-tops"
1046638,"Women's/Swimwear/Two-Piece","Department:womens AND ProductType:swimwear AND ( StyleKeywords:bikinis OR StyleKeywords:french-bikinis )"
1046642,"Women's/Swimwear/Two-Piece/String","Department:womens AND ProductType:swimwear AND StyleKeywords:bikinis AND StyleKeywords:string-bikinis"
1046640,"Women's/Swimwear/Two-Piece/Tankini","Department:womens AND ProductType:swimwear AND StyleKeywords:bikinis AND StyleKeywords:tankinis"
1046646,"Women's/Swimwear/Two-Piece/Underwire","Department:womens AND ProductType:swimwear AND StyleKeywords:bikinis AND StyleKeywords:underwire"
1044544,"Women's/T-Shirts","Department:womens AND StyleKeywords:t-shirts"
343356011,"Women's/World Apparel","Department:womens AND ( StyleKeywords:saris OR StyleKeywords:caftans )"
50477011,"Young Men's","Department:teen-boys OR Department:unisex-teen"
1258659011,"Young Men's/Hoodies & Track Jackets",
1258660011,"Young Men's/Hoodies & Track Jackets/Hoodies","Department:teen-boys AND StyleKeywords:sweatshirts AND StyleKeywords:hooded"
1258662011,"Young Men's/Hoodies & Track Jackets/Sets","Department:teen-boys AND StyleKeywords:sweatsuits"
1258661011,"Young Men's/Hoodies & Track Jackets/Sweats","Department:teen-boys AND StyleKeywords:sweatpants"
50604011,"Young Men's/Outerwear","Department:teen-boys AND ProductType:outerwear"
50605011,"Young Men's/Outerwear/Coats","Department:teen-boys AND ProductType:outerwear AND StyleKeywords:coats"
50617011,"Young Men's/Outerwear/Jackets & Parkas","Department:teen-boys AND ProductType:outerwear AND StyleKeywords:jackets"
50636011,"Young Men's/Outerwear/Rainwear","Department:teen-boys AND ProductType:outerwear AND ( StyleKeywords:raincoats OR StyleKeywords:waterproof OR Lifestyle:rain OR StyleKeywords:rain-jackets )"
50642011,"Young Men's/Outerwear/Vests","Department:teen-boys AND ProductType:outerwear AND StyleKeywords:vests"
50658011,"Young Men's/Pants","Department:teen-boys AND ProductType:pants"
50667011,"Young Men's/Pants/Corduroy","Department:teen-boys AND ProductType:pants AND ( FabricType:corduroy OR StyleKeywords:corduroy OR StyleKeywords:cords )"
50685011,"Young Men's/Pants/Jeans","Department:teen-boys AND ProductType:pants AND StyleKeywords:jeans"
50702011,"Young Men's/Shirts","Department:teen-boys AND ProductType:shirt"
50703011,"Young Men's/Shirts/Button-Downs & Oxfords","Department:teen-boys AND ProductType:shirt AND ( StyleKeywords:button-downs OR StyleKeywords:oxfords ) AND ( StyleKeywords:business-casual OR StyleKeywords:casual OR Lifestyle:business-casual OR Lifestyle:casual ) "
50728011,"Young Men's/Shirts/Henley & Rugby Shirts","Department:teen-boys AND ProductType:shirt AND ( StyleKeywords:rugby-style OR StyleKeywords:henley-shirts )"
50725011,"Young Men's/Shirts/Polos","Department:teen-boys AND ProductType:shirt AND StyleKeywords:polos"
50747011,"Young Men's/Shirts/Turtlenecks","Department:teen-boys AND ProductType:shirt AND ( StyleKeywords:turtleneck OR StyleKeywords:mock-turtleneck )"
50752011,"Young Men's/Shorts","Department:teen-boys AND ProductType:shorts"
50753011,"Young Men's/Shorts/Cargos","Department:teen-boys AND ProductType:shorts AND StyleKeywords:cargos"
50754011,"Young Men's/Shorts/Carpenters","Department:teen-boys AND ProductType:shorts AND StyleKeywords:carpenters"
50755011,"Young Men's/Shorts/Denim","Department:teen-boys AND ProductType:shorts AND ( FabricType:denim OR StyleKeywords:denim )"
50761011,"Young Men's/Sleepwear","Department:teen-boys AND ProductType:sleepwear"
50762011,"Young Men's/Sleepwear/Pajamas","Department:teen-boys AND ProductType:sleepwear AND StyleKeywords:pajamas"
50766011,"Young Men's/Sleepwear/Robes","Department:teen-boys AND ProductType:sleepwear AND StyleKeywords:robes"
50767011,"Young Men's/Socks","Department:teen-boys AND ProductType:sockshosiery"
50768011,"Young Men's/Socks/Ankle","Department:teen-boys AND ProductType:sockshosiery AND StyleKeywords:ankle-length"
50769011,"Young Men's/Socks/Athletic","Department:teen-boys AND ProductType:sockshosiery AND Lifestyle:athletic"
50478011,"Young Men's/Sports & Fitness Apparel","Department:teen-boys AND Lifestyle:athletic"
50483011,"Young Men's/Sports & Fitness Apparel/Jock Straps","Department:teen-boys AND Lifestyle:athletic AND StyleKeywords:athletic-supporter"
50509011,"Young Men's/Sports & Fitness Apparel/Pants","Department:teen-boys AND Lifestyle:athletic AND ProductType:pants"
50516011,"Young Men's/Sports & Fitness Apparel/Shirts","Department:teen-boys AND Lifestyle:athletic AND ProductType:shirt"
50518011,"Young Men's/Sports & Fitness Apparel/Shirts/Golf Shirts","Department:teen-boys AND Lifestyle:athletic AND ProductType:shirt AND Lifestyle:golf"
50521011,"Young Men's/Sports & Fitness Apparel/Shirts/Tank Tops","Department:teen-boys AND Lifestyle:athletic AND ProductType:shirt AND StyleKeywords:tanks"
50522011,"Young Men's/Sports & Fitness Apparel/Shorts","Department:teen-boys AND Lifestyle:athletic AND ProductType:shorts"
50523011,"Young Men's/Sports & Fitness Apparel/Shorts/Basketball","Department:teen-boys AND Lifestyle:athletic AND ProductType:shorts AND Lifestyle:basketball"
50529011,"Young Men's/Sports & Fitness Apparel/Shorts/Running","Department:teen-boys AND Lifestyle:athletic AND ProductType:shorts AND Lifestyle:running"
50530011,"Young Men's/Sports & Fitness Apparel/Shorts/Soccer","Department:teen-boys AND Lifestyle:athletic AND ProductType:shorts AND Lifestyle:soccer"
699910011,"Young Men's/Sports & Fitness Apparel/Sweatshirts, Pants & Suits",
50587011,"Young Men's/Sports & Fitness Apparel/Sweatshirts, Pants & Suits/Sweatpants","Department:teen-boys AND Lifestyle:athletic AND StyleKeywords:sweatpants"
50801011,"Young Men's/Sports & Fitness Apparel/Sweatshirts, Pants & Suits/Sweatshirts","Department:teen-boys AND Lifestyle:athletic AND StyleKeywords:sweatshirts"
683028011,"Young Men's/Sports & Fitness Apparel/Sweatshirts, Pants & Suits/Sweatsuits","Department:teen-boys AND Lifestyle:athletic AND StyleKeywords:sweatsuits"
50822011,"Young Men's/Sports & Fitness Apparel/Undershirts","Department:teen-boys AND Lifestyle:athletic AND StyleKeywords:undershirts"
50479011,"Young Men's/Sports & Fitness Apparel/Underwear","Department:teen-boys AND Lifestyle:athletic AND ProductType:underwear"
50781011,"Young Men's/Suits & Sport Coats","Department:teen-boys AND ( ProductType:suit OR ProductType:blazer )"
50792011,"Young Men's/Sweaters","Department:teen-boys AND ProductType:sweater"
50805011,"Young Men's/Swimwear","Department:teen-boys AND ProductType:swimwear"
50807011,"Young Men's/Swimwear/Boardshorts","Department:teen-boys AND ProductType:swimwear AND StyleKeywords:board-shorts"
50808011,"Young Men's/Swimwear/Briefs","Department:teen-boys AND ProductType:swimwear AND StyleKeywords:briefs"
50809011,"Young Men's/Swimwear/Trunks","Department:teen-boys AND ProductType:swimwear AND StyleKeywords:trunks"
50817011,"Young Men's/Thermal Underwear","Department:teen-boys AND StyleKeywords:long-underwear"
50743011,"Young Men's/T-Shirts","Department:teen-boys AND ( StyleKeywords:t-shirts OR StyleKeywords:tanks )"
50810011,"Young Men's/Underwear","Department:teen-boys AND ProductType:underwear"
50812011,"Young Men's/Underwear/Boxer Briefs","Department:teen-boys AND ProductType:underwear AND StyleKeywords:boxer-briefs"
50813011,"Young Men's/Underwear/Boxers","Department:teen-boys AND ProductType:underwear AND StyleKeywords:boxers"
50814011,"Young Men's/Underwear/Briefs","Department:teen-boys AND ProductType:underwear AND StyleKeywords:briefs"
50815011,"Young Men's/Underwear/Jock Straps","Department:teen-boys AND ProductType:underwear AND StyleKeywords:athletic-supporter"
