	Health & Beauty *					
		Accessories *				
679			Bags & Cases			
			Cotton Balls & Swabs *			
598				Cotton Balls		
619				Cotton Swabs		
598				Cotton Balls		
2308			Personal Mirrors			
2309			Travel Bottles & Containers			
6892			Travel Lights & Fans			
4399			Vanity/Makeup Organizers			
679			Bags & Cases			
		Alternative Medicine *				
3518			Acupuncture			
3519			Ayurveda			
3520			Light Therapy			
3521			Magnetic Therapy			
3522			Manipulation Therapies			
3523			Oxygen Therapy			
3524			Sound Therapy			
3518			Acupuncture			
		Bath & Shower *				
			Bath Accessories *			
588				Bath Brushes		
590				Bath Cloths		
589				Bath Mitts		
591				Bath Pillows		
592				Bath Trays		
593				Shower Caps		
594				Sponges		
683					Loofahs	
729					Poufs	
683					Loofahs	
588				Bath Brushes		
			Bath Products *			
685				Bath Bombs		
585				Bath Bubbles		
4400				Body Scrubs		
586				Body Washes		
583				Minerals & Salts		
584				Oils		
684				Pearls & Flakes		
687				Sets & Kits		
587				Soap		
595					Liquid	
596					Solid	
595					Liquid	
686				Tub Teas		
685				Bath Bombs		
			Bath Accessories *			
588				Bath Brushes		
		Ear Care *				
3728			Ear Drops			
3729			Ear Syringes			
3730			Earplugs			
3731			Earwax Removal			
3728			Ear Drops			
		Eye Care *				
			Contact Lens Care *			
3717				Cases		
3718				Cleaners		
3719				Rewetting Drops		
3720				Soaking Solutions		
3717				Cases		
3721			Eye Drops & Washes			
			Eyeglasses Care *			
3723				Cleaning Fluids		
3724				Cleaning Tissues & Cloths		
3725				Repair Kits		
3723				Cleaning Fluids		
3726			Reading Glasses			
			Contact Lens Care *			
3717				Cases		
		Family Planning *				
3646			Fertility Charting			
3643			Fertility Tests			
3644				Ovulation Kits		
3644				Ovulation Kits		
3645			Pregnancy Tests			
3646			Fertility Charting			
3357		Feminine Hygiene				
3736			Feminine Powders			
3737			Panty Liners			
3738			Sanitary Napkins			
4327			Tampon Cases			
3739			Tampons			
3736			Feminine Powders			
		Foot Care *				
3733			Odor Control			
3734			Scrubs	 Salts & Soaks		
3733			Odor Control			
570		Fragrance				
582			Essential Oil			
578			Fragrance Sets			
581			Lotion Fragrance			
580			Solid Fragrance			
579			Travel Size			
582			Essential Oil			
		Grooming *				
2401			Facial & Moustache Scissors			
2403			Facial Hair Combs			
			Hair Removal *			
3490				Bleaching		
3491				Depilatories		
3492				Electrolysis		
3493				Epilators		
617				Tweezers		
647				Waxing		
3490				Bleaching		
			Shavers & Razors *			
641				Razors		
648					Blades	
648					Blades	
3447				Shavers		
2395				Shaving Accessories		
642				Shaving Sets		
2394					Baber Razors & Shaving Blades	
2394					Baber Razors & Shaving Blades	
641				Razors		
648					Blades	
643			Shaving Brushes			
645			Shaving Creams & Gels			
646			Shaving Soap Bowls			
2402			Shaving Tool Cleaners & Oils			
			Trimmers & Clippers *			
2397				Accessories		
2398					Attachment Combs	
2400					Batteries	
2398					Attachment Combs	
3450				Beard Trimmers		
2396				Clippers		
3488				Hair Trimmers		
3449				Nose & Ear Trimmers		
2397				Accessories		
2398					Attachment Combs	
2401			Facial & Moustache Scissors			
		Hair Care *				
660			Combs			
661			Conditioner			
695				Hold		
696				Leave-in		
697				Pack		
695				Hold		
664			Hair Brushes			
2330				Cushion		
2328				Massage & Shampoo		
2324				Military		
2326				Nylon		
2325				Paddle		
2327				Round		
2329				Vented		
2330				Cushion		
3712			Hair Care Sets & Kits			
665			Hair Color			
3710				Applicator Bottles		
2418				Color Brushes		
2416				Color Capes		
2337				Color Kits		
2332				Color removers & Neutralizers		
2419				Coloring Bowls & Trays		
2331				Corrections	 Protectants	 & Treatments
2333				Demi-Permanent		
2334				Developers	 Peroxides & Toners	
2417				Foils		
2336				Highlights		
2420				Shower & Conditioning Caps		
2335				Tinting		
3710				Applicator Bottles		
2312			Hair Cutting Tools			
2323				Hair Cutting Kits		
2322				Hair Cutting Tool Cleaners		
2320				Hair Shapers		
2321				Neck Dusters		
2313				Scissors & Shears		
2316					Left Handed Shears & Scissors	
2319					Scissor and Shear Cases	
2317					Specialty Shears	
2314					Styling Shears	
2318					Swivel Handle Shears	
2315					Thinning Shears	
2316					Left Handed Shears & Scissors	
2323				Hair Cutting Kits		
666			Hair Loss Products			
2338			Hair Masks			
2339				Serums & Oil Treatments		
2339				Serums & Oil Treatments		
667			Shampoo			
698			Styling Accessories			
699				Barrettes		
700				Claws		
701				Clips		
702				Decorative Combs		
704				Hair Sticks		
703				Headbands		
706				Pins		
705				Ponytail Holders		
699				Barrettes		
			Styling Products *			
669				Gel		
2340				Hair Glue		
671				Mousse & Foams		
672				Pomades & Waxes		
670				Spray		
669				Gel		
			Styling Tools *			
3711				Braiders		
2344				Crimping Irons		
269				Curling Irons		
709				Diffusers		
271				Flat Irons		
268				Hair Dryers		
2341					Bonnet Hair Dryer	
2342					Brush Hair Dryer	
2343					Diffuser Attachment	
2341					Bonnet Hair Dryer	
710				Hair Rollers & Setters		
711				Hot-Air Brushes		
2345				Styling Tool Accessories		
2348					Cases & Pouches	
2349					Cleansers & Disinfectants	
2347					Covers	
2346					Heat Mats	
2348					Cases & Pouches	
3711				Braiders		
707			Wigs & Extensions			
2404				Wig Accessories		
2405					Wig Spray & Refreshers	
2405					Wig Spray & Refreshers	
2404				Wig Accessories		
2405					Wig Spray & Refreshers	
660			Combs			
		Makeup & Cosmetics *				
2358			Combination Sets & Palettes			
			Eye Makeup *			
2360				Eye Glitters & Shimmers		
600				Eyebrow Color		
2363				Eyebrow Pencils		
2362				Eyelash Curlers		
602				Eyelash Extensions		
618					Adhesives	
618					Adhesives	
4404				Eyelash Treatments & Enhancers		
603				Eyeliner		
599				Eyeshadow		
2361				Eyeshadow Sets		
612				Mascara		
721				Mineral Eye Shadow		
2359				Shadow Base/Primer		
2360				Eye Glitters & Shimmers		
			Face Makeup *			
723				Blush		
724				Bronzer		
725				Concealer		
				Finishers *		
4409					Loose Powder Finisher	
4410					Pressed Powder Finisher	
4409					Loose Powder Finisher	
604				Foundation		
2366					Cream Foundation	
2365					Liquid Foundation	
2367					Powder Foundation	
2366					Cream Foundation	
2368				Foundation Primer		
605				Glitter		
726				Highlighter		
2364				Luminizer		
727				Mineral Foundation		
				Powder *		
2369					Loose Powder	
2370					Pressed Powder	
2369					Loose Powder	
616				Rouge		
728				Shimmer		
723				Blush		
722			Lip Makeup			
606				Lip Gloss		
607				Lip Liners		
2371				Lip Plumpers		
2372				Lip Stain		
608				Lipstick		
606				Lip Gloss		
			Makeup Applicators *			
597				Blotting Paper		
2387				Brush Cases		
2386				Brush Cleaners		
609				Makeup Brushes		
2374					Blush Brush	
2385					Brush Sets	
2375					Concealer Brush	
2376					Eye Blending Brush	
2377					Eye Liner Brush	
2378					Eye Shadow Brush	
2379					Eye Smudge Brush	
2384					Eyelash and Brow Comb	
2380					Fan Brush	
2381					Foundation Brush	
2383					Lip Brush	
2382					Powder Brush	
2374					Blush Brush	
611				Makeup Sponges		
597				Blotting Paper		
610			Makeup Removers			
3735			Sharpeners			
2358			Combination Sets & Palettes			
		Manicure & Pedicure *				
630			Callus Stones			
631			Cuticle Cutters			
632			Cuticle Pushers			
2408			Foot & Nail Spas			
633			Foot Rasps			
2407			Manicure & Pedicure Kits			
2406			Manicure & Pedicure Tool Cleaners			
634			Moisturizing Gloves			
635			Moisturizing Socks			
4326			Nail Accessories			
2409			Nail Brushes			
636			Nail Buffers			
637			Nail Clippers			
638			Nail Files			
613			Nail Polish			
2411			Nail Polish Display			
614			Nail Polish Removers			
2413			Nail Polish Sets			
2410			Nail Repair & Treatment			
639			Toe Separators			
2412			Towel Warmers / Sterilizers			
630			Callus Stones			
2434		Massage & Relaxation				
			Aromatherapy *			
3811				Candles		
3814				Diffusers		
3813				Incense		
3812				Oils		
3811				Candles		
3822			Massage Lotions & Oils			
3815			Massagers			
3816			Professional Massage Equipment			
2436				Massage Bed		
3821				Massage Carrying Carts		
2435				Massage Chair		
3819				Massage Linens		
3820				Massage Table Pads		
3817				Massage Tables		
3818				Massage Warmers		
2436				Massage Bed		
			Aromatherapy *			
3811				Candles		
		Medical Equipment & Supplies *				
3526			Air Cleaners & Filters			
			Bathroom Safety *			
3551				Bathing Guards		
3552				Bedpans & Urinals		
3553				Safety Rails		
3554				Shower & Bath Stools & Benches		
3555				Sitz Baths		
3556				Toilet Seats & Commodes		
3551				Bathing Guards		
			Beds & Accessories *			
3558				Bed Wedges		
3559				Overbed Tables		
3560				Safety & Assisting Rails		
3561				Transfer Boards		
3558				Bed Wedges		
			Braces & Support *			
3563				Braces		
3564				Corrective Tape		
3565				Slings		
3566				Splints		
3563				Braces		
			Daily Living Aids *			
4317				Absorbent Guards & Liners		
3568				Bath Aids		
3569				Dressing Aids		
3570				Eating & Drinking Aids		
3572				Hearing Aid Accessories		
3571				Hearing Aids		
				Low Vision Aids *		
3575					Magnifiers	
3574					Writing and Reading	
3575					Magnifiers	
				Medication Aids *		
3579					Pill Crushers	
3578					Pill Dispensors	
3577					Pillboxes	
3579					Pill Crushers	
4319				Protective Briefs & Underwear		
4317				Absorbent Guards & Liners		
			First Aid *			
3541				Antifungals		
3540				Antiseptic		
3543				Bandages		
3542				Burn Care		
3544				Cold & hot packs		
3549				Defibrillators		
3547				First Aid Kits		
3546				Gloves & masks		
3548				Insect & pest repellent		
4924				Tongue Depressors		
3541				Antifungals		
			Gloves *			
3640				Latex		
3641				Vinyl		
3640				Latex		
			Health Monitors *			
3581				Alcohol Monitors		
267				Bath & Weight Scales		
3582				Blood Glucose Monitors		
3583				Blood Pressure Monitors		
3584				Body Fat Monitors		
3585				Cholesterol Monitors		
4660				ECG monitors		
4661				EKG Monitors		
3586				Heart Rate Monitors		
4662				Oximeters		
3587				Pedometers		
3588				Stethoscopes		
3581				Alcohol Monitors		
3527			Humidifiers/Vaporizers			
3637			Instrument Cleaning & Sterilization			
3638				Sterilization Monitoring Products		
3638				Sterilization Monitoring Products		
3636			Instrument Procedure Trays			
3533			Insulin Injectors			
3534			Lancets			
6893			Medical Display Solutions			
3635			Medical Pillows			
3529			Medical Thermometers			
3530				Thermometers Accessories		
3530				Thermometers Accessories		
			Mobility Aids *			
3594				Canes		
3595					Cane Accessories	
3595					Cane Accessories	
3596				Crutches		
3597					Crutch Accessories	
3597					Crutch Accessories	
3598				Leg & Thigh Lifters		
3599				Lift Chairs		
3600				Lifting Cushions		
3601				Motorized Scooters		
3602					Motorized Scooter Accessories	
3602					Motorized Scooter Accessories	
3603				Reaching Aids		
3604				Standing Support		
3605				Walkers		
3606					Walker Accessories	
3606					Walker Accessories	
3607				Wheelchairs		
3608					Wheelchair Accessories	
3608					Wheelchair Accessories	
3594				Canes		
3595					Cane Accessories	
3531			Nasal Sprays & Drops			
3536			Nebulizer			
			Occupational & Physical Therapy Aids *			
3611				Exercise Putty		
3612				Hand Exercisers		
3610				Therapy Aids		
3611				Exercise Putty		
3634			Patient Gowns			
			Protective Wear *			
3626				Face Masks		
3627				Face Shields		
3633				Head and Beard Covers		
				Protective Gowns *		
3629					Aurora	
3630					Eclipse	
3631					Scrub wear	
3629					Aurora	
3632				Shoe and Boot Covers		
3626				Face Masks		
			Ramps *			
3590				Portable Ramps		
3591				Threshold Ramps		
3592				Wheelchair Ramps		
3590				Portable Ramps		
3528			Respiration Flow Meters			
3538			Sharps Containers & Needle Destruction			
3535			Test Strips			
			Tests *			
				Drug Tests *		
3615					Alcohol Tests	
3616					Cocaine Tests	
3617					Ecstasy Tests	
3618					Marijuana Tests	
3619					Multidrug Tests	
3615					Alcohol Tests	
				Health Tests *		
3621					Blood Sugar Tests	
3622					Cholesterol Tests	
3623					Colorectal Disease Tests	
3624					HIV Tests	
3621					Blood Sugar Tests	
				Drug Tests *		
3615					Alcohol Tests	
3526			Air Cleaners & Filters			
		Medication *				
3497			Antacids			
3508			Antibiotics			
3507			Cortizone			
4321			Cough Drops			
4320			Digestion Relief			
3499			Insulin			
3498			Laxative			
3509			Nasal Strips			
			Pain Relief *			
3501				Alternative Pain Relief		
3502				Aspirin		
3504				Hot & Cold Therapy		
3503				Ibuprofen		
3808				Multi-Symptom		
3505				Non-Aspirin		
3506				Rubs & Ointments		
3501				Alternative Pain Relief		
3510			Sleep Aid			
4322				Night Guard		
3511				Sleeping Masks		
4322				Night Guard		
3512			Smoking Cessation			
3513			Stimulants			
			Women's Health *			
3515				Menopause		
3516				Yeast Infection Treatments		
3515				Menopause		
3497			Antacids			
		Nutrition *				
4350			Nutrition Bars			
4351			Nutrition Drinks & Shakes			
			Vitamins & Supplements *			
4348				Herbal & Detox		
4349				Minerals		
				Supplements *		
4332					Acidophilus / Probiotics	
4333					Amino Acids	
4334					Antioxidants	
4335					Bioflavonoid Complex	
4336					CoQ-10 / Ubiquinol	
4337					Enzymes/Multi-Enzymes	
4338					Essential Fatty Acids	
4339					Ester-C	
4340					Fiber Supplements	
4341					Glandular Extracts	
4342					Glucosamine & Chondroitin	
4343					K-Mag	
4344					Protein	
4345					Quercetin	
4346					Rutin	
4347					Sam-E	
4332					Acidophilus / Probiotics	
4330				Vitamins/Muti-Vitamins		
4348				Herbal & Detox		
4350			Nutrition Bars			
		Oral Care *				
3713			Breath Fresheners			
693				Tongue Brushes	 Scrapers & Cleaners	
693				Tongue Brushes	 Scrapers & Cleaners	
673			Dental Floss			
691			Dental Mirrors			
674			Dental Picks			
690			Denture Care			
675			Mouthwash			
692			Oral Irrigators			
3714			Oral Pain Relief			
676			Teeth Whiteners			
			Toothbrushes *			
270				Electric Toothbrushes		
3809					Replacement Parts and Accessories	
3809					Replacement Parts and Accessories	
730				Manual Toothbrushes		
270				Electric Toothbrushes		
3809					Replacement Parts and Accessories	
678			Toothpaste			
3713			Breath Fresheners			
693				Tongue Brushes	 Scrapers & Cleaners	
		Salon Equipment *				
2421			Appliance Holders			
2423			Carts	 Rollabouts and Tray Storage		
2425			Chairs			
2427				Barber Chairs		
2426				Dryer Chairs		
2429				Kiddie Chairs		
2428				Stools		
2427				Barber Chairs		
2424			Color Centers			
2431			Facial Beds			
2432			Floor Mats			
2430			Hair Processors	 Steamers & Lamps		
2440			Showcase Shelves			
2437			Stations			
2438				Hair Station		
2439				Manicure Station		
2438				Hair Station		
2415			Stylist Wear			
2433			Tanning Booths & Beds			
2421			Appliance Holders			
		Sexual Well-Being *				
			Adult Toys & Games *			
4233				Sex Games		
				Sex Toys *		
4226					Anal Sex Toys	
4230					Catheters & Sounds	
4224					Dildos	
4231					Enema Products	
4232					Machines & Devices	
4227					Masturbators & Dolls	
4228					Penis Rings	
4229					Pumps & Enlargers	
4225					Vibrators	
4226					Anal Sex Toys	
4233				Sex Games		
			Bondage Gear & Accessories *			
4235				Blindfolds		
4236				Chastity Devices		
4237				Gags & Muzzles		
4238				Paddles	 Whips & Ticklers	
4239				Restraints		
4235				Blindfolds		
4206			Contraceptives			
4207				Condoms		
4207				Condoms		
4241			Gift Sets			
			Lubricants & Spermicides *			
4209				Silicone-Based Lubricants		
4210				Water-Based Lubricants		
4209				Silicone-Based Lubricants		
4240			Novelties			
			Sensual Pleasures *			
4212				Bath Items		
4213				Desensitizers		
4214				Edible Items		
4215				Erotic Massage		
4216				Kama Sutra		
				Sex Furniture *		
4218					Bedding	
4219					Body Swings	
4220					Cushions	
4218					Bedding	
4221				Sexual Enhancers		
4212				Bath Items		
			Adult Toys & Games *			
4233				Sex Games		
		Skin Care *				
4323			Body Oil			
731			Body Powder			
2351			Cellulite Treatments			
649			Cleansers			
652			Deodorants & Antiperspirants			
650			Exfoliators & Scrubs			
2350			Eye Creams & Treatments			
2310			Facial Masks			
2311				Eye Masks & Pads		
2311				Eye Masks & Pads		
651			Facial Moisturizers			
2373			Lip Care & Treatment			
655			Lotions			
2352			Microdermabrasion			
653			Moisturizers			
2355			Paraffin			
2353			Pore Cleansers			
2354			Serums			
4325			Skin Care Sets			
2356			Skin Care Tools			
4324			Skin Treatments			
656			Sun Care & Tanning			
657				After Sun		
2357				Sunless Tanning		
658				Sunscreens & Sun Blocks		
659				Tanning Oils		
657				After Sun		
654			Toners			
4323			Body Oil			
