"categories_id","categories_image","parent_id","sort_order","date_added","last_modified","categories_status"
115,"stevemeyerowitz2small.jpg",97,0,"2005-05-03 20:37:09","2005-05-03 23:08:39",1
28,"pixel_trans.gif",0,9999,"2004-08-25 14:11:14","2011-02-24 17:43:30",1
143,"heiner.jpg",140,0,"2005-05-05 17:11:40","2005-05-19 21:55:53",1
142,"markowitzsmall.jpg",97,0,"2005-05-05 16:55:52","2005-05-05 16:57:03",1
141,"4893454.jpg",97,0,"2005-05-05 16:52:10","2009-06-28 18:42:22",1
140,"writersmall.jpg",97,5,"2005-05-05 16:48:22","2010-03-27 05:33:42",1
123,"rawrawfood.jpg",96,0,"2005-05-04 13:05:57","2007-12-14 20:51:29",1
125,"breathsmall.jpg",96,0,"2005-05-04 13:16:47","2008-03-02 23:47:08",1
126,"water1.bmp",96,0,"2005-05-04 13:17:42","2005-09-25 15:31:44",1
127,"germsmall.jpg",96,0,"2005-05-04 13:44:17","2005-05-10 22:26:04",1
128,"spiritsmall.jpg",96,0,"2005-05-04 13:47:00","2005-05-04 17:31:10",1
129,"hyyygggsmall.jpg",96,0,"2005-05-04 13:53:37","2005-05-04 17:11:17",1
130,"doctorsmall.jpg",96,0,"2005-05-04 13:55:55","2005-05-04 15:59:49",1
131,"longevity.jpg.bmp",96,0,"2005-05-04 14:13:02","2005-10-02 20:57:30",1
132,"coloncaresmall.jpg",96,0,"2005-05-04 14:23:28","2005-05-04 15:32:06",1
133,"nutrismall.jpg",96,0,"2005-05-04 14:30:48","2007-02-07 19:53:13",1
134,"environsmall.jpg",96,0,"2005-05-04 14:35:14","2005-05-04 16:14:20",1
135,"eyesmall.jpg",96,0,"2005-05-04 14:38:25","2005-05-04 16:24:00",1
136,"yogasmall.jpg",96,0,"2005-05-04 14:43:36","2005-05-04 17:44:12",1
137,"foodcombin.jpg",96,0,"2005-05-04 14:57:06","2007-12-22 15:33:49",1
138,"sproutsmall.jpg",96,0,"2005-05-04 14:58:56","2011-02-08 12:06:12",1
139,"petssmall.jpg",96,0,"2005-05-04 15:11:12","2005-05-04 17:16:51",1
116,"malkmussmall.jpg",97,0,"2005-05-03 22:17:27","2005-05-03 23:07:08",1
117,"recipeasmall.jpg",96,0,"2005-05-04 13:03:48","2008-02-18 02:59:24",1
118,"fastingsmall.jpg",96,0,"2005-05-04 13:03:55","2005-05-04 16:31:13",1
119,"juicing1small.jpg",96,0,"2005-05-04 13:04:03","2009-11-26 08:20:24",1
120,"childsmall.jpg",96,0,"2005-05-04 13:04:16","2011-08-03 07:40:58",1
121,"vaccin.jpg",96,0,"2005-05-04 13:04:38","2005-05-04 17:34:08",1
122,"exercisesmall.jpg",96,0,"2005-05-04 13:05:18","2005-05-04 16:20:31",1
192,"chriamagsmall.jpg",140,0,"2005-05-10 22:32:19","0000-00-00 00:00:00",1
96,"childsmall.jpg",100239,1,"2005-05-01 19:45:15","2008-02-13 02:03:49",1
97,"anastasia.jpg",100239,3,"2005-05-01 19:45:28","2008-02-13 02:04:10",1
99,"walkersmall.jpg",97,0,"2005-05-01 19:51:49","2007-10-03 13:03:16",1
101,"jensonsmall.jpg",97,0,"2005-05-01 20:11:48","2007-12-23 15:10:29",1
102,"ehretsmall.jpg",97,0,"2005-05-02 08:43:32","2005-05-03 23:05:38",1
103,"wigmoresmall.jpg",97,0,"2005-05-02 08:43:47","2005-05-03 23:10:02",1
104,"bragg1small.jpg",97,0,"2005-05-02 08:43:58","2005-05-04 21:48:41",1
105,"morriskroksmall.jpg",97,0,"2005-05-02 08:44:12","2005-05-03 23:06:29",1
106,"grahamsmall.jpg",97,0,"2005-05-02 08:44:24","2005-05-03 23:22:01",1
107,"nisonsmall.jpg",97,0,"2005-05-02 08:44:32","2005-05-03 23:08:56",1
108,"fredericsmall.jpg",97,0,"2005-05-02 08:45:06","2005-05-03 23:09:07",1
109,"boutenkosmall.jpg",97,0,"2005-05-02 08:45:26","2005-05-03 23:05:03",1
110,"hotemasmall.jpg",97,0,"2005-05-02 08:45:40","2005-05-03 23:31:49",1
111,"cousenssmall.jpg",97,0,"2005-05-02 08:47:24","2005-05-03 23:05:25",1
112,"sheltonsmall.jpg",97,0,"2005-05-02 08:47:44","2005-05-03 23:09:25",1
113,"wolfesmall.jpg",97,0,"2005-05-02 08:48:34","2005-05-03 23:10:28",1
114,"arlinsmall.jpg",97,0,"2005-05-02 08:48:44","2005-05-03 23:04:52",1
144,"rhiosmall.jpg",140,0,"2005-05-05 18:05:03","2005-05-05 18:07:40",1
145,"reneesmall.jpg",140,0,"2005-05-05 18:09:44","2005-05-05 18:17:37",1
146,"roxsmall.jpg",140,0,"2005-05-05 18:19:22","0000-00-00 00:00:00",1
147,"bmarssmall.jpg",140,0,"2005-05-05 18:24:05","0000-00-00 00:00:00",1
148,"jjalisssmall.jpg",140,0,"2005-05-05 18:27:23","0000-00-00 00:00:00",1
149,"onsta.jpg",140,0,"2005-05-05 18:33:52","2005-05-19 21:49:07",1
150,"cheriesmall.jpg",140,0,"2005-05-05 18:37:26","0000-00-00 00:00:00",1
151,"safronuse.jpg",140,0,"2005-05-05 18:40:21","2005-05-11 22:24:25",1
152,"wandlingsmall.jpg",140,0,"2005-05-05 18:52:41","0000-00-00 00:00:00",1
153,"rosesmall.jpg",140,0,"2005-05-05 18:56:53","0000-00-00 00:00:00",1
154,"nomismall.jpg",140,0,"2005-05-05 19:00:09","0000-00-00 00:00:00",1
155,"alissssachoh.jpg",97,0,"2005-05-05 19:03:18","2005-07-21 12:45:59",1
156,"abedasmall.jpg",140,0,"2005-05-05 19:06:09","2007-07-19 18:50:06",1
157,"shazzienewsmaller.jpg",97,0,"2005-05-09 10:37:00","2009-11-21 20:40:39",1
158,"sarnosmall.jpg",140,0,"2005-05-09 10:52:43","0000-00-00 00:00:00",1
160,"varoussmall.jpg",140,0,"2005-05-09 11:09:03","0000-00-00 00:00:00",1
161,"writerreallysmall.jpg",140,5,"2005-05-09 11:24:54","0000-00-00 00:00:00",1
162,"writerreallysmall.jpg",161,0,"2005-05-09 11:26:14","0000-00-00 00:00:00",1
163,"jamethsmall.jpg",97,0,"2005-05-09 11:33:13","0000-00-00 00:00:00",1
164,"suzannechefsmall.jpg",140,0,"2005-05-09 11:38:08","2005-05-09 17:26:17",1
165,"julianogoodgood.jpg",97,0,"2005-05-09 16:49:24","0000-00-00 00:00:00",1
166,"ritasmall.jpg",140,0,"2005-05-09 16:55:07","0000-00-00 00:00:00",1
167,"jubbuse.jpg",97,0,"2005-05-09 17:11:37","0000-00-00 00:00:00",1
168,"averyphyllis.jpg",140,0,"2005-05-09 17:57:14","2005-05-09 17:57:23",1
283,"writerreallysmall.jpg",161,0,"2005-05-24 10:20:40","0000-00-00 00:00:00",1
169,"kulvinskasmall.jpg",97,0,"2005-05-09 18:32:42","0000-00-00 00:00:00",1
170,"Tonyasmall.jpg",140,0,"2005-05-09 18:46:02","0000-00-00 00:00:00",1
171,"jeffffrogar.jpg",140,0,"2005-05-09 18:53:09","2005-05-14 19:39:34",1
172,"sandorsmall.jpg",140,0,"2005-05-09 19:03:21","0000-00-00 00:00:00",1
173,"clementsmalll.jpg",97,0,"2005-05-09 19:21:13","2008-12-12 12:52:45",1
174,"roesmall.jpg",140,0,"2005-05-09 19:33:52","2005-05-11 09:49:38",1
175,"mccauleysmall.jpg",140,0,"2005-05-09 19:41:57","0000-00-00 00:00:00",1
176,"stevechartersmall.jpg",140,0,"2005-05-09 19:52:34","0000-00-00 00:00:00",1
177,"writerreallysmall.jpg",161,0,"2005-05-09 19:59:54","0000-00-00 00:00:00",1
178,"cobbsmall.jpg",140,0,"2005-05-09 20:43:29","0000-00-00 00:00:00",1
179,"knowlersmall.jpg",140,0,"2005-05-10 10:05:01","0000-00-00 00:00:00",1
180,"writerreallysmall.jpg",161,0,"2005-05-10 10:19:22","0000-00-00 00:00:00",1
181,"alexandersmall.jpg",140,0,"2005-05-10 11:01:46","0000-00-00 00:00:00",1
182,"writerreallysmall.jpg",161,0,"2005-05-10 11:20:43","0000-00-00 00:00:00",1
183,"altsmall.jpg",97,0,"2005-05-10 11:42:22","2005-05-19 21:53:40",1
184,"anders.jpg",140,0,"2005-05-10 11:47:51","2005-05-19 21:47:54",1
185,"stoycoffsmall.jpg",140,0,"2005-05-10 15:28:08","0000-00-00 00:00:00",1
186,"hygeiasmall.jpg",140,0,"2005-05-10 21:44:43","0000-00-00 00:00:00",1
187,"writerreallysmall.jpg",161,0,"2005-05-10 21:50:59","0000-00-00 00:00:00",1
188,"writerreallysmall.jpg",161,0,"2005-05-10 21:58:06","0000-00-00 00:00:00",1
189,"dobsonsmall.jpg",140,0,"2005-05-10 22:03:38","0000-00-00 00:00:00",1
190,"griffithsmall.jpg",140,0,"2005-05-10 22:07:58","0000-00-00 00:00:00",1
191,"writerreallysmall.jpg",161,0,"2005-05-10 22:15:24","0000-00-00 00:00:00",1
193,"tcfryuse.jpg",97,0,"2005-05-11 13:40:19","0000-00-00 00:00:00",1
194,"owensmal.jpg",140,0,"2005-05-11 13:53:30","0000-00-00 00:00:00",1
195,"writerreallysmall.jpg",161,0,"2005-05-11 14:24:05","0000-00-00 00:00:00",1
196,"writerreallysmall.jpg",161,0,"2005-05-11 14:30:04","0000-00-00 00:00:00",1
197,"tildensmall.jpg",140,0,"2005-05-11 14:43:46","0000-00-00 00:00:00",1
198,"writerreallysmall.jpg",161,0,"2005-05-11 14:55:12","0000-00-00 00:00:00",1
199,"harveyuse.jpg",97,0,"2005-05-11 15:22:43","0000-00-00 00:00:00",1
200,"writerreallysmall.jpg",161,0,"2005-05-11 22:16:15","2006-01-11 21:09:55",1
201,"fuhrmansmall.jpg",140,0,"2005-05-11 22:29:01","0000-00-00 00:00:00",1
202,"juicemansmall.jpg",140,0,"2005-05-11 22:43:03","0000-00-00 00:00:00",1
203,"calbomuse.jpg",140,0,"2005-05-11 22:49:46","2005-05-12 13:56:21",1
204,"writerreallysmall.jpg",161,0,"2005-05-11 22:56:00","0000-00-00 00:00:00",1
205,"murraysmall.jpg",140,0,"2005-05-11 23:00:54","0000-00-00 00:00:00",1
206,"jeremysmithsmall.jpg",140,0,"2005-05-12 14:13:03","0000-00-00 00:00:00",1
207,"lymansmall.jpg",140,0,"2005-05-12 14:19:31","0000-00-00 00:00:00",1
209,"cohenrob.jpg",140,0,"2005-05-12 14:34:56","0000-00-00 00:00:00",1
210,"hugginssmall.jpg",140,0,"2005-05-12 14:42:25","0000-00-00 00:00:00",1
211,"mcgeesmall.jpg",140,0,"2005-05-13 12:55:14","0000-00-00 00:00:00",1
212,"fife.jpg",140,0,"2005-05-13 13:04:08","0000-00-00 00:00:00",1
213,"detoxifacationonuse.jpg",96,0,"2005-05-13 13:42:19","2005-05-13 13:45:16",1
214,"millansmall.jpg",140,0,"2005-05-13 15:01:54","0000-00-00 00:00:00",1
215,"holzapfel.jpg",140,0,"2005-05-13 15:12:34","0000-00-00 00:00:00",1
216,"morsedrsmall.jpg",140,0,"2005-05-13 15:39:49","0000-00-00 00:00:00",1
217,"howell.jpg",140,0,"2005-05-13 15:53:48","0000-00-00 00:00:00",1
218,"anthonysmall.jpg",140,0,"2005-05-13 16:02:52","0000-00-00 00:00:00",1
219,"santilliosmall.jpg",140,0,"2005-05-13 16:23:31","0000-00-00 00:00:00",1
314,"enema bag.jpg",100444,97,"2005-12-01 16:30:05","2011-02-25 00:06:30",1
221,"gatosmall.jpg",140,0,"2005-05-13 18:12:44","0000-00-00 00:00:00",1
222,"ericshclsmall.jpg",140,0,"2005-05-13 18:17:57","0000-00-00 00:00:00",1
223,"johnnroobins.jpg",140,0,"2005-05-13 18:23:32","2005-05-14 19:40:36",1
224,"gaishwer.jpg",140,0,"2005-05-13 18:29:37","0000-00-00 00:00:00",1
313,"nataliarose.bmp",140,0,"2005-11-23 07:44:19","0000-00-00 00:00:00",1
226,"rynnberysmall.jpg",140,0,"2005-05-13 19:18:58","0000-00-00 00:00:00",1
100395,"",0,-222,"2010-05-31 08:15:21","2011-12-10 07:47:36",1
228,"lindseey.jpg",140,0,"2005-05-13 19:31:21","0000-00-00 00:00:00",1
230,"blaylock.jpg",140,0,"2005-05-14 19:51:21","0000-00-00 00:00:00",1
231,"billy.jpg",140,0,"2005-05-14 19:58:23","0000-00-00 00:00:00",1
232,"mossralphsmall.jpg",140,0,"2005-05-14 20:04:53","0000-00-00 00:00:00",1
233,"appletonsmall.jpg",140,0,"2005-05-14 20:11:22","0000-00-00 00:00:00",1
234,"garynullsmall.jpg",140,0,"2005-05-14 20:21:32","0000-00-00 00:00:00",1
235,"writerreallysmall.jpg",161,0,"2005-05-14 20:29:58","0000-00-00 00:00:00",1
236,"writerreallysmall.jpg",161,0,"2005-05-14 20:38:33","0000-00-00 00:00:00",1
237,"jacobliber.jpg",140,0,"2005-05-14 20:46:33","0000-00-00 00:00:00",1
238,"writerreallysmall.jpg",161,0,"2005-05-14 20:54:00","0000-00-00 00:00:00",1
239,"mendelson.jpg",140,0,"2005-05-14 21:02:52","0000-00-00 00:00:00",1
240,"quackenbush.jpg",140,0,"2005-05-14 21:14:15","0000-00-00 00:00:00",1
241,"rejeansmall.jpg",140,0,"2005-05-14 23:30:48","0000-00-00 00:00:00",1
242,"writerreallysmall.jpg",161,0,"2005-05-14 23:41:22","2005-05-19 21:47:04",1
243,"gardeningcansmall.jpg",96,0,"2005-05-14 23:49:43","2011-01-31 08:45:03",1
244,"writerreallysmall.jpg",161,0,"2005-05-15 22:17:14","0000-00-00 00:00:00",1
245,"melbar.jpg",140,0,"2005-05-15 22:22:04","0000-00-00 00:00:00",1
246,"writerreallysmall.jpg",161,0,"2005-05-15 22:35:17","2005-05-15 22:35:32",1
247,"vetrono.jpg",140,0,"2005-05-15 22:44:07","0000-00-00 00:00:00",1
248,"volhard.jpg",140,0,"2005-05-15 23:06:23","0000-00-00 00:00:00",1
249,"writerreallysmall.jpg",161,0,"2005-05-15 23:18:50","0000-00-00 00:00:00",1
250,"pictairnsmall.jpg",140,0,"2005-05-15 23:22:57","0000-00-00 00:00:00",1
251,"dianestein.jpg",140,0,"2005-05-15 23:28:24","0000-00-00 00:00:00",1
252,"writerreallysmall.jpg",161,0,"2005-05-16 10:22:44","0000-00-00 00:00:00",1
253,"hobdaysmall.jpg",140,0,"2005-05-16 10:45:55","0000-00-00 00:00:00",1
254,"jacobssssmall.jpg",140,0,"2005-05-16 11:03:14","2005-05-16 11:03:27",1
255,"breiner.jpg",140,0,"2005-05-16 11:31:36","2007-02-07 19:21:48",1
256,"murphyjam.jpg",140,0,"2005-05-16 11:38:04","0000-00-00 00:00:00",1
257,"writerreallysmall.jpg",161,0,"2005-05-16 11:45:32","0000-00-00 00:00:00",1
258,"barafdafda.jpg",140,0,"2005-05-16 13:03:24","0000-00-00 00:00:00",1
259,"theosbernard.jpg",140,0,"2005-05-16 15:51:28","0000-00-00 00:00:00",1
260,"writerreallysmall.jpg",161,0,"2005-05-16 15:59:36","0000-00-00 00:00:00",1
261,"rama.jpg",140,0,"2005-05-16 16:17:11","0000-00-00 00:00:00",1
262,"writerreallysmall.jpg",161,0,"2005-05-16 16:30:40","0000-00-00 00:00:00",1
263,"writerreallysmall.jpg",161,0,"2005-05-16 16:44:37","0000-00-00 00:00:00",1
264,"writerreallysmall.jpg",161,0,"2005-05-16 16:49:25","0000-00-00 00:00:00",1
265,"writerreallysmall.jpg",161,0,"2005-05-16 17:04:56","0000-00-00 00:00:00",1
266,"writerreallysmall.jpg",161,0,"2005-05-16 17:40:53","0000-00-00 00:00:00",1
267,"writerreallysmall.jpg",161,0,"2005-05-16 17:46:30","0000-00-00 00:00:00",1
268,"bondddsmall.jpg",140,0,"2005-05-16 17:50:09","0000-00-00 00:00:00",1
269,"stpinak.jpg",140,0,"2005-05-16 22:17:40","0000-00-00 00:00:00",1
270,"writerreallysmall.jpg",161,0,"2005-05-16 22:32:21","0000-00-00 00:00:00",1
271,"writerreallysmall.jpg",161,0,"2005-05-16 22:46:52","0000-00-00 00:00:00",1
273,"james allansmall.jpg",140,0,"2005-05-16 23:05:23","0000-00-00 00:00:00",1
274,"writerreallysmall.jpg",161,0,"2005-05-17 13:53:47","0000-00-00 00:00:00",1
275,"diseasessmallll.jpg",140,0,"2005-05-17 14:14:49","2005-05-17 14:16:11",1
276,"dvduse.jpg",100239,7,"2005-05-17 16:01:52","2008-02-13 02:31:21",1
277,"elanaloveee.jpg",97,0,"2005-05-17 17:11:28","0000-00-00 00:00:00",1
278,"klaper.jpg",140,0,"2005-05-17 18:00:24","0000-00-00 00:00:00",1
279,"biscui.jpg",97,0,"2005-05-17 18:09:11","2005-09-28 22:10:53",1
280,"kellysmall.jpg",97,0,"2005-05-17 18:18:32","2005-08-25 13:04:36",1
281,"rawrawfood.jpg",276,0,"2005-05-17 23:27:51","2009-11-07 11:59:52",1
282,"rawfoodrececre.jpg",276,0,"2005-05-17 23:28:07","2009-03-09 18:22:41",1
284,"jordanm.jpg",140,0,"2005-05-24 12:02:28","0000-00-00 00:00:00",1
285,"abcuse.jpg",100239,5,"2005-06-08 21:36:28","2008-02-13 02:29:47",1
286,"pixel_trans.gif",285,0,"2005-06-08 21:37:36","0000-00-00 00:00:00",1
287,"pixel_trans.gif",285,0,"2005-06-08 21:37:42","0000-00-00 00:00:00",1
288,"pixel_trans.gif",285,0,"2005-06-08 21:37:50","0000-00-00 00:00:00",1
289,"pixel_trans.gif",285,0,"2005-06-08 21:37:57","0000-00-00 00:00:00",1
290,"pixel_trans.gif",285,0,"2005-06-08 21:38:02","0000-00-00 00:00:00",1
291,"pixel_trans.gif",285,0,"2005-06-08 21:38:07","0000-00-00 00:00:00",1
292,"pixel_trans.gif",285,0,"2005-06-08 21:38:13","0000-00-00 00:00:00",1
293,"pixel_trans.gif",285,0,"2005-06-08 21:38:19","0000-00-00 00:00:00",1
294,"pixel_trans.gif",285,0,"2005-06-08 21:38:29","0000-00-00 00:00:00",1
295,"pixel_trans.gif",285,0,"2005-06-08 21:38:36","0000-00-00 00:00:00",1
296,"pixel_trans.gif",285,0,"2005-06-08 21:38:42","0000-00-00 00:00:00",1
297,"pixel_trans.gif",285,0,"2005-06-08 21:38:48","0000-00-00 00:00:00",1
298,"pixel_trans.gif",285,0,"2005-06-08 21:38:54","0000-00-00 00:00:00",1
299,"pixel_trans.gif",285,0,"2005-06-08 21:39:03","0000-00-00 00:00:00",1
300,"pixel_trans.gif",285,0,"2005-06-08 21:39:09","0000-00-00 00:00:00",1
303,"pixel_trans.gif",285,0,"2005-06-08 21:39:28","0000-00-00 00:00:00",1
304,"pixel_trans.gif",285,0,"2005-06-08 21:39:34","0000-00-00 00:00:00",1
305,"pixel_trans.gif",285,0,"2005-06-08 21:39:40","0000-00-00 00:00:00",1
306,"pixel_trans.gif",285,0,"2005-06-08 21:39:45","0000-00-00 00:00:00",1
307,"pixel_trans.gif",285,0,"2005-06-08 21:39:51","0000-00-00 00:00:00",1
308,"pixel_trans.gif",285,0,"2005-06-08 21:40:00","0000-00-00 00:00:00",1
310,"pixel_trans.gif",285,0,"2005-06-08 21:40:13","0000-00-00 00:00:00",1
319,"sproutersmall.jpg",316,4,"2005-12-04 07:05:18","2010-10-05 13:41:50",1
312,"240-Kenneysmall.jpg",140,0,"2005-10-06 21:06:09","0000-00-00 00:00:00",1
316,"",0,3,"2005-12-04 07:03:13","2011-10-13 08:41:25",1
100277,"rawnola_cerealsmall-1.jpg",100278,10,"2008-10-31 02:50:28","2009-12-26 15:03:28",1
320,"greenstarjuicersmall.bmp",316,0,"2005-12-04 07:05:30","2005-12-31 15:18:20",1
321,"ktec.bmp",316,3,"2005-12-04 07:05:36","2010-04-26 11:12:36",1
322,"excali9tray.bmp",316,2,"2005-12-04 07:05:45","2006-05-12 16:07:33",1
323,"greenstarjuicersmall.bmp",320,1,"2005-12-06 05:17:58","2005-12-30 21:47:55",1
324,"juiceelite800jexl_1676_generalsmall.jpg",320,3,"2005-12-06 05:47:25","2010-03-13 12:46:56",1
325,"hurom-slow-juicersmall.jpg",320,2,"2005-12-06 06:02:03","2010-03-13 12:46:44",1
326,"champiohn juicer.bmp",320,4,"2005-12-06 06:27:24","2005-12-30 20:28:37",1
327,"aaaomegaaa9000.bmp",320,5,"2005-12-06 06:33:00","2005-12-30 20:28:51",1
328,"sallladacoooosmall.bmp",316,5,"2005-12-06 07:09:12","2011-03-14 13:36:44",1
329,"High_outputsmall.jpg",316,6,"2005-12-06 07:14:19","2007-02-04 15:14:49",1
100276,"cocolbrazilsmall.gif",100278,9,"2008-10-31 02:50:01","2010-06-13 17:01:44",1
100450,"chefsknife.jpg",100438,0,"2011-02-24 22:06:50","2011-02-25 00:58:50",1
333,"bluerebounder.jpg",100328,20,"2005-12-08 20:13:44","2012-05-11 15:30:56",1
100286,"healingcancersmall.jpg",276,1,"2009-01-23 10:41:43","2011-11-04 17:56:50",1
10021,"GOL_Color.jpg",100151,68,"2004-08-20 11:27:42","2012-05-30 12:58:55",1
100287,"mms440small.jpg",100151,165,"2009-03-18 21:17:33","2009-03-18 21:35:56",0
10029,"digestivehealth-sum.jpg",10021,1,"2004-08-25 14:20:50","2008-04-05 21:05:42",1
10030,"foundationalnutrition-sum.jpg",10021,2,"2004-08-25 14:22:05","2008-04-05 16:05:27",1
10031,"immunity-sum.jpg",10021,5,"2004-08-25 14:22:27","2008-04-05 16:05:40",1
10032,"livingnutrients-sum.jpg",10021,6,"2004-08-25 14:22:45","2008-04-05 16:05:49",1
10033,"optimalwellness-sum.jpg",10021,7,"2004-08-25 14:23:03","2008-04-05 16:06:08",1
10035,"successkit.jpg",10021,7,"2004-08-29 13:20:03","2008-04-05 16:05:59",0
10037,"books.jpg",10021,10,"2004-08-29 13:53:49","2004-08-30 21:25:21",1
100274,"ssnewlogo.jpg",100151,35,"2008-10-26 05:08:44","2012-08-20 13:17:12",1
100273,"antioxdanats.png",100148,185,"2008-10-26 04:27:56","0000-00-00 00:00:00",1
100272,"Oranges for vitamin csmall.jpg",100148,183,"2008-10-21 07:38:13","0000-00-00 00:00:00",1
100125,"drhowesmall.jpg",100151,155,"2005-12-08 09:07:38","2010-03-12 18:36:12",1
100126,"vitamineral.jpg",100151,60,"2005-12-08 09:43:53","2010-03-12 18:32:11",1
100489,"womdream.jpg",100457,0,"2012-01-10 15:41:52","2012-01-10 20:22:15",1
100419,"gift for him.jpg",100413,0,"2010-12-09 12:48:38","2010-12-09 13:46:18",1
100416,"chineseherbs.jpg",100151,0,"2010-12-07 21:25:44","2012-08-18 16:07:23",1
100417,"",0,101,"2010-12-09 07:16:00","2011-02-24 17:41:47",1
100415,"qbcset.jpg",100457,10,"2010-11-17 16:20:26","2012-01-10 20:18:25",1
100414,"holidrecip.jpg",96,0,"2010-11-17 14:42:34","2010-12-07 19:16:57",1
10068,"caprasmall.jpg",100151,9999,"2004-09-07 13:35:44","2010-03-12 18:40:18",1
10091,"mtcapvital144.jpg",10068,0,"2005-02-23 16:43:11","2005-12-30 22:55:13",1
10073,"mtcapramineral.jjpg.jpg",10068,3,"2004-09-08 13:39:33","2005-12-30 22:55:37",1
10074,"biotics.jpg",10068,6,"2004-09-08 13:44:25","2005-12-30 22:55:04",1
10075,"capracleanse.jpg",10068,3,"2004-09-08 13:45:50","2005-12-30 22:55:43",1
10078,"caprasit.jpg",10068,3,"2004-09-08 13:50:24","2005-12-30 22:55:52",1
10077,"capraflex.jpg",10068,1,"2004-09-08 13:47:13","2005-12-30 22:55:18",1
10079,"candacleanse.jpg",10068,3,"2004-09-08 13:51:16","2005-12-30 22:55:30",1
100284,"Dr_Robert_and_Shelley_Young_pH_Miracle_Livingsmall.png",140,0,"2008-12-25 10:23:14","2008-12-25 10:23:41",1
10092,"mtcapcolostrom.jpg",10068,2,"2005-02-23 16:52:08","2005-12-30 22:55:24",1
10084,"caprazyme.jpg",10068,4,"2004-09-20 21:06:14","2005-12-30 22:55:57",1
100451,"bambooware3.jpg",100438,0,"2011-02-24 22:06:59","2011-02-25 00:48:45",1
100124,"beaute3ljld copy.jpg",100122,2,"2005-12-08 07:34:30","2005-12-30 22:03:42",1
100116,"viteslogo.jpg",100151,99,"2005-12-05 06:11:51","2011-09-09 09:48:31",1
100275,"MoonDropssmall.jpg",100278,1,"2008-10-31 02:49:10","2010-06-13 17:01:37",1
100118,"hacreslogosmall.jpg",100151,67,"2005-12-05 13:08:26","2010-03-12 18:34:27",1
100119,"bmax8.5small.bmp",100118,0,"2005-12-05 16:29:02","0000-00-00 00:00:00",1
100123,"e3live.bmp",100122,1,"2005-12-08 07:34:09","2007-12-19 00:33:44",1
100121,"recipesforlifesmall.bmp",100118,2,"2005-12-05 16:35:52","2005-12-08 07:48:12",1
100122,"e3livesmalllogo.jpg",100151,50,"2005-12-07 15:57:59","2012-01-30 15:37:28",1
100400,"bookmarks.jpg",100239,99999,"2010-07-25 12:47:04","2010-07-25 12:52:39",1
100151,"got greens1mid.jpg",0,4,"2006-04-22 03:05:15","2011-02-24 17:38:03",1
100285,"pic_sheilasmall.jpg",140,0,"2009-01-09 23:34:09","0000-00-00 00:00:00",1
100142,"4893454.jpg",97,0,"2006-02-11 22:15:23","2007-08-12 13:17:49",1
100138,"herbandspicesmalllogo.jpg",100151,68,"2006-02-03 09:03:52","2010-03-12 18:35:29",1
100139,"luhuahoneysmall.bmp",10021,15,"2006-02-03 09:15:23","2008-04-05 16:06:19",1
100245,"Diet-360-thumbsmall.jpg",10021,1,"2008-04-05 22:13:43","2009-12-28 17:06:20",1
100267,"swlogonew.jpg",100151,30,"2008-09-25 01:33:25","2011-10-12 10:42:54",1
100357,"almondsyes.jpg",100241,0,"2009-12-26 09:46:02","2009-12-26 10:06:00",1
100144,"kate2small.jpg",140,0,"2006-03-29 11:32:25","2007-06-29 19:13:27",1
100145,"jenny_large_hand_on_chinsmall.jpg",140,0,"2006-03-29 11:52:54","0000-00-00 00:00:00",1
100212,"superfoodpowders.jpg",100148,15,"2007-08-31 09:07:13","2010-03-12 18:21:05",1
100148,"crunchb.jpg",0,1,"2006-04-21 22:55:52","2011-02-24 17:37:34",1
100358,"bananabreadsmall.jpg",100241,5,"2009-12-26 09:46:26","0000-00-00 00:00:00",1
100271,"sproutlivingsmall.jpg",100151,62,"2008-10-19 01:21:58","2010-03-12 18:34:10",1
100152,"rfwsmallsupps.jpg",100151,1,"2006-04-22 03:26:33","2010-01-30 11:34:31",1
100408,"nascent.jpg",100151,66,"2010-10-07 10:05:10","",1
100242,"athena small.jpg",316,111,"2008-02-29 00:16:40","2008-02-29 00:25:06",0
100157,"botijasmall.jpg",100148,54,"2006-05-22 22:31:20","2008-04-06 18:51:54",1
100158,"dulse_leafsmall.gif",100148,55,"2006-05-22 22:34:40","2008-12-12 11:00:23",1
100159,"darkagavebigsmall.jpg",100148,16,"2006-05-22 22:35:52","2011-09-15 14:07:57",1
100160,"ebooks.jpg",100239,50,"2006-05-24 11:29:59","2009-11-15 19:24:57",1
100162,"4893454.jpg",100160,2,"2006-05-24 11:44:00","2009-11-15 19:26:06",1
100172,"",0,8,"2006-10-06 10:06:31","2011-08-17 09:34:56",1
100213,"warriorhome.jpg",100148,72,"2007-08-31 09:25:40","2010-03-12 18:19:19",1
100166,"CHIA-SEEDS-GROUPsmall.jpg",100148,0,"2006-06-08 07:52:27","2008-11-02 14:35:14",1
100167,"MJ550small.jpg",320,10,"2006-06-16 00:01:31","0000-00-00 00:00:00",1
100168,"CampbellPhotosmall.gif",140,0,"2006-08-09 13:32:39","0000-00-00 00:00:00",1
100169,"synergysmall.jpg",100151,33,"2006-08-09 15:26:57","2011-10-12 10:47:18",1
100171,"pinutbutter.jpg",100148,23,"2006-09-05 12:49:26","2010-03-12 18:19:50",1
100283,"noodlessmall.png",100216,50,"2008-12-20 17:33:01","2010-08-05 10:13:56",1
100282,"kale chips quite cheeseysmall.jpg",100216,5,"2008-12-20 17:32:11","2009-03-05 22:04:25",1
100278,"MoonDropssmall.jpg",100148,25,"2008-10-31 03:19:11","2010-06-13 17:01:08",1
100279,"IamStrongsmall.jpg",100278,30,"2008-11-28 11:11:19","2010-06-13 17:01:54",1
100280,"coconut-editsmall.jpg",100148,69,"2008-12-20 16:11:44","2009-11-05 10:07:14",1
100281,"crusts-genericcrusts.jpg",100216,1,"2008-12-20 17:31:06","2010-09-10 09:52:03",1
100269,"probioticssamljadf.jpg",100148,181,"2008-09-30 15:44:41","0000-00-00 00:00:00",1
100184,"andreassmall.jpg",140,0,"2007-01-18 21:35:29","0000-00-00 00:00:00",1
100523,"h4600_pure_main.jpg",316,0,"2012-06-21 16:39:34","2012-06-21 16:41:49",1
100300,"reddroxsmall.jpg",100151,96,"2009-06-25 23:17:43","2010-03-12 18:39:28",0
100299,"Warrior_Food_Pla_4a88a8afa937fsmall.jpg",100126,10,"2009-06-10 13:17:06","2011-10-07 12:11:00",1
100188,"matt_biosmall.jpg",140,0,"2007-03-14 19:14:12","0000-00-00 00:00:00",1
100189,"oceanssolutionsmall.jpg",100151,70,"2007-04-12 17:57:56","2010-03-12 18:37:30",0
100202,"hempoil_32ozsmall.jpg",100211,2,"2007-08-22 07:46:25","2007-08-24 13:53:04",1
100316,"LRF-Grains-Quinoa-22_0ozsmall.jpg",100148,71,"2009-07-15 20:12:57","0000-00-00 00:00:00",1
100191,"old_fashion_radio_microphonesmall.gif",100160,4,"2007-05-09 15:03:23","2009-11-15 19:25:37",1
100192,"whiteuse.bmp",100160,3,"2007-05-09 15:03:39","0000-00-00 00:00:00",1
100232,"gojibulk.jpg",100148,200,"2008-02-09 22:34:19","0000-00-00 00:00:00",1
100193,"ani.jpg",97,0,"2007-06-02 17:56:48","0000-00-00 00:00:00",1
100194,"rsssm.jpg",141,0,"2007-08-12 12:27:12","2010-01-09 09:30:51",1
100195,"completeebookpackagesmall.jpg",141,5,"2007-08-12 12:27:43","2007-08-12 13:08:39",1
100196,"aaaphone.jpg",141,10,"2007-08-12 12:28:12","2007-08-17 13:23:33",1
100197,"coreebooks.jpg",100142,0,"2007-08-12 12:35:23","2007-08-12 13:09:23",1
100198,"completeebookpackagesmall.jpg",100142,5,"2007-08-12 12:35:53","2007-08-12 13:09:42",1
100199,"REfrontcoversmall.jpg",100142,10,"2007-08-12 12:36:40","2011-04-25 10:24:04",1
100203,"489443.jpg",100211,8,"2007-08-22 07:46:38","2007-08-24 13:54:14",1
100204,"greenstarjuicersmall.bmp",100211,7,"2007-08-22 07:46:57","2007-08-24 13:53:54",1
100205,"anastasia.jpg",97,0,"2007-08-22 07:51:38","0000-00-00 00:00:00",1
100207,"juicefeastebookfrontpage3small.jpg",100211,30,"2007-08-22 12:52:23","2007-08-24 13:54:33",1
100208,"tonguesmall.jpg",100211,6,"2007-08-22 13:37:59","2012-01-10 17:13:56",1
100209,"GP1862small.jpg",100211,0,"2007-08-22 13:46:08","2007-08-24 13:52:38",1
100210,"spacer.gif",100142,30,"2007-08-24 13:06:23","2010-03-27 07:24:29",1
100211,"juicefeastebookfrontpage3small.jpg",100457,9,"2007-08-24 13:07:41","2012-01-10 20:22:56",1
100215,"UliMana_pictures_008-162x162small.jpg",100148,5,"2007-10-01 12:48:07","2011-10-13 08:37:07",1
100216,"noodlessmall.png",100148,53,"2007-10-30 15:46:45","2008-10-31 05:58:30",1
100217,"wisdeom.jpg",276,77,"2007-11-06 13:30:11","2009-03-09 18:23:16",1
100218,"mbr140x177ntsmall.jpg",140,0,"2007-11-18 01:15:52","0000-00-00 00:00:00",1
100219,"Hickssmall.jpg",140,0,"2007-11-18 01:16:11","0000-00-00 00:00:00",1
100221,"foodcombin.jpg",276,80,"2007-11-25 23:52:36","2011-02-21 13:07:44",1
100222,"gojithumb.jpg",100148,22,"2007-12-08 17:20:20","2011-01-24 13:49:04",1
100396,"",28,0,"2010-06-12 17:06:58","",1
100224,"small.jpg",140,0,"2007-12-13 13:49:14","0000-00-00 00:00:00",1
100225,"hay.jpg",140,0,"2007-12-13 14:01:31","0000-00-00 00:00:00",1
100227,"selfhelp.jpg",96,0,"2007-12-13 14:43:27","0000-00-00 00:00:00",1
100228,"producta10003_thumbnail.jpg",28,0,"2008-01-06 14:50:12","2008-01-09 04:02:34",1
100229,"greenfood.jpg",100148,177,"2008-01-20 03:17:24","2008-12-20 16:27:17",1
100230,"producta10003_thumbnail.jpg",100228,0,"2008-02-03 00:31:02","0000-00-00 00:00:00",1
100470,"",28,0,"2011-06-20 10:53:50","",1
100233,"gojibulk.jpg",100232,0,"2008-02-09 22:42:51","2008-02-09 22:47:25",1
100234,"powdersbulk.jpg",100232,5,"2008-02-09 22:46:31","0000-00-00 00:00:00",1
100235,"bulkcacao.jpg",100232,10,"2008-02-09 22:52:47","2011-02-25 15:27:50",1
100236,"agaveuse.jpg",100232,15,"2008-02-09 23:02:25","0000-00-00 00:00:00",1
100237,"macnutsuse copy.jpg",100232,20,"2008-02-11 21:35:52","2008-02-12 01:56:05",1
100238,"rawcover_mockupsmall.jpg",28,0,"2008-02-12 11:49:57","0000-00-00 00:00:00",1
100239,"rawcover_mockupsmall.jpg",0,2,"2008-02-13 02:03:35","2011-02-24 17:37:43",1
100241,"almondsyes.jpg",100148,24,"2008-02-17 12:51:54","2009-12-26 10:05:37",1
100243,"lnav_topsmall.gif",140,0,"2008-03-30 20:22:42","0000-00-00 00:00:00",1
100244,"sidepic_homesmall.gif",140,0,"2008-03-30 20:23:09","0000-00-00 00:00:00",1
100247,"brewersyeast.jpg",100151,205,"2008-04-05 23:34:21","2009-04-27 20:01:08",1
100298,"trulycsmall.jpg",100126,5,"2009-06-10 12:48:49","0000-00-00 00:00:00",1
100293,"Vanilla pint w ing 420small.jpg",100148,70,"2009-05-12 20:24:13","2009-05-12 20:30:24",1
100294,"coconutvinegar.jpg",100216,25,"2009-05-30 20:05:46","2012-04-02 09:28:36",1
100295,"0953.jpg",100232,35,"2009-05-31 21:50:27","2009-05-31 21:50:37",1
100296,"vitamineralgreemnsmall.jpg",100126,0,"2009-06-10 12:42:52","0000-00-00 00:00:00",1
100297,"product-6small.jpg",100126,2,"2009-06-10 12:43:45","0000-00-00 00:00:00",1
100256,"happyoasis.jpg",97,0,"2008-04-15 03:23:04","0000-00-00 00:00:00",0
100257,"enzyljrsmall11.jpg",100148,180,"2008-04-17 01:35:24","2012-06-28 17:13:47",1
100258,"veggjuicejksmall.jpg",100148,333,"2008-04-17 01:38:08","2008-12-20 16:27:08",1
100259,"eddie-lilliansmall.jpg",140,0,"2008-06-17 14:33:49","0000-00-00 00:00:00",1
100260,"tollesmall.jpg",140,0,"2008-07-29 04:22:55","2008-07-29 04:35:22",1
100261,"JLsmall.jpg",140,0,"2008-07-29 04:36:03","0000-00-00 00:00:00",1
100262,"vcodeuse.jpg",10021,0,"2008-08-04 17:39:51","2009-12-28 17:46:19",1
100264,"teeth.jpg",100172,0,"2008-08-22 14:02:32","2011-02-25 00:40:16",1
100265,"msm-lotion.jpg",100172,10,"2008-08-22 14:03:03","2011-02-25 13:54:00",1
100266,"trm_welcome_1small.jpg",140,0,"2008-09-06 17:19:55","0000-00-00 00:00:00",1
100288,"mucuna150.jpg",0,6,"2009-03-30 12:19:40","2011-07-17 13:42:57",1
100397,"pacari.jpg",100151,150,"2010-06-19 09:08:58","2010-10-26 12:51:40",1
100291,"",100142,100,"2009-04-16 18:15:23","2009-04-18 11:05:53",1
100292,"Seeds2small.jpg",100148,57,"2009-04-27 19:00:21","2009-04-27 19:36:30",1
100448,"facial2.jpg",100172,0,"2011-02-24 18:08:23","2011-02-25 00:39:28",1
100302,"cocongallonsmal.jpg",100151,444,"2009-07-03 18:00:00","2010-10-05 18:34:06",1
100303,"hempseed_pouch_sml2small.bmp",100302,0,"2009-07-03 18:01:38","2009-07-04 07:23:47",1
100304,"cocongallonsmal.jpg",100302,5,"2009-07-03 18:02:12","2010-10-05 18:35:04",1
100305,"hempoil_3sizessmall.bmp",100302,10,"2009-07-03 18:02:38","2009-07-04 07:24:12",1
100306,"protein_powder2small.bmp",100302,15,"2009-07-03 18:04:01","2009-07-04 07:24:23",1
100311,"CantronAura(pic)small.jpg",100151,555,"2009-07-06 09:53:49","0000-00-00 00:00:00",0
100312,"Sarmasmall.png",140,0,"2009-07-06 11:02:44","2009-07-06 11:05:59",1
100313,"mucuna150.jpg",100148,69,"2009-07-09 13:09:51","2011-07-17 13:45:36",1
100314,"airplane.jpg",28,25,"2009-07-10 13:35:37","2010-08-11 07:33:31",1
100315,"dmso.jpg",100151,666,"2009-07-13 08:44:04","0000-00-00 00:00:00",1
100318,"Beforeafter Homepage.jpg",28,0,"2009-07-30 09:01:11","2009-07-30 09:06:35",1
100319,"mucuna150.jpg",100288,0,"2009-08-07 17:44:30","2011-07-17 13:44:32",1
100320,"chagasmall.jpg",100288,5,"2009-08-07 17:45:02","2011-07-17 13:44:44",1
100321,"immortal_velvet_deer_antlersmall.png",100288,10,"2009-08-07 17:46:34","2011-07-17 13:44:57",1
100322,"mucuna150.jpg",100313,0,"2009-08-07 18:08:15","2011-07-17 13:43:35",1
100323,"chagasmall.jpg",100313,5,"2009-08-07 18:08:35","2011-07-17 13:43:55",1
100324,"immortal_velvet_deer_antlersmall.png",100313,10,"2009-08-07 18:09:13","2011-07-17 13:44:06",1
100325,"surthrivallogosmall.png",100151,65,"2009-08-07 18:25:12","2010-01-30 11:37:51",1
100326,"omicalogo.jpg",100151,155,"2009-08-11 14:10:35","2011-09-06 16:16:27",1
100327,"Lovely-Legs.jpg",10021,0,"2009-08-18 16:59:21","2009-12-28 17:46:33",1
100328,"needakbabylarge.jpg",0,7,"2009-08-22 17:42:45","2011-06-30 08:17:55",1
100329,"yogagallnotext_2x12small.jpg",100328,0,"2009-08-22 17:45:54","2009-08-22 19:34:42",1
100330,"harmoniclogosmall.jpg",100151,5,"2009-09-25 10:26:31","2010-03-15 17:49:50",1
100332,"yogabar3.jpg",100215,2,"2009-10-09 12:16:05","2011-07-06 13:08:16",1
100333,"UliMana_pictures_008-162x162small.jpg",100215,4,"2009-10-09 12:16:29","2011-07-06 13:08:28",1
100334,"cashew-cacao-hempspreadsmall.jpg",100215,6,"2009-10-09 12:17:26","2011-07-06 13:08:34",1
100335,"paste1kg.jpg",100215,0,"2009-10-09 12:18:55","2011-07-06 13:08:10",1
100368,"phytoplankton.jpg",100151,25,"2010-01-30 11:33:38","2010-09-21 19:26:40",1
100336,"hydratelogosmalll.jpg",100151,12,"2009-10-23 13:07:53","2010-01-30 11:34:48",1
100338,"herbaltea.jpg",100313,44,"2009-11-05 10:29:40","2011-08-18 11:27:17",1
100339,"Beforeafter Homepagesmall.jpg",97,0,"2009-11-05 17:04:49","2009-11-05 17:12:52",1
100341,"christmas-gifts-1383small.jpg",28,999,"2009-11-20 20:02:56","2010-08-26 09:03:29",1
100342,"cafegratitdpics.jpg",100341,0,"2009-11-20 21:05:00","2009-11-20 21:08:41",1
100343,"foodcombin.jpg",100341,10,"2009-11-21 09:11:52","0000-00-00 00:00:00",1
100344,"goji_superfoodsmall.jpg",100341,5,"2009-11-21 09:16:19","2009-11-21 09:21:42",1
100345,"giftssmall.jpg",100341,22,"2009-11-21 09:29:23","0000-00-00 00:00:00",1
100346,"Whiffer Tulipwoodsmall.jpg",100341,33,"2009-11-21 09:50:38","0000-00-00 00:00:00",1
100347,"silicumlogosmall.jpg",100151,155,"2009-11-30 17:56:26","2011-09-13 14:48:21",1
100348,"413m94UazeL._SL500_AA280_small.jpg",100151,155,"2009-11-30 18:25:48","2009-11-30 18:27:01",1
100349,"Rotondismall.jpg",140,0,"2009-12-02 07:28:12","0000-00-00 00:00:00",1
100350,"royal jellysmalooll.gif",100148,70,"2009-12-05 18:17:04","2009-12-05 18:17:42",1
100351,"innatesmall.jpg",100151,111,"2009-12-09 18:09:48","2010-03-12 18:35:55",1
100352,"DivianaNectar_jarsmall.jpg",100171,10,"2009-12-09 18:45:17","2009-12-09 19:09:08",1
100353,"pinutbutter.jpg",100171,0,"2009-12-09 18:45:34","0000-00-00 00:00:00",1
100354,"BTF sustainablesourcesmall.jpg",100151,222,"2009-12-11 11:29:21","2010-01-30 11:40:13",1
100399,"hotrawkslogo.jpg",100151,65,"2010-07-18 12:10:29","2010-07-18 12:10:48",1
100356,"Profoundly Raw Final 6small.jpg",28,0,"2009-12-20 19:21:26","2009-12-20 20:28:56",1
100359,"powerchocuse.jpg",100278,55,"2009-12-26 15:05:47","2010-06-13 17:02:01",1
100360,"herbaltea.jpg",100288,55,"2009-12-26 18:21:59","2011-08-18 11:28:20",1
100361,"199camu.jpg",100212,0,"2009-12-26 18:28:07","2009-12-26 18:55:00",1
100362,"brazilproteinsmall.jpg",100212,0,"2009-12-26 19:09:00","0000-00-00 00:00:00",1
100363,"Beyond.jpg",10021,1,"2009-12-28 16:32:07","2009-12-28 17:07:15",1
100364,"D3Product_GOLsmall-1.jpg",100262,0,"2009-12-28 17:33:03","0000-00-00 00:00:00",1
100365,"Womens_Formulasmall.jpg",100262,0,"2009-12-28 17:33:42","2009-12-28 17:45:50",1
100366,"Raw-Protein-thumbsmall.jpg",100262,0,"2009-12-28 17:34:17","0000-00-00 00:00:00",1
100367,"Wobenzym100ct_Straight2small.jpg",100262,0,"2009-12-28 17:34:40","0000-00-00 00:00:00",1
100369,"Rejuvenate Category Pic.jpg",100151,66,"2010-03-03 19:17:53","2010-04-02 12:41:05",1
100484,"bblogo.jpg",100151,555,"2011-09-07 09:21:51","",1
100370,"nutrexsmall.jpg",100151,222,"2010-03-15 17:50:33","2010-03-16 07:22:16",1
100371,"shamanshack.jpg",100151,20,"2010-03-19 06:18:26","2010-03-19 06:21:45",1
100372,"yhst-35237174652883_2098_2187272.jpg",100148,54,"2010-03-19 11:32:17","2010-04-09 13:01:39",1
100373,"chad-ravioli.jpg",28,0,"2010-04-02 06:29:32","2010-04-02 06:32:35",1
100374,"bokulogo.png",100151,77,"2010-04-02 12:44:05","2011-09-09 11:32:35",1
100375,"",28,0,"2010-04-08 16:30:13","",1
100376,"gift_certificate.jpg",0,100,"2010-04-13 09:18:35","2011-02-24 17:41:40",0
100378,"leftfruit.gif",100151,65,"2010-04-28 09:35:37","2010-04-28 09:41:41",1
100383,"",0,102,"2010-05-11 15:53:43","2011-02-24 17:41:54",1
100381,"gaiah.jpg",100151,80,"2010-05-04 14:55:56","2010-07-29 11:10:27",1
100386,"smoothie.jpg",100383,3,"2010-05-11 16:31:32","2010-05-13 11:09:24",1
100387,"rawjuicesmall.jpg.jpg",100383,2,"2010-05-11 16:33:33","2010-05-13 11:04:55",1
100388,"team.jpg.jpg",100383,9,"2010-05-11 16:34:32","2012-08-02 11:43:00",1
100389,"healingsmall.jpg",100383,1,"2010-05-11 16:47:13","2011-01-13 15:54:59",1
100390,"yoga1.jpg",100328,0,"2010-05-18 11:41:47","2011-07-27 15:01:20",1
100391,"golddropper.jpg",100151,45,"2010-05-23 13:53:56","2010-05-23 18:28:10",1
100392,"xbalance.jpg",100151,66,"2010-05-23 15:05:51","2010-05-23 16:11:32",1
100403,"vignette2.jpg",140,0,"2010-09-04 11:36:16","2010-09-13 14:00:38",1
100393,"cscombopack150.jpg",100151,45,"2010-05-27 09:04:03","2010-06-04 13:17:46",1
100401,"",285,0,"2010-08-02 12:10:12","",1
100402,"32msmall.gif",28,0,"2010-08-09 09:26:40","2010-08-09 09:36:11",1
100404,"bread.jpg",100216,25,"2010-09-10 09:43:27","2010-09-10 09:44:45",1
100405,"ghc.jpg",100151,33,"2010-09-17 08:43:31","2010-09-17 08:43:55",1
100407,"categoryjingherbs.jpg",100151,0,"2010-09-27 08:46:58","2010-09-27 08:47:14",1
100409,"sequel.jpg",100151,0,"2010-10-07 12:06:03","2010-10-07 12:11:34",0
100410,"enerhealth.jpg",100151,66,"2010-10-25 07:23:18","2011-01-14 06:32:17",1
100411,"bbnaturalsthumb1.jpg",100148,55,"2010-10-25 14:40:17","2012-06-28 17:09:54",1
100412,"chlorspirulpic.jpg",100151,2,"2010-11-09 16:47:39","2011-11-16 15:38:06",1
100413,"",28,150,"2010-11-16 08:42:26","2011-01-14 13:27:56",1
100420,"momgift.jpg.jpg",100413,0,"2010-12-09 12:58:16","2010-12-09 14:41:02",1
100421,"kidpresent.jpg",100413,0,"2010-12-09 13:04:57","2010-12-09 13:42:44",1
100422,"anyonegiftsmall.jpg",100413,3,"2010-12-09 13:13:43","2010-12-14 18:26:22",1
100423,"culturekit.jpg",100151,65,"2010-12-26 15:00:00","2011-05-23 11:16:41",1
100424,"proalgzyme.jpg",100151,44,"2010-12-29 10:20:01","2011-01-14 06:31:58",0
100426,"nonilandlogo.jpg",100151,33,"2011-01-12 13:01:24","2011-01-14 06:31:44",1
100427,"mole.jpg",100216,0,"2011-01-12 16:35:53","2011-01-12 17:26:17",1
100428,"",285,0,"2011-01-13 12:38:16","",1
100429,"fdmarine.jpg",100151,55,"2011-01-21 09:32:07","2011-08-02 15:29:14",0
100430,"bwalchemy.jpg",100151,25,"2011-01-26 09:47:15","2011-02-01 18:31:40",1
100431,"kamutpowder1dsmall.jpg",100151,10,"2011-02-01 18:34:00","2011-03-26 13:43:19",1
100432,"mamatea.jpg",100151,0,"2011-02-07 10:48:11","2011-02-08 12:32:34",0
100434,"megathumb.jpg",100151,55,"2011-02-10 14:15:49","2011-08-02 15:29:45",1
100437,"llibationthumb.jpg",100151,65,"2011-02-21 10:17:08","",1
100436,"mercolathumb.jpg",100151,175,"2011-02-14 18:05:34","2011-08-02 15:28:51",1
100438,"",0,12,"2011-02-24 17:20:12","2011-02-24 17:40:21",1
100439,"hurrawlipbalm.jpg",100172,0,"2011-02-24 17:22:22","2011-02-25 00:39:59",1
100440,"organicbodycare.jpg",100172,0,"2011-02-24 17:22:47","2011-02-25 00:38:49",1
100441,"hair.jpg",100172,0,"2011-02-24 17:22:53","2011-02-25 00:39:41",1
100444,"",0,8,"2011-02-24 17:35:22","2011-10-13 08:22:21",1
100443,"beautifuleyes.jpg",100172,0,"2011-02-24 17:23:50","2011-02-25 00:39:12",1
100445,"parasitecleanse.jpg",100444,0,"2011-02-24 17:36:14","2011-02-25 00:05:48",1
100446,"colon-cleanse-health.jpg",100444,0,"2011-02-24 17:36:25","2011-02-25 00:05:32",1
100447,"candida.jpg",100444,0,"2011-02-24 17:36:32","2011-02-25 00:04:58",1
100449,"aloe cadabra.jpg",100172,9,"2011-02-24 18:27:24","2011-02-25 14:02:06",1
100452,"spirooli.jpg",100438,0,"2011-02-24 22:07:09","2011-02-25 00:56:25",1
100453,"znutmilkbagsmall.jpg",100438,0,"2011-02-24 22:07:48","2011-08-15 12:43:44",1
100454,"water.jpg",100438,0,"2011-02-24 22:08:05","2011-02-25 00:56:52",1
100455,"greenstraw.jpg",100438,0,"2011-02-24 22:08:26","2011-02-25 00:58:34",1
100456,"pinkgrinder.jpg",100438,9,"2011-02-24 22:09:19","2011-02-25 01:04:31",1
100457,"",0,10,"2011-02-24 22:13:45","2012-01-12 11:47:04",1
100458,"firstaidcategory1.jpg",100457,15,"2011-02-24 22:44:04","2012-01-10 16:27:16",1
100459,"liver.jpg",100444,0,"2011-02-25 13:42:56","2011-02-25 13:53:28",1
100460,"ptiassoiode.jpg",100151,99999,"2011-03-21 12:57:06","2012-03-18 18:34:00",1
100461,"squeeze.jpg",320,10,"2011-04-05 11:11:02","2011-04-05 11:11:17",1
100488,"kefirkit.jpg",100457,500,"2012-01-10 15:08:31","2012-01-11 13:05:37",1
100463,"pilinut.jpg",100151,99999,"2011-05-16 09:27:41","2011-05-23 11:09:50",1
100464,"gojismall.jpg",100151,999,"2011-05-20 16:57:24","2011-05-20 17:00:42",1
100465,"NutButterMachineSmall.jpg",316,0,"2011-05-21 18:10:11","2012-09-03 12:21:57",1
100466,"b12patch.jpg",100151,0,"2011-05-29 23:42:57","2011-05-29 23:43:17",1
100467,"mlovelogo.jpg",100151,7,"2011-06-01 08:22:48","2011-06-02 09:43:21",0
100468,"bbnlogo.jpg",100151,45,"2011-06-06 07:33:37","2012-02-23 13:21:16",1
100469,"quintonminerals.jpg",100151,0,"2011-06-06 09:22:21","",0
100471,"",28,0,"2011-06-20 15:31:18","",1
100472,"sauna10.jpg",100328,0,"2011-06-30 08:25:23","2011-06-30 08:50:00",1
100473,"turbosonicthumb.png",100328,0,"2011-07-07 09:52:25","2011-07-07 10:22:35",1
100474,"pumpkinseedoils1.jpg",100151,555,"2011-07-11 08:19:34","2011-07-13 07:57:20",1
100475,"rawreformnewsmallersize.jpg",100142,500,"2011-07-11 11:45:59","2011-07-11 11:46:12",1
100476,"qorithumb.jpg",100151,75,"2011-08-03 06:50:00","2011-09-24 18:38:02",1
100477,"brightcorethumb.jpg",100151,80,"2011-08-03 08:11:40","2011-08-12 12:42:58",1
100495,"bigkeylime.jpeg",100492,0,"2012-01-10 16:10:48","2012-01-10 17:04:10",1
100480,"fermentationcrock.jpg",100438,0,"2011-08-12 13:18:29","2011-08-12 13:26:15",1
100481,"immunoHDR3.jpg",100151,999,"2011-08-23 12:52:04","2011-09-24 18:37:14",1
100482,"NuTru.gif",100151,0,"2011-08-23 13:33:44","",1
100485,"teeth.jpg",96,0,"2011-09-09 09:52:30","",1
100486,"organixsouth.gif",100151,0,"2011-10-07 14:55:59","",1
100487,"earcandling.jpg",100172,0,"2011-10-12 10:13:33","2011-10-12 10:14:10",1
100491,"lavendersmall.gif",100457,0,"2012-01-10 15:43:02","2012-01-12 13:10:28",1
100492,"10load.jpg",100457,0,"2012-01-10 15:44:25","2012-01-12 13:10:56",1
100496,"Health473.jpg",100492,0,"2012-01-10 16:16:12","2012-01-10 17:05:23",1
100497,"10load.jpg",100492,0,"2012-01-10 16:17:26","2012-01-10 17:06:07",1
100498,"menscontent.jpg",100489,0,"2012-01-10 16:28:44","2012-01-10 17:12:43",1
100499,"womdream.jpg",100489,0,"2012-01-10 16:29:10","2012-01-10 17:12:06",1
100500,"qbcset.jpg",100415,0,"2012-01-10 16:32:10","2012-01-10 20:18:54",1
100501,"cordlesssmall.jpg",100415,0,"2012-01-10 16:37:51","2012-01-10 20:24:37",1
100502,"trifieldmeter.jpg",100415,10,"2012-01-10 16:41:16","2012-01-12 14:33:21",1
100503,"Gingermf.jpg",100491,0,"2012-01-10 16:42:17","2012-01-10 17:01:28",1
100504,"lavendersmall.gif",100491,0,"2012-01-10 16:48:02","2012-01-10 17:00:28",1
100505,"diffuser.gif",100491,0,"2012-01-10 16:50:50","2012-01-10 17:02:41",1
100506,"Whiffer Tulipwoodsmall.jpg",100491,10,"2012-01-10 16:51:56","2012-01-11 13:09:29",1
100507,"orgtradlogo.jpg",100151,0,"2012-01-12 10:46:06","",1
100508,"yaconsyrupsmall.jpg",100148,0,"2012-01-17 16:21:17","2012-01-17 16:23:53",1
100509,"Ball-Lids-with-Bands.jpg",100438,0,"2012-02-17 14:40:13","",1
100511,"msm-lotion.jpg",100151,15,"2012-03-16 20:44:42","2012-03-19 16:26:26",1
100512,"Variety_Pack_of__4a9c173f0baa9.jpg",100278,1111,"2012-03-18 18:27:51","2012-04-02 09:29:44",1
100513,"HRSO-Logo.jpg",100151,1000000,"2012-03-19 15:26:11","2012-03-19 15:26:35",0
100521,"ringingcedars.png",100151,0,"2012-05-09 14:58:18","",1
100515,"sunpotioin6pack.jpg",100151,0,"2012-03-28 14:53:42","",1
100516,"bb3pk.jpg",100492,1111,"2012-04-09 12:56:27","2012-04-09 13:05:12",1
100517,"3stack.jpg",319,2,"2012-04-10 13:04:58","2012-04-10 15:43:04",1
100518,"sproutighome.jpg",319,1,"2012-04-10 13:06:09","2012-04-10 15:44:13",1
100519,"distribeasygr.jpg",319,3,"2012-04-10 13:07:25","2012-04-10 16:04:56",1
100520,"sproutighome.jpg",28,10000,"2012-04-10 16:43:42","2012-04-10 16:44:06",1
100522,"slim400.jpg",100151,999999999,"2012-06-05 12:13:45","2012-06-05 20:44:07",1
100524,"OWW.jpg",100151,0,"2012-07-12 15:19:19","",1
