Sales Record Number,User Id,Buyer Email,Item ID,Transaction ID,Item Title,Shipped on Date
78580,dirtbikeseller,alexandr@centurytel.net,120673756756,668124492002,Midland Consumer Radio LXT328R-Midland LXT328 *Remanufa,Feb-03-11
78600,grupocpm,jmrodriguez@grupocpm.com,130482330493,497110973003,"Avery 5870 - Clean Edge Laser Business Cards, White, 2",
78608,dflock6,dflock6@sbcglobal.net,130482631694,497127185003,Epson B11B198011-PERFECTION V600 CLR FB,
78616,rhilltenn,rhill5162@gmail.com,120640355504,668240251002,Kodak ENERG-Kodak energ Alkaline Batteries - 3pack = 12,Feb-04-11
78659,stri1178,majortric@roadrunner.com,120622833388,668445065002,Timex T5K267-Timex Ironman Global Trainer w/GPS Technol,
78665,danmac56,daneemac@gmail.com,130482631694,497318272003,Epson B11B198011-PERFECTION V600 CLR FB,Feb-28-11
78670,olden1263,oldencamera@aol.com,120604865977,668491593002,Vidpro PCC-1L-Procase PCC-1L Notebook Computer Case,Feb-04-11
78680,tennesseevalleysales,chris_aka@hotmail.com,130475214573,497358419003,Omron Electronics HBF-516B-Full Body Sensor w Scale Blk,Feb-07-11
78690,mkot758,mkot@leveragemgt.com,120676694047,668589946002,"Kung Fu / Martial Arts DVDs, Box 10 Case Pack 120 41224",
78701,mcmar1944,mcmar@suddenlink.net,120627050107,668620660002,RCA WHP141B-Wireless 900MHz Full Size Headphone,Feb-07-11
78703,whowatchesthewatcher,watchingebay@gmail.com,130482631694,497426367003,Epson B11B198011-PERFECTION V600 CLR FB,
78709,dome2baby,jamesmeyers@hotmail.com,190497524708,513223722009,Asus P8P67               -P8P67 INTEL P67 H67 LGA1155,
78718,shlongmonium,dennishong24@yahoo.com,120673747927,668674243002,Raymarine A06061-Raymarine Adapter Cable E-Series to Se,
78722,mwa17766,michaelarriola1@msn.com,120627050107,668680322002,RCA WHP141B-Wireless 900MHz Full Size Headphone,Feb-07-11
78747,couchjames812,couchjames@rocketmail.com,120677639563,668733679002,Fellowes 4801501 - Privacy Filter for 22 Laptop/LCD FEL,
78751,vmur3912,varsik_m@yahoo.com,130477872516,497514996003,DSCHX1-Sony Cyber-shot DSC-HX1 High-end Digital Camera,
78755,kcdakrt,kcdakrt@yahoo.com,190497524708,513324222009,Asus P8P67               -P8P67 INTEL P67 H67 LGA1155,
78756,keithmbrachel00x,piasek_charles@yahoo.com,120659623112,668778615002,Viewsonic VT2730-27IN WS LCD HDTV 1080P,
78793,somethingtado,foiledagn7@aol.com,190461857378,513545403009,Cross Omni-Cross Omni Ballpoint Pen,Feb-07-11
78815,panda_xt,panda_bb2710@yahoo.com,130418514041,497800353003,Polycom 2457-00449-0-8 Wire Console Cable,Feb-08-11
78836,fnsnyc,flavio.scheiner@gmail.com,190434306542,513756075009,Belkin F2CD001B06-E        -6FT DISPLAYPORT TO HDMI CAB,Feb-11-11
78843,jaromcito232010,jaromcito23@yahoo.com,130423268609,498017826003,Otterbox 1600-20-OtterBox GPS 1600 Case w/o Magnet - Bl,
78855,justanothersunset,jennienniedots@comcast.net,120679860660,669591008002,Cat in the Hat Figure with Candles Case Pack 72 652965,
78878,h.shokouhi,hassan_shokouhi@yahoo.com,120630287761,669767891002,Archos Technology 501482-ARCHOS 9 Port Replicator,Feb-07-11
78908,devildoc0608,mercury.echo_7@yahoo.com,190494411683,514118673009,Dell Inspiron 1545A122-Inspiron 1545 - Ultimate Kit,Feb-08-11
78928,robo2491,robo2491@hotmail.com,120678226988,669831147002,Twin Pack Disposable Douche-Fresh Scent Case Pack 48 42,Feb-10-11
78961,dodgers_562,joselicon562@gmail.com,130474813174,498343176003,AA TVCLNK-Plasma/LCD/Computer Screen Cleaner,Feb-07-11
79009,ant267,dfruci@nycap.rr.com,120627050107,670053806002,RCA WHP141B-Wireless 900MHz Full Size Headphone,Feb-08-11
79025,nhl4blues,greghenderson@mchsi.com,190497524708,514354837009,Asus P8P67               -P8P67 INTEL P67 H67 LGA1155,
79026,farroyom,farroyom@gmail.com,120668409251,670122678002,Intec G5716-BLACK WII 15 IN 1 FAMILY,
79029,mdasc,kris.cordova@gmail.com,130483541511,498516669003,ION VIDEO2PC-VIDEO2PC DIGITAL VIDEO - Kit,Feb-09-11
79032,paranoidpacken,packen@live.com,190497524708,514365531009,Asus P8P67               -P8P67 INTEL P67 H67 LGA1155,
79038,loko4coko,arlene.david@eds.com,130478488403,498537723003,jpcommerce 31705-00602-Copag 1546 Playing Cards - Kit,
79040,chi333,chilovesme@yahoo.com,190429214540,514386347009,Samsung 17221075054-Samsung T609 OEM Swivel Holster,Feb-09-11
79045,zensayshun,verbateam@bellsouth.net,190494006363,514402533009,Malone Auto Racks MPG162-Malone Kayak Block 4 x 4.75 x,
79047,santino790,santino@sancasgroup.com,120664102937,670183012002,DSCW370-Sony Cyber-shot DSC-W370 14.1 Megapixel Compact,
79057,gtfourty,pam31413@gmail.com,130478474642,498580341003,"Perko 0300DP1CHR-Perko Surface Mount Dome Light - 4"" -",
79121,meangreenmother81,technocraticmac@yahoo.com,130475338128,498620457003,2 Pack Waterproof Flashlights - Shake to Power,Feb-08-11
79155,raptore1989,lictor_zakharov@hotmail.com,190497524708,514478498009,Asus P8P67               -P8P67 INTEL P67 H67 LGA1155,
79178,sgakim,sgakim@yahoo.com,120670854430,670287996002,Philips HQ200-NORELCO HQ200 JET CLEAN SOULTION,Feb-10-11
79191,hermannwehlers,hermann@hawkspoint.com,130478523224,498636003003,Siemens GIGASET-C285-2-L36852-H1973-R401 Siemens 2-line,Feb-09-11
79216,dixon757h,dixon@cs.ua.edu,190497524708,514517234009,Asus P8P67               -P8P67 INTEL P67 H67 LGA1155,
79218,ranger811405,vicliz6@yahoo.com,130478517510,498665126003,NEC NP610               -NP610 LCD PROJ XGA 500:1,
79272,drwsupply,danw78vette@rochester.rr.com,130478517510,498748545003,NEC NP610               -NP610 LCD PROJ XGA 500:1,
79285,11ccreations,paul@ccpetproducts.com,120681920541,670456184002,Lucky Ss Petroleum Jelly 10 oz Case Pack 48 430125,Feb-10-11
79334,bbwgoddess22,paervin22@hotmail.com,130478416224,498803283003,Magellan MA4350RGXNA-Maestro 4350 GPS Refurb - Kit,Feb-09-11
79455,anyungtah,dericktah@gmail.com,120640355504,670741949002,Kodak ENERG-Kodak energ Alkaline Batteries - 3pack = 12,Feb-15-11
79456,vondadda,camelboy1@yahoo.com,120627050107,670744006002,RCA WHP141B-Wireless 900MHz Full Size Headphone,Feb-09-11
79462,themegatouchguy,dave@davemanut.com,120680167950,670756056002,Door/Window Alarm Case Pack 100 425121,Feb-11-11
79463,down_holdings,ldzproductions@gmail.com,130483562306,498969570003,Connectpro DVI-EDID-KITU1      -CONNECTPRO DVI-EDID DDC,Feb-09-11
79487,swsjds,swstraveler@gmail.com,120640355504,670860324002,Kodak ENERG-Kodak energ Alkaline Batteries - 3pack = 12,Feb-15-11
79645,dragonbuc,finchcarol@hotmail.com,130482172732,499201841003,Anti static Dryer Balls,Feb-10-11
79753,tylerdavinmcpeak615,tylerdavinmcpeak@gmail.com,120677604176,671210343002,Gemini TT-1000-BELT DRIVE TURNTABLE,Feb-11-11
79818,vegh,rvegh@ymail.com,130484922104,499384481003,Health Care Almond Milk Liquid Soap w/ Pump Case Pack 1,Feb-16-11
80072,vcheck101,vcheck101@aol.com,130473448997,499693262003,American Power Conversion SYAF8KRMT-SYMMETRA LX 8KVA N+,Feb-11-11
80161,leo2425,mr.leo@verizon.net,190464746555,515762302009,Bebe Sound TV920-UNISAR LISTENER WIRELESS HEADSET,Feb-15-11
80201,mocun2008,tomchang1924@yahoo.com,120680245234,672064065002,Mens Quartz Geneva Watch - Japanese Movement[White],Feb-15-11
80292,rakotzy,rakotzy@gmail.com,190501008706,516166109009,Actiontec USB07051C-01-VOSKY CALL CENTER FOR SKYPE,Feb-15-11
80325,adhoc46,jet@jetaylor.com,120682409366,672708718002,D86-04534-Microsoft Visio 2010 Standard,
80360,laptopbase_mike,mike1@laptopbase.com,190500961951,516511661009,Digicom IP-267-IP-267 Wireless RF Home Theatre / Media,Feb-14-11
80441,gammaburst1,gammaburst@mac.com,130468010959,500730541003,Zagg FGLSBRNZAGG73-LEATHERSkin TanFloral iPhone4,Feb-14-11
80513,pizonya,kstanow@bellsouth.net,190500677748,516882656009,"Waist Control Undergarment[XL,Beige]",Feb-15-11
80537,cjm102852,cmartin102852@windstream.net,190500677748,516913687009,"Waist Control Undergarment[2L,Beige]",Feb-15-11
80554,brsnep2007,lindabibles@yahoo.com,190500677748,516942991009,"Waist Control Undergarment[Medium,Beige]",Feb-18-11
80570,7smash7,acsayshey@yahoo.com,190500677748,516960184009,"Waist Control Undergarment[XL,Beige]",Feb-15-11
80632,ahstine,hstine@windstream.net,190500677748,517016592009,"Waist Control Undergarment[Medium,Beige]",Feb-18-11
80650,rockergirl43789,bott0108@umn.edu,190500677748,517029407009,"Waist Control Undergarment[Medium,Beige]",Feb-18-11
80687,lbuck2010,lwebster@caddjm.com,130477428728,501070764003,468729-B21-HP Microsoft Windows Server 2008,Feb-17-11
80710,cmowry,cbmowry@yahoo.com,190500677748,517127977009,"Waist Control Undergarment[Medium,Beige]",Feb-18-11
80731,jadeandy,jadeandy@comcast.net,190500677748,517151939009,"Waist Control Undergarment[3L,Black]",Feb-16-11
80779,ashdance8866,ashlward@yahoo.com,190500677748,517188674009,"Waist Control Undergarment[Medium,Beige]",Feb-18-11
80877,mamanurse85,blmgidiot@yahoo.com,190500677748,517320175009,"Waist Control Undergarment[3L,Beige]",Feb-18-11
80970,jonylancha,jonylancha@aol.com,190500677748,517433036009,"Waist Control Undergarment[Medium,Beige]",Feb-18-11
81058,eptech2003,matt_mccaslin@eptek.com,120683569604,674309708002,Crucial Technology CT12864BC1339-1GB 204-pin SODIMM DDR,Feb-16-11
81109,jmar1907,marty8967@live.com,190500677748,517643687009,"Waist Control Undergarment[Large,Beige]",Feb-18-11
81136,aregdobleu43,rgwpaint@aol.com,120677924640,674464105002,Cannon 1903110-Cannon Intellitroll Sensor,Feb-17-11
81225,stephanie6464,niks4@charter.net,190500721142,517925783009,Pacific Coast Light Warmth Comforter  King- 104x89 6225,Feb-23-11
81289,salespcplus,shartman3@neo.rr.com,130415541686,502042381003,American Power Conversion AP9631              -UPS NETW,
81295,coins-and-more,antimonymining@yahoo.com,130422412909,502062714003,TV Ears 10021-Extra Headset for TV-10041,
81296,chris11891,chris11891@yahoo.com,120686286171,675059400002,Cisco CISCO861-K9-861W Ethernet Security Router,Feb-18-11
81327,jetworxguam,rolandoguyos@guam.net,120605098265,675169604002,VTech CS6209-HANDSET ONLY ACCESSORY DECT 6.0,
81343,carloszonamobile,zonamobilegma2@gmail.com,120686716602,675214127002,Otterbox HTC4-HD7XX-20-E4OTR-OtterBox Commuter Series H,
81344,ahus7813,cc_hackingpro@yahoo.com,190493963241,518257103009,Asus 1008P-KR-PU17-BR-1008P-KR-PU17-BR N450 1.66G     -,
81356,corelj33,crljarmon@yahoo.com,120686716602,675251001002,Otterbox HTC4-HD7XX-20-E4OTR-OtterBox Commuter Series H,
81357,clevelandbrownstim,rangertim325@hotmail.com,190426970157,518283778009,Cobra HG S100-HIGHGEAR EXTERNAL SPEAKER,Feb-22-11
81387,mtfrna,jagadeesh_patil@hotmail.com,120674652085,675355524002,Samsung SSGP2100SZA-SSG-P2100S/ZA 2 Pairs 3D Glasses &,
81396,sest5271,sestrada24@student.rcc.edu,190500199272,518461316009,Misc NOK7200SCRA-HP ProLiant BS664A Blade Server,
81411,calebguada,chiquito0003@aol.com,120615954946,675534707002,Cyber Acoustics CA-3602             -CA-3602 3PC SATELL,
81444,willybb33,wbbarraza@cox.net,190431603938,518647330009,Sima Products SL-20IR-SIMA PRO IR CAMCORDER,
81445,cyou5211,lansdc@yahoo.com,130415798519,502555929003,Viewsonic VNB102_BL1AEA-ViewBook Netbook,
81461,g1coyne,gcoyne@hollandco.com,120674652085,675755051002,Samsung SSGP2100SZA-SSG-P2100S/ZA 2 Pairs 3D Glasses &,
81465,gary1617,ghartman@kc.rr.com,120674652085,675759745002,Samsung SSGP2100SZA-SSG-P2100S/ZA 2 Pairs 3D Glasses &,
81479,famo2777,gongoloop@yahoo.com,130487464902,502692890003,Asus UL80VT-A2-UL80VT-A2 SU7300 1.3G 4GB 320GB,
81483,descuder73,daniel.escuder@gmail.com,120674652085,676017572002,Samsung SSGP2100SZA-SSG-P2100S/ZA 2 Pairs 3D Glasses &,
81498,edgardpaola,carrascoedgardo@gmail.com,190494073864,518955740009,Samsung SSGP2100SZA-SSG-P2100S/ZA 2 Pairs 3D Glasses &,
81519,albertococo5555,albatussin@gmail.com,190494000009,519060102009,Texas Instruments BA20-TI BA 20 Business Calculator - K,
81539,kae93,jpm-kkm@juno.com,130478513534,503044800003,Apple MB643Z/A-Apple Final Cut Studio v.3.0 - Kit,
81542,aasps,aamaleh1@yahoo.com,120663683321,676394334002,"Sanford 30299-LABEL, JEWELRY (barbell style)",Feb-22-11
81552,nickcatalfamo,nick@fusionsolutions.com,130415541686,503062123003,American Power Conversion AP9631              -UPS NETW,
81553,jacobhern,jacobhern@yahoo.com,190500677748,519169349009,"Waist Control Undergarment[Large,Black]",Feb-22-11
81581,hope1981,misnerhope0181@aol.com,120665236317,676503940002,Funkwerk EGOMIC-EGO Replacement Microphone for Car Kits,Feb-22-11
81586,theunknownmagician,xcmaniac@hotmail.com,130484143836,503167924003,LG W2442PA-BF-24IN WS LCD 1920X1080 1000:1,
81608,chartlieb,c_hartlieb@hotmail.com,120613630831,676634879002,RCA DH24SP-2.4GHZ 2WAY DGTL SPLITTER,Feb-22-11
81649,randyw2140,randyweathers55@yahoo.com,190501243141,519485104009,SI-TEX 236/120ST-SI-TEX 236/120ST Transom Mount Transdu,
81672,jetmeck2,jetmeck@aol.com,190493978087,519519289009,Uniden UNIEXP4541-EXP4541 2.4GHz Cordless Phone Black -,Feb-24-11
81681,challam08,c.hallam08@yahoo.com,130481400454,503404240003,Crucial Technology CTFDDAC256MAG-1G1CCA-256GB RealSSD C,
81700,guitarmansgp631,guitarmansgp@yahoo.com,130468478784,503435025003,Folding Lightweight Stereo Headphones T44529,Feb-24-11
81707,pelican990,peters_joanna@hotmail.com,190500677748,519574957009,"Waist Control Undergarment[2L,Black]",Feb-22-11
81715,meljimenez,melissaj_2@excite.com,120686622895,677034500002,Market Basket Flushable Moist Wipes Refill Case Pack 24,Feb-25-11
81787,gigitandr,lrt@tayloradvisors.com,190503418993,519840302009,UnSorted 535973-Cake Saver With Locking Lid and Handle,Feb-25-11
81808,dcg15720,devinguzman@gmail.com,130488319078,503729651003,HP F2231AA#ABA-HP12C Finance Calculator - Kit,Feb-24-11
81836,alpeterson1,apeterson1@hickorytech.net,120688952712,677498406002,SANYO USA SNFSK7W-Sanyo SK7W - Toasty Plus Toaster Oven,
81848,teaguehill,rhondap.georgep@yahoo.com,190503177862,520031756009,Nu-Pore Hair Color Dark-Blonde Case Pack 24 369761,Mar-03-11
81913,kitz7,jkitzer@yahoo.com,190492588065,520157998009,Infocus IN1-Play Big IN1 DLP Projector,
81918,digseac,digseac@gmail.com,130487831985,503997846003,Richardson After Dinner Butter Mints Case Pack 12 32838,
81956,msderb09,msderb@live.com,130487191032,504045243003,Viva eyespa-Eye Gel Mask,Feb-25-11
81958,mberglass,mberglass@carolina.rr.com,190503171827,520217524009,Sima SSW-6-6-PAIR SPEAKER SELECTOR,Feb-24-11
81961,carru2010,carlosjcarrucini@yahoo.com,190425022306,520222305009,Pyle PLDV62-6.5IN 240W 2WAY SPEAKERS,
82000,quilesm32,quilesm32@yahoo.com,190503400883,520351656009,Electrostatic Dry Cloths Case Pack 24 486086,
82003,mcmar1944,mcmar@suddenlink.net,120627050107,677976590002,RCA WHP141B-Wireless 900MHz Full Size Headphone,Feb-24-11
82034,robertpillot1780,robert-pillot@hotmail.com,130477097757,504258499003,"Prago 61-0901-W-9"" Food Slicer",Feb-25-11
82055,jonegjose,jonegpr@yahoo.com,120679008756,678152269002,Magnavox ZV427MG9-Magnavox ZV427MG9 VHS/DVD Recorder,
82058,land9716,liza@andersongrouppr.com,120689058479,678161145002,PC Works Suite Pro 2010 50417,
82109,rekrab609,barkerjohn1@gmail.com,130487191032,504370416003,Viva eyespa-Eye Gel Mask,Mar-02-11
82122,overstockmadness*123,overstockmadness@yahoo.com,130487191032,504404219003,Viva eyespa-Eye Gel Mask,Mar-02-11
82126,winstonmale,kentonboyr@aol.com,130487191032,504409023003,Viva eyespa-Eye Gel Mask,Mar-02-11
82127,cramtastic4,karotop02@yahoo.com,130487191032,504410239003,Viva eyespa-Eye Gel Mask,Mar-02-11
82135,sjamison2005,sjamison05@gmail.com,120681854914,678326890002,"T-fal C8360764 -T-Fal 12"" Fry Pan - Kit",Feb-25-11
82140,petrit2005,pbeqja@hotmail.com,130415541686,504458389003,American Power Conversion AP9631              -UPS NETW,
82155,shknelson,shawnanelson@mindspring.com,130487191032,504474184003,Viva eyespa-Eye Gel Mask,Feb-25-11
82161,questmedia,rick@questassetsmanagement.com,130487191032,504484271003,Viva eyespa-Eye Gel Mask,Mar-02-11
82163,kharkivyanka,nkrupkin@gmail.com,120675393104,678388777002,Aluratek AEBKC01F            -LIBRE EBOOK READER TRAVEL,
82165,vperez.vp,vperez.vp@gmail.com,130469654469,504488200003,HDHomeRun HDHRUS,
82170,sds1114,sds990@hotmail.com,130487191032,504494378003,Viva eyespa-Eye Gel Mask,Feb-25-11
82176,lunatunabanana,asasemo@hotmail.com,130491049515,504497671003,Toy Story Snack Bag In Counter Display Case Pack 24 652,
82182,rfelix76,rfelix_inrisa@prodigy.net.mx,190505851717,520705408009,Logitech 970115-0403         -Z-5500 5.1CH 505W SPEAKER,
82184,billyralphieboy,billstiles@juno.com,130467886487,504511077003,"Grip 29\"" Aluminum Telescopic Anvil Loppers 57597",
82187,butterflycdl,crissydlongo@gmail.com,130487191032,504514545003,Viva eyespa-Eye Gel Mask,Mar-02-11
82189,sds1114,sds990@hotmail.com,130487191032,504517872003,Viva eyespa-Eye Gel Mask,Feb-25-11
82191,mjpolo,mjpolo91@yahoo.com,130490699690,504521634003,"LG 60PK750-Infinia 60PK750 60"" Plasma HDTV",Feb-28-11
82203,fred181818,fwells18@hotmail.com,190490744591,520743549009,New Ultra Slim LED Wall Mount TV Samsung WMN1000B Style,Feb-28-11
82209,alelnegnir,sobieralski@earthlink.net,190503094822,520760298009,"Scotch-Brite 86 - Commercial Heavy-Duty Scouring Pad, G",
82230,biancaaussie,bianca.edwards09@gmail.com,130487191032,504599496003,Viva eyespa-Eye Gel Mask,Mar-02-11
82236,turbovending,santa50@verizon.net,120686195647,678556519002,Peter Coppola Makeover Style Altering Complex Case Pack,
82243,mistressevaria,amclauchlan@americanhose.com,130487191032,504613228003,Viva eyespa-Eye Gel Mask,Mar-02-11
82253,fordbabe289,rdelaney@nccsd.org,130487191032,504634621003,Viva eyespa-Eye Gel Mask,Mar-02-11
82259,iridezx7r,drewswift@hotmail.com,130487191032,504638345003,Viva eyespa-Eye Gel Mask,Mar-02-11
82260,raschal38,raschal38@aol.com,130487191032,504638804003,Viva eyespa-Eye Gel Mask,Mar-02-11
82280,power_2001us,power_2001us@yahoo.com,130469651442,504667829003,Imitation Security Camera w/ Motion Detector 200-693779,
82283,frumluv,elkycat@msn.com,130487191032,504671487003,Viva eyespa-Eye Gel Mask,Mar-02-11
82284,jjjppp2,johnpietras@earthlink.net,130491023666,504671975003,Asus CROSSHAIR IV EXTREME-Crosshair IV Extreme Motherbo,
82290,southkau,jim@southkau.com,190498827234,520884278009,Startech.com PEX1P-1PORT DB25 PAR PCIE SPP/EPP/ECP,
82303,lottatoys,retshirt@verizon.net,130487191032,504748220003,Viva eyespa-Eye Gel Mask,Mar-02-11
82306,xglamazonx,hot_girl_kelly81@yahoo.com,130487191032,504760499003,Viva eyespa-Eye Gel Mask,Mar-02-11
82326,ym2052004,ym2052004@yahoo.com,190503094822,521015379009,"Scotch-Brite 86 - Commercial Heavy-Duty Scouring Pad, G",
82351,tsibuabua,sarahjayneusa@hotmail.com,120683565822,678899888002,Zagg CANPSSD770ISFB-ZAGG invisibleSHIELD Camera Skin fo,Feb-28-11
82357,kemkcc,kemkcc@yahoo.com,190498136367,521092042009,Epson 6100I R-Powerlite 6100I 3500 Lumens XGA Proj,Mar-02-11
82359,niking1,niking519@att.net,120690293690,678936702002,Ram Mount RAM-B-107U-RAM Mount Humminbird Mount f/Units,
82365,francisco111111,professionalalarm@hotmail.com,120689989194,678975238002,"Nextar M3*RFB*AZ-Nextar M3, In-Car Navigation System wi",
82368,deucefromlove,deucefromlove@yahoo.com,130487191032,504917206003,Viva eyespa-Eye Gel Mask,Mar-02-11
82371,sevans4321go,evans01@comcast.net,130487191032,504923763003,Viva eyespa-Eye Gel Mask,Mar-02-11
82372,he3llokitty,micam20@mail.sunysuffolk.edu,130487191032,504924220003,Viva eyespa-Eye Gel Mask,Mar-02-11
82410,anal3995,aliac2003@gmail.com,120683565822,679070366002,Zagg CANPSSD770ISFB-ZAGG invisibleSHIELD Camera Skin fo,
82412,dakar7273,blackdiamond651@gmail.com,130487191032,504984874003,Viva eyespa-Eye Gel Mask,Mar-02-11
82417,firstcorinthians1313,tinkernel@gmail.com,130487191032,504991510003,Viva eyespa-Eye Gel Mask,Mar-02-11
82451,tkcookie,ktcook75@comcast.net,130487191032,505021549003,Viva eyespa-Eye Gel Mask,Mar-02-11
82456,opmgate,pmgate@hawaiiantel.net,120602323655,679131060002,Cables To Go 40610-25' Velocity 3.5mm Extension,
82462,charmlessman82,charmlessman82@hotmail.com,130415897326,505027956003,Canon 0031X367-WRLS PRINT SERVER C6700-WG,
82471,davidtkerry,dtkerry@bellsouth.net,130491400098,505131874003,Ram Mount RAM-HOL-UN4U-RAM Mount Universal Plastic ATV,
82508,fermin747,feo747@hotmail.com,120608118407,679489903002,Gigabyte GA-M68M-S2P-NVIDIA 7025 630A AM2 AM3,
82525,msawiggens,msawiggens@aol.com,130487191032,505396849003,Viva eyespa-Eye Gel Mask,Mar-02-11
82548,maritereperez,maritereperez@gmail.com,120686429614,679679651002,"Crown White Plastic Table Cover 84\"" Round Case Pack 12",
82556,zosiaaa8zofia,zosiaaa8@gmail.com,130487191032,505448227003,Viva eyespa-Eye Gel Mask,Mar-02-11
82559,johnl617,jhnlndn@yahoo.com,130487191032,505450694003,Viva eyespa-Eye Gel Mask,Mar-02-11
82591,201010jeanette,jeanettegoode@att.net,130487191032,505483025003,Viva eyespa-Eye Gel Mask,Mar-02-11
82600,raul43,raulamr@hotmail.com,120680574678,679764143002,Sony SSF5000-Floor Standing Speaker,
82620,richk999,richnaoko@hawaii.rr.com,130458438715,505508137003,Classic Safari&trade; Aluminum Pistol Case SPPC,
82647,dracy_hogan,jack59@sbcglobal.net,120690293690,679819014002,Ram Mount RAM-B-107U-RAM Mount Humminbird Mount f/Units,
78308,stubalini,thedogdr@comcast.net,130479885555,496439528003,Plastic Pill/Tablet Cutter Case Pack 96 272775,Feb-08-11
78331,flabenzomania,phil@nexxtworks.com,120678461436,667343872002,Corsair CM3X8GSDKIT1066     -8GB DDR3 1066MHZ 204PIN SO,Feb-03-11
78390,cats4eva,dc725@comcast.net,120627050107,667462524002,RCA WHP141B-Wireless 900MHz Full Size Headphone,Feb-02-11
78392,damanrog,damantrd@yahoo.com,130479880269,496576253003,Noodle Nongshim Hot-Spicy Bowl Case Pack 72 80768,Feb-04-11
78472,msderb09,msderb@live.com,130482224321,496791138003,"Waist Control Undergarment[2L,Beige]",Feb-10-11
78515,owner2006,onenation05@earthlink.net,120606943818,667857620002,Samsung WT17221075103-Samsung SCH-U470/Juke OEM Holster,Feb-04-11
