products_id,products_name,products_image,products_price,products_status,visible,kit,component pid,component qty,Add to List ID
1005869,[Variety 4-pack] Probiotic Almonds - 4 Flavors! *SPECIAL*,sunbiotic4pkSM.jpg,10.05,1,x,,,,44
1007510,[Variety 4-pack] Superfood Cereal - Living Intentions,12306701456511736317232small.jpg,22.55,1,x,,,,44
1007192,[Variety 3-Pack] Mauk Family Farms *SPECIAL*,crusts-genericcrusts.jpg,8.11,1,x,,,,44
1005549,[3-pack] Kelp Noodles [LARGE] 1 POUND-Sea Tangle,noodlessmall.png,19.47,1,x,x,1004081,3,44
1005871,[3-pack] Probiotic Cheesy Almonds - SUNBIOTIC *SPECIAL*,cheesysunbiotic.jpg,7.54,1,x,x,1005644,3,44
1005877,[3-pack] Probiotic Truffle Almonds - SUNBIOTIC,trufflesunbiotic.jpg,11.97,1,x,x,1005646,3,44
1007159,"[3-pack] Hazelnut Butter (Stone Ground), 16oz - DASTONY",16ozdastonyhazelnutbutter.jpg,50.94,1,x,x,1007205,3,44
1007081,"[3-pack] Mesquite Powder (Organic), 16oz *special*",mesquite 002.jpg,28.26,1,x,x,1004893,3,44
1007166,"[3-pack] RAW Pili Nut Butter,6oz w/Coconut Sugar-Divine Organics",raw-pili-nut-butter-6-oz.jpg,28.33,1,x,x,1006584,3,44
1007167,"[3-pack] LARGE - Thai Coconut Sugar [Crystallized Sap], 3lbs",divianasugar3lb.jpg,52.88,1,x,x,1004873,3,44
1006631,"[3-pack] Thai Coconut Sugar [Crystallized Sap], 8.83oz *special*",cocosugatah.jpg,16.92,1,x,x,1004786,3,44
1005081,"[3-pack] Mountain Apricots (Organic), 16oz *SPECIAL*",mountainapricots.jpg,32.04,1,x,x,1007559,3,44
1004580,[3-pack] Superfood Cereal - Acai Blueberry 9oz package *SPECIAL*,1230663745783343397946small.jpg,16.92,1,x,x,1002844,3,44
1004581,[3-pack] Superfood Cereal - Cacao Crunch 9oz package *SPECIAL*,12306711798821477062329small.jpg,16.92,1,x,x,1002845,3,44
1006841,[3-pack] Superfood Cereal - Chia Ginger 9oz package *special*,12306701456511736317232small.jpg,16.92,1,,x,1002878,3,44
1004583,[3-pack] Superfood Cereal - Hemp & Greens 9oz package *SPECIAL*,12306721090621557793225small.jpg,16.92,1,,x,1002846,3,44
1007599,"Raspberry Detox Superfood Cereal, 9oz - Living Intentions",RaspberryDetox.jpg,8.95,1,x,,,,44
1007810,"[3-pack] Raspberry Detox Superfood Cereal, 9oz-Living Intentions",RaspberryDetox.jpg,16.92,1,x,x,1007599,3,44
1007598,"Maca Honeycomb Superfood Cereal, 9oz - Living Intentions",MACAHONEYCOMB.jpg,8.95,1,x,,,,44
1007812,"[3-pack] Maca Honeycomb Superfood Cereal, 9oz-Living Intentions",MACAHONEYCOMB.jpg,16.92,1,x,x,1007598,3,44
1007194,[3-pack] BREAKFAST Crusts - Mauk Family Farms *SPECIAL*,crusts-genericcrusts.jpg,8.11,1,x,x,1001436,3,44
1006515,[3-pack]Flax Cracker(Thick)MINERAL RICH Crusts-Mauk Family Farms,crusts-genericcrusts.jpg,8.11,1,x,x,1001422,3,44
1006516,[3-pack]Flax Cracker (Thick) WHEAT FREE Crusts-Mauk Family Farms,crusts-genericcrusts.jpg,8.11,1,x,x,1001409,3,44
1007177,[3-pack] Colosan 200 Grams *special*,colosansmall.jpg,43.38,1,x,x,1001655,3,44
1006158,"[3-pack] Blood Builder, 60 Caps - MegaFood *SPECIAL*",bloodbuilder.jpg,51.98,1,x,x,1005204,3,44
1007815,"[3-pack] Crystal Energy, 4oz - Dr. Patrick Flanagan *special*",crystalenergy.gif,84.96,1,x,x,1002841,3,44
1006023,"[3-pack] Sweet Wheat, 30 grams/1 Month Supply *SPECIAL*",sweatwheat.jpg,54.72,1,x,x,1005139,3,44
1006294,"[3-pack] 4 Eternals, 75 grams - Shaman Shack *SPECIAL*",4eternals.jpg,86.85,1,x,x,1005967,3,44
1007819,"[Variety 4-pack] Kale Chips,2.2oz - Blessings *special*",hibiscpepp.jpg,15.09,1,x,,,,44
1007820,"[3-pack] Kale Chips (Cheezy), 2.2oz - Blessing's *SPECIAL*",Kale Krunch Cheezy-2T.jpg,11.32,1,X,x,1001948,3,44
1007821,"[3-pack]Kale Chips (Cheezy CHIPOTLE), 2.2oz-Blessing's *special*",cheezychipotle.jpg,11.32,1,x,x,1005402,3,44
1005261,[3-pack]Kale Chips (Southwestern Ranch) - Blessing's *SPECIAL*,kale chips ranchiersmall.jpg,11.32,1,x,x,1007822,3,44
1006451,"Kale Chips (Hibiscus Pink Peppercorn), 2.2oz - Blessings",hibiscpepp.jpg,5.99,1,x,,,,44
1007043,[Variety 5-pack] 5 Flavors - Lulu's Bars! *SPECIAL*,macachunk.jpg,14.14,1,x,x,,,44
1005589,"[3-pack] LuLu's Aztec Crunch Bar, 1 oz *SPECIAL*",azteclulu.png,8.49,1,x,x,1005289,3,44
1005587,"[3-pack] LuLu's Chocolate Maca Chunk Bar, 1oz *SPECIAL*",macachunk.jpg,8.49,1,x,x,1004172,3,44
1005586,"[3-pack] LuLu's Maca Love Bar, 1oz *SPECIAL*",lulovebar.jpg,8.49,1,x,x,1004173,3,44
1007047,"[3-pack] LuLu's Raw LOVE Bar, 1oz *special*",lululovebar.jpg,8.49,1,x,x,1006413,3,44
1006309,"[3-pack] LuLu's Smoked Sea Salt Almond Bar, 1oz *SPECIAL*",ssaltlulu.png,8.49,1,x,x,1006267,3,44
1005609,[3-pack] Gopal's Power Wrap - Curry *SPECIAL*,a_stix.jpg,4.25,1,x,x,1001410,3,44
1005610,[3-pack] Gopal's Power Wrap - Italian *SPECIAL*,a_stix.jpg,4.25,1,x,x,1001411,3,44
1004620,[3-pack] Gopal's Power Wrap - Japanese *SPECIAL*,a_stix.jpg,4.25,1,x,x,1002426,3,44
1007828,[3-pack] Gopal's Power Wrap - Masala *special*,a_stix.jpg,4.25,1,x,x,1003189,3,44
1006397,[3-pack] Gopal's Power Wrap - Mexican *SPECIAL*,a_stix.jpg,4.25,1,x,x,1001412,3,44
1005602,"[3-pack] Banana Coconut Snakaroons, Laughing Giraffe *SPECIAL*",bananaroons.jpg,18.81,1,x,x,1004144,3,44
1005604,"[3-pack]Goji Cacao & Maca Snakaroons, Laughing Giraffe *SPECIAL*",gojicacaoroons.jpg,18.81,1,x,x,1004147,3,44
1005606,"[3-pack]Pineapple Macadamia Snakaroons, Laughing Giraffe SPECIAL",pinappleroons.jpg,18.81,1,x,x,1004145,3,44
1005608,[3-pack] Vanilla Almond Snakaroons - Laughing Giraffe *SPECIAL*,vanillaroons.jpg,18.81,1,x,x,1002178,3,44
1007117,[3-pack] Pinhole Glasses *special*,ssglasses.jpg,35.44,1,x,x,1004397,3,44
1006398,"[3-pack] Eco Formula SUNSCREEN, 30 SPF - *SPECIAL*",ecosunscreen.png,35.82,1,x,x,1005183,3,44
1005705,"[3-pack] Pure Pitz Natural Deodorant, 0.5 oz *SPECIAL*",purepitzlisa.jpg,24.57,1,x,x,1005408,3,44
1005114,"[3-pack]Glass Straw, Beautiful Bend, 9.5mm x 9"" *SPECIAL*",bendystraw.jpg,17.96,1,x,x,1004502,3,44
1007200,[3-pack] QBC EMF Computer and House Balancer *special*,homebalancer.png,94.41,1,x,x,1004107,3,44
1007832,"[Variety 2-pack] Glass Drinking Straw ( 9"" x 9.5mm)",singleshortysmall.jpg,11.03,1,x,,,,44
1004621,[Variety 5-pack] Gopal's Power Wraps *SPECIAL*,a_stix.jpg,7.09,1,x,,,,44
1005600,[Variety 4-pack] Snakaroons - Laughing Giraffe *SPECIAL*,vanillaroons.jpg,25.07,1,x,,,,44
1005729,"Sacha Inchi Seeds, 3.5oz - Organic Traditions",sachainchiseeds.jpg,7.99,0,x,,,,46
1005897,"[3-pack] Sacha Inchi Seeds, 3.5oz *SPECIAL*",sachainchiseeds.jpg,15.1,0,x,x,1005729,3,46
1007850,[Variety 4-pack] Jing Herbs *special*,astragalus.jpg,61.01,1,x,,,,46
1005774,"[3-pack] Astragalus Extract Powder, 50 gram JING HERBS *SPECIAL*",astragalus.jpg,35.91,0,x,x,1003752,3,46
1007251,"[3-pack] Chaga Powder, 50 grams - Jing Herbs *special*",jingchaga.jpg,41.49,0,x,x,1003976,3,46
1005770,"[3-pack] He Shou Wu, 50 grams - JING HERBS *SPECIAL*",heshouwu.jpg,37.78,0,x,x,1003919,3,46
1005772,"[3-pack] Ye Sheng Reishi Mushroom, 50 gram JING HERBS *SPECIAL*",reishispores.jpg,66.06,0,x,x,1003889,3,46
1006493,[3-pack] [LARGE] Bariani Olive Oil 1L,31G5VJSRW0L._AA280_small.jpg,49.05,0,x,x,1003179,3,46
1007502,"Premium Grade Cinnamon Powder (Organic Ceylon, ColdPressed), 8oz",cinnamonsmall.jpg,12.99,0,x,,,,46
1007511,[3-pack] Premium Grade Cinnamon Powder 8oz,cinnamonsmall.jpg,24.55,0,x,x,1007502,3,46
1003008,"Organic Raw Cashews, 16oz",raw-organic-cashew-nuts-ER011mediumsmallest.jpg,16.95,1,x,,,,46
1007387,"[3-pack] Organic Raw Cashews, 16oz *special*",raw-organic-cashew-nuts-ER011mediumsmallest.jpg,32.04,0,x,x,1003008,3,46
1006167,[3-pack] Incan (Golden) Berries 16oz *SPECIAL*,incanberry.jpg,37.71,0,x,x,1001509,3,46
1007852,"[3-pack] Coconut BUTTER, 16oz - DASTONY",coconut-butter-16.jpg,33.93,0,x,x,1007496,3,46
1006764,"[3-pack] Raw Pecan Butter, 8oz - Wilderness Poets *special*",wildernesspecan.jpg,26.93,0,x,x,1001262,3,46
1007280,"[3-pack] RED Quinoa [Organic, Raw], 16oz - International Harvest",redquinoa.jpg,18.81,0,x,x,1006406,3,46
1004829,"[3-pack] Red Maca (raw, certified organic) 1lb *SPECIAL*",redmaca.jpg,47.16,0,x,x,1001423,3,46
1007169,[3-pack] 50 SHEETS Certified Organic Raw Untoasted Nori,nori50.jpg,37.71,0,x,x,1001001,3,46
1007854,"[3-Pack] Spirulina Tablets, 250 Grams - 500 Tablets",spirulina-tablets.jpg,66.15,1,x,x,1001901,3,46
1005247,"[3-pack] MSM Capsules, 250 Vcaps (1000 mg) *SPECIAL*",531895smalll.jpg,49.05,0,x,x,1003854,3,46
1007856,[Variety 2-pack] Foods for Longevity Powder,kalepowderffl.jpg,25.14,1,x,,,,46
1006291,"[3-pack] Freeze Dried Kale Powder, 4oz *SPECIAL*",kalepowderffl.jpg,37.71,0,x,x,1006287,3,46
1004686,"[3-pack] Broccoli Sprout Powder, 2.2oz *SPECIAL*",brocoolisproutsmall.jpg,37.72,0,x,x,1004555,3,46
1006511,"[3-pack] Oreganol P73, 0.45 oz - North American Herb & Spice",p7345.png,56.68,0,x,x,1005290,3,46
1006651,"[3-pack] Tribulus 18:1 Extract w/ 10% Shilajit, 40 gram",shilajittribss.jpg,75.51,0,x,x,1003266,3,46
1006653,"[3-pack] Rhodiola Crenulata Root Extract 12:1, 50 grams",Rhodiola-Amber-Jar.jpg.w180h195.jpg,75.51,0,x,x,1006998,3,46
1006389,[3-pk] Gokshura Powder Tribulus 7oz -Organic Traditions *SPECIAL,gokshurapwdrot.jpg,18.88,0,x,x,1006358,3,46
1007825,"[Variety-2 pack] Zucchini Chips, 1.5oz - Just Pure Foods",ZuccPesto.png,8.81,1,x,,,,46
1007837,"Crispy Onion Rings, 2oz - Just Pure Foods",onion.png,6.99,1,x,,,,46
1007857,"[3-Pack] Crispy Onion Rings, 2oz - Just Pure Foods",onion.png,13.21,1,x,x,1007837,3,46
1007860,"[3-Pack] Pesto Tomato Chips, 1.5oz - Just Pure Foods",pestotomatochips.jpg,6.99,1,x,x,1007243,3,46
1007284,"[3-pack] RAWMIO SUPERFOOD Raw Chocolate Bark, 2.2oz",rawmio cereal bark.jpg,15.03,0,x,x,1006593,3,46
1006955,[Variety 3-pack] Living Intentions Nuts,cacaoLN.jpg,9.43,0,x,,,,46
1006187,"[3-pack] Spicy Chipotle Pistachios, 3.5oz *SPECIAL*",scppsLN.jpg,11.25,0,x,x,1001112,3,46
1007863,"[3-Pack] Rosemary GARLIC Pistachios & Almonds, 3oz - Living Intentions",rgpaLN.jpg,9.43,1,x,x,1001113,3,46
1006938,"[3-pack] Lemon Pepper CAJUN Almonds, 3oz - Living Intentions",lpcLN.jpg,9.43,0,x,x,1006259,3,46
1006517,"[3-pack] Walnut Inspiration, 4.5oz - New Earth Center *special*",walnutinspiration.jpg,13.17,0,x,x,1005494,3,46
1005461,"[Variety 4-pack] Lydia's Raw Organic Cereals, 16oz *SPECIAL*",CerealBerryGoodsmall.jpg,22.09,0,x,,,,46
1007270,"[3-pack] Green Crackers, 5oz - Lydia's Organics *special*",lydiasgreen.jpg,16.61,0,x,x,1004546,3,46
1007274,"[3-pack] Italian Crackers, 5oz - Lydia's Organics *special*",italianlydia.jpg,15.03,0,x,x,1002050,3,46
1007273,"[3-pack] Luna Crackers, 5oz - Lydia's Organics *special*",lunanori.jpg,16.61,0,x,x,1002051,3,46
1007277,"[3-pack] Sunflower Seed Bread (RAW), 8oz - Lydia's Organics",Sunflowerseedbreadsmall.jpg,17.94,0,x,x,1002433,3,46
1007866,[Variety 2-pack] - Rawkin Raw,crawkin.jpg,5.03,1,x,,,,46
1006405,"[3-pack] Chocolate Superfood Cookie, 2oz - Rawkin Raw *Special*",crawkin.jpg,7.53,0,x,x,1006062,3,46
1006513,"[3-pack] Spirulina Mint Superfood Cookie, 2oz - Rawkin Raw",mrawkin.jpg,7.54,0,x,x,1006061,3,46
1006819,"[Variety 3-pack] [SMALL] MSM Lotions, 8oz",MSM Lotion Berry Vanilla 8oz-150.jpg,24.48,0,x,,,,46
1006021,"[3-pack] MSM Coconut Rose Lotion, 8oz *SPECIAL*",MSM Lotion Coconut Rose 8oz-150.jpg,24.48,0,x,x,1001098,3,46
1006019,"[3-pack] MSM Lavender Lotion, 8oz *SPECIAL*",MSM Lotion Lavender-150.jpg,24.48,0,x,x,1001099,3,46
1004938,"[3-pack] MSM Medicinal Lotion, 8oz *SPECIAL*",MSM Lotion Medicinal 8oz-150.jpg,24.48,0,x,x,1001210,3,46
1003399,"[3-Pack] Orange TKO , 16oz - Organic",Health473.jpg,47.85,0,x,x,1003404,3,46
1006522,"[3-pack] Magnesium Bath Flakes, 1.65lbs - Ancient Minerals",magflakes.jpg,18.43,0,x,x,1005834,3,46
1005620,[3-pack] Stainless Steel Tongue Cleaner *SPECIAL*,tonguesmall.jpg,13.23,0,x,x,1001298,3,46
,,,,,,,,,
,,,,,,,,,
,,,,,,,,,
